22DPB0001G;EMILIANO ZAPATA;1;QUERETARO;001;AMEALCO DE BONFIL;0089;LOS ARBOLES;CONOCIDO, LOS ARBOLES TLAXCALTEPEC NUM. 0;;IN;103;22;74;24;30;;;;;;2011;;;;X;4;7;0;0;0;0;0;0;0;0;0;11;4;7;0;0;0;0;0;0;0;0;0;11;3;7;0;0;0;0;0;0;0;0;0;10;0;7;1;0;0;0;0;0;0;0;0;8;0;7;1;0;0;0;0;0;0;0;0;8;0;6;1;0;0;0;0;0;0;0;0;7;4;14;1;0;0;0;0;0;0;0;0;19;4;14;1;0;0;0;0;0;0;0;0;19;3;13;1;0;0;0;0;0;0;0;0;17;1;3;3;0;1;0;0;0;0;0;0;7;3;3;0;1;0;0;0;0;0;0;7;3;3;0;1;0;0;0;0;0;0;7;1;3;0;0;0;0;0;0;0;0;4;1;3;0;0;0;0;0;0;0;0;4;1;3;0;0;0;0;0;0;0;0;4;4;6;0;1;0;0;0;0;0;0;11;4;6;0;1;0;0;0;0;0;0;11;4;6;0;1;0;0;0;0;0;0;11;1;2;6;1;1;0;0;0;0;0;10;2;6;1;1;0;0;0;0;0;10;2;6;1;1;0;0;0;0;0;10;2;5;0;1;0;0;0;0;0;8;2;5;0;1;0;0;0;0;0;8;2;5;0;1;0;0;0;0;0;8;4;11;1;2;0;0;0;0;0;18;4;11;1;2;0;0;0;0;0;18;4;11;1;2;0;0;0;0;0;18;1;6;4;1;1;0;0;0;0;12;6;4;1;1;0;0;0;0;12;6;4;1;1;0;0;0;0;12;1;4;0;2;0;0;0;0;7;1;4;0;2;0;0;0;0;7;1;4;0;2;0;0;0;0;7;7;8;1;3;0;0;0;0;19;7;8;1;3;0;0;0;0;19;7;8;1;3;0;0;0;0;19;1;1;6;0;0;0;0;0;7;1;6;0;0;0;0;0;7;1;6;0;0;0;0;0;7;1;8;0;0;0;0;0;9;1;8;0;0;0;0;0;9;1;8;0;0;0;0;0;9;2;14;0;0;0;0;0;16;2;14;0;0;0;0;0;16;2;14;0;0;0;0;0;16;1;0;2;1;0;0;0;3;0;2;1;0;0;0;3;0;2;1;0;0;0;3;0;6;0;0;0;0;6;0;6;0;0;0;0;6;0;6;0;0;0;0;6;0;8;1;0;0;0;9;0;8;1;0;0;0;9;0;8;1;0;0;0;9;1;4;10;5;12;7;8;3;1;0;0;0;50;4;10;5;12;7;8;3;1;0;0;0;50;3;10;5;12;7;8;3;1;0;0;0;49;0;8;6;6;5;9;8;0;0;0;0;42;0;8;6;6;5;9;8;0;0;0;0;42;0;7;6;6;5;9;8;0;0;0;0;41;4;18;11;18;12;17;11;1;0;0;0;92;4;18;11;18;12;17;11;1;0;0;0;92;3;17;11;18;12;17;11;1;0;0;0;90;6;40 OTOMI V FAM OTO-MANGUE ;1;1;2;0;0;0;0;0;0;3;3;1;0;2;0;0;3;27/06/2012 09:50:57 a.m.
22DPB0002F;ALFONSO CASO;1;QUERETARO;001;AMEALCO DE BONFIL;0059;EL BOTHE;CONOCIDO NUM. 0;;IN;104;22;74;24;30;;;;;;2011;1;;;;;;;;;;;;;;;;;;;;;;;;;;;;;;;;;;;;;;;;;;;;;;;;;;;;;;;;;;;;;;;;;;;;;;;;;;;;;;;;;;;;;;;;;;;;;;;;;;;;;;;;;;;;;;;;;;;;;;;;;;;;;;;;;;;;;;;;;;;;;;;;;;;;;;;;;;;;;;;;;;;;;;;;;;;;;;;;;;;;;;;;;;;;;;;;;;;;;;;;;;;;;;;;;;;;;;;;;;;;;;;;;;;;;;;;;;;;;;;;;;;;;;;;;;;;;;;;;;;;;;;;;;;;;;;;;;;;;;;;;;;;;;;;;;;;;;;;;;;;;;;;;;;;;;;;;;;;;;;;;;;;;;;;;;;;;;;;;;;;;;;;;;;;;;;;;;;;;;;;;;;;;;;;;;;;;;;;;;;;;;;;;;;;;;;;;;;;;;;;;;;;;;;;;;;;;;;;;;;;;;;;;;;;;;;;;;;;;;;;;;;;;;;;;;;;;;;;;;;;;;;;;;;;;;;;;;;;;;;;;;;;;;;;;;;;;;;;;;;;;;;;;;;;;;;;;;;;;;;;;;;;;;;;;;;;;;;;;;;;;;;;;;;;;;;;;;;;;;;;;;;;;;;;;;;;;;;;;;;;;;;;;;;;;;;;;;;;;;;;;;;;;;;;;;;;;;;;;;;;;;;;;;;;;;;;;;;;;;;;;;;;;;;;;;01/07/2012 06:24:42 p.m.
22DPB0004D;LEON COVARRUBIAS;1;QUERETARO;001;AMEALCO DE BONFIL;0029;STGO. MEXQUITITLAN BARRIO 5O. (EL PASTOREO);CONOCIDO, TIERRA BLANCA NUM. 0;;IN;101;22;74;24;30;;;;;;2011;;;;X;0;4;0;0;0;0;0;0;0;0;0;4;0;4;0;0;0;0;0;0;0;0;0;4;0;4;0;0;0;0;0;0;0;0;0;4;2;4;0;1;1;0;0;0;0;0;0;8;2;4;0;1;1;0;0;0;0;0;0;8;2;4;0;1;1;0;0;0;0;0;0;8;2;8;0;1;1;0;0;0;0;0;0;12;2;8;0;1;1;0;0;0;0;0;0;12;2;8;0;1;1;0;0;0;0;0;0;12;1;0;5;0;0;1;0;0;0;0;0;6;0;5;0;0;1;0;0;0;0;0;6;0;4;0;0;1;0;0;0;0;0;5;0;7;2;1;0;0;0;0;0;0;10;0;7;2;1;0;0;0;0;0;0;10;0;5;2;1;0;0;0;0;0;0;8;0;12;2;1;1;0;0;0;0;0;16;0;12;2;1;1;0;0;0;0;0;16;0;9;2;1;1;0;0;0;0;0;13;1;0;0;1;1;0;1;0;0;0;3;0;0;1;1;0;1;0;0;0;3;0;0;1;1;0;1;0;0;0;3;0;5;1;0;0;0;0;0;0;6;0;5;1;0;0;0;0;0;0;6;0;3;0;0;0;0;0;0;0;3;0;5;2;1;0;1;0;0;0;9;0;5;2;1;0;1;0;0;0;9;0;3;1;1;0;1;0;0;0;6;1;1;4;1;0;0;0;0;0;6;1;4;1;0;0;0;0;0;6;1;2;1;0;0;0;0;0;4;0;4;0;0;0;0;0;0;4;0;4;0;0;0;0;0;0;4;0;4;0;0;0;0;0;0;4;1;8;1;0;0;0;0;0;10;1;8;1;0;0;0;0;0;10;1;6;1;0;0;0;0;0;8;1;0;5;1;0;0;0;0;6;0;5;1;0;0;0;0;6;0;5;1;0;0;0;0;6;0;2;1;0;0;1;0;4;0;2;1;0;0;1;0;4;0;2;1;0;0;1;0;4;0;7;2;0;0;1;0;10;0;7;2;0;0;1;0;10;0;7;2;0;0;1;0;10;1;0;1;0;0;1;0;2;0;1;0;0;1;0;2;0;1;0;0;1;0;2;0;3;0;1;0;0;4;0;3;0;0;0;0;3;0;3;0;0;0;0;3;0;4;0;1;1;0;6;0;4;0;0;1;0;5;0;4;0;0;1;0;5;1;0;4;5;1;5;8;2;1;0;1;0;27;0;4;5;1;5;8;2;1;0;1;0;27;0;4;4;1;3;8;2;1;0;1;0;24;2;4;7;8;7;2;4;0;1;1;0;36;2;4;7;8;7;2;4;0;0;1;0;35;2;4;5;6;6;2;4;0;0;1;0;30;2;8;12;9;12;10;6;1;1;2;0;63;2;8;12;9;12;10;6;1;0;2;0;62;2;8;9;7;9;10;6;1;0;2;0;54;6;40 OTOMI V FAM OTO-MANGUE ;0;0;0;0;0;0;0;0;0;3;3;1;0;2;0;0;3;26/06/2012 05:37:05 p.m.
22DPB0005C;FRANCISCO I. MADERO;1;QUERETARO;007;EZEQUIEL MONTES;0057;EL CARDONAL (LA TIJERA);CONOCIDO NUM. 0;;IN;202;97;76;24;30;;;;;;2011;;;;X;0;2;0;0;1;0;0;0;0;0;0;3;0;2;0;0;1;0;0;0;0;0;0;3;0;2;0;0;1;0;0;0;0;0;0;3;0;5;0;0;0;0;0;0;0;0;0;5;0;5;0;0;0;0;0;0;0;0;0;5;0;5;0;0;0;0;0;0;0;0;0;5;0;7;0;0;1;0;0;0;0;0;0;8;0;7;0;0;1;0;0;0;0;0;0;8;0;7;0;0;1;0;0;0;0;0;0;8;1;0;5;0;0;0;0;0;0;0;0;5;0;5;0;0;0;0;0;0;0;0;5;0;5;0;0;0;0;0;0;0;0;5;0;1;0;0;0;0;0;0;0;0;1;0;1;0;0;0;0;0;0;0;0;1;0;1;0;0;0;0;0;0;0;0;1;0;6;0;0;0;0;0;0;0;0;6;0;6;0;0;0;0;0;0;0;0;6;0;6;0;0;0;0;0;0;0;0;6;1;0;3;1;1;0;0;0;0;0;5;0;3;1;1;0;0;0;0;0;5;0;3;1;1;0;0;0;0;0;5;0;1;1;0;0;0;1;0;0;3;0;1;1;0;0;0;1;0;0;3;0;1;1;0;0;0;1;0;0;3;0;4;2;1;0;0;1;0;0;8;0;4;2;1;0;0;1;0;0;8;0;4;2;1;0;0;1;0;0;8;1;0;2;0;3;0;0;0;0;5;0;2;0;3;0;0;0;0;5;0;2;0;3;0;0;0;0;5;0;3;1;0;0;0;0;0;4;0;3;1;0;0;0;0;0;4;0;3;1;0;0;0;0;0;4;0;5;1;3;0;0;0;0;9;0;5;1;3;0;0;0;0;9;0;5;1;3;0;0;0;0;9;1;0;3;0;1;0;0;0;4;0;3;0;1;0;0;0;4;0;3;0;1;0;0;0;4;0;4;1;1;0;0;0;6;0;4;1;1;0;0;0;6;0;4;1;1;0;0;0;6;0;7;1;2;0;0;0;10;0;7;1;2;0;0;0;10;0;7;1;2;0;0;0;10;1;0;0;3;1;0;0;4;0;0;3;1;0;0;4;0;0;3;1;0;0;4;0;5;1;1;0;0;7;0;5;1;1;0;0;7;0;5;1;1;0;0;7;0;5;4;2;0;0;11;0;5;4;2;0;0;11;0;5;4;2;0;0;11;1;0;2;5;3;4;4;3;4;1;0;0;26;0;2;5;3;4;4;3;4;1;0;0;26;0;2;5;3;4;4;3;4;1;0;0;26;0;5;1;1;4;5;6;2;2;0;0;26;0;5;1;1;4;5;6;2;2;0;0;26;0;5;1;1;4;5;6;2;2;0;0;26;0;7;6;4;8;9;9;6;3;0;0;52;0;7;6;4;8;9;9;6;3;0;0;52;0;7;6;4;8;9;9;6;3;0;0;52;6;40 OTOMI V FAM OTO-MANGUE ;2;3;5;0;0;0;0;0;0;3;3;1;0;2;0;0;3;27/06/2012 07:05:24 p.m.
22DPB0007A;JUAN ESCUTIA;1;QUERETARO;004;CADEREYTA DE MONTES;0143;SAN BARTOLO;CONOCIDO NUM. 0;;IN;206;97;76;24;30;;;;;;2011;;;;X;0;1;0;0;0;0;0;0;0;0;0;1;0;1;0;0;0;0;0;0;0;0;0;1;0;1;0;0;0;0;0;0;0;0;0;1;0;3;0;0;0;0;0;0;0;0;0;3;0;3;0;0;0;0;0;0;0;0;0;3;0;3;0;0;0;0;0;0;0;0;0;3;0;4;0;0;0;0;0;0;0;0;0;4;0;4;0;0;0;0;0;0;0;0;0;4;0;4;0;0;0;0;0;0;0;0;0;4;1;0;4;0;0;0;0;0;0;0;0;4;0;4;0;0;0;0;0;0;0;0;4;0;4;0;0;0;0;0;0;0;0;4;0;0;0;0;0;0;0;0;0;0;0;0;0;0;0;0;0;0;0;0;0;0;0;0;0;0;0;0;0;0;0;0;0;0;4;0;0;0;0;0;0;0;0;4;0;4;0;0;0;0;0;0;0;0;4;0;4;0;0;0;0;0;0;0;0;4;1;0;3;1;0;0;0;0;0;0;4;0;2;1;0;0;0;0;0;0;3;0;2;1;0;0;0;0;0;0;3;0;4;0;0;0;0;0;0;0;4;0;4;0;0;0;0;0;0;0;4;0;4;0;0;0;0;0;0;0;4;0;7;1;0;0;0;0;0;0;8;0;6;1;0;0;0;0;0;0;7;0;6;1;0;0;0;0;0;0;7;1;0;4;0;1;0;0;0;0;5;0;4;0;1;0;0;0;0;5;0;4;0;1;0;0;0;0;5;0;5;0;0;0;0;0;0;5;0;5;0;0;0;0;0;0;5;0;5;0;0;0;0;0;0;5;0;9;0;1;0;0;0;0;10;0;9;0;1;0;0;0;0;10;0;9;0;1;0;0;0;0;10;1;0;2;1;0;0;0;0;3;0;2;1;0;0;0;0;3;0;2;1;0;0;0;0;3;0;5;1;0;0;0;0;6;0;5;1;0;0;0;0;6;0;5;1;0;0;0;0;6;0;7;2;0;0;0;0;9;0;7;2;0;0;0;0;9;0;7;2;0;0;0;0;9;1;0;2;0;1;0;0;3;0;2;0;1;0;0;3;0;2;0;1;0;0;3;0;1;2;0;0;0;3;0;1;2;0;0;0;3;0;1;2;0;0;0;3;0;3;2;1;0;0;6;0;3;2;1;0;0;6;0;3;2;1;0;0;6;1;0;1;4;3;5;2;4;0;1;0;0;20;0;1;4;2;5;2;4;0;1;0;0;19;0;1;4;2;5;2;4;0;1;0;0;19;0;3;0;4;5;5;2;2;0;0;0;21;0;3;0;4;5;5;2;2;0;0;0;21;0;3;0;4;5;5;2;2;0;0;0;21;0;4;4;7;10;7;6;2;1;0;0;41;0;4;4;6;10;7;6;2;1;0;0;40;0;4;4;6;10;7;6;2;1;0;0;40;6;40 OTOMI V FAM OTO-MANGUE ;0;0;0;0;0;0;0;0;0;2;2;0;0;2;0;0;2;29/06/2012 01:34:30 p.m.
22DPB0008Z;VENUSTIANO CARRANZA;1;QUERETARO;004;CADEREYTA DE MONTES;0096;LOS RIOS;CONOCIDO NUM. 0;;IN;205;97;76;24;30;;;;;;2011;;;;X;1;2;0;0;0;0;0;0;0;0;0;3;1;2;0;0;0;0;0;0;0;0;0;3;1;2;0;0;0;0;0;0;0;0;0;3;2;0;0;0;0;0;0;0;0;0;0;2;2;0;0;0;0;0;0;0;0;0;0;2;2;0;0;0;0;0;0;0;0;0;0;2;3;2;0;0;0;0;0;0;0;0;0;5;3;2;0;0;0;0;0;0;0;0;0;5;3;2;0;0;0;0;0;0;0;0;0;5;1;2;3;0;1;0;0;0;0;0;0;6;2;3;0;1;0;0;0;0;0;0;6;2;3;0;1;0;0;0;0;0;0;6;0;0;0;0;0;0;0;0;0;0;0;0;0;0;0;0;0;0;0;0;0;0;0;0;0;0;0;0;0;0;0;0;0;2;3;0;1;0;0;0;0;0;0;6;2;3;0;1;0;0;0;0;0;0;6;2;3;0;1;0;0;0;0;0;0;6;1;2;3;1;0;0;0;0;0;0;6;2;3;1;0;0;0;0;0;0;6;2;3;1;0;0;0;0;0;0;6;0;0;1;0;0;0;0;0;0;1;0;0;1;0;0;0;0;0;0;1;0;0;1;0;0;0;0;0;0;1;2;3;2;0;0;0;0;0;0;7;2;3;2;0;0;0;0;0;0;7;2;3;2;0;0;0;0;0;0;7;1;1;1;1;0;0;0;0;0;3;1;1;1;0;0;0;0;0;3;1;1;1;0;0;0;0;0;3;0;2;0;0;0;0;0;0;2;0;2;0;0;0;0;0;0;2;0;2;0;0;0;0;0;0;2;1;3;1;0;0;0;0;0;5;1;3;1;0;0;0;0;0;5;1;3;1;0;0;0;0;0;5;5;1;1;2;0;0;0;0;4;1;1;2;0;0;0;0;4;1;1;2;0;0;0;0;4;1;1;0;0;0;0;0;2;1;1;0;0;0;0;0;2;1;1;0;0;0;0;0;2;2;2;2;0;0;0;0;6;2;2;2;0;0;0;0;6;2;2;2;0;0;0;0;6;1;0;0;1;0;0;0;1;0;0;1;0;0;0;1;0;0;1;0;0;0;1;1;1;1;0;0;0;3;1;1;1;0;0;0;3;1;1;1;0;0;0;3;1;1;2;0;0;0;4;1;1;2;0;0;0;4;1;1;2;0;0;0;4;1;1;4;5;4;4;2;2;1;0;0;0;23;1;4;5;4;4;2;2;1;0;0;0;23;1;4;5;4;4;2;2;1;0;0;0;23;2;0;0;0;4;2;1;1;0;0;0;10;2;0;0;0;4;2;1;1;0;0;0;10;2;0;0;0;4;2;1;1;0;0;0;10;3;4;5;4;8;4;3;2;0;0;0;33;3;4;5;4;8;4;3;2;0;0;0;33;3;4;5;4;8;4;3;2;0;0;0;33;10;40 OTOMI V FAM OTO-MANGUE ;0;0;0;0;0;0;0;0;0;2;2;0;0;2;0;0;2;26/06/2012 05:39:36 p.m.
22DPB0009Z;LIC. BENITO JUAREZ;1;QUERETARO;007;EZEQUIEL MONTES;0031;LAS ROSAS;CONOCIDO NUM. 0;;IN;202;97;76;24;30;;;;;;2011;;;;X;0;1;0;0;0;0;0;0;0;0;0;1;0;0;0;0;0;0;0;0;0;0;0;0;0;0;0;0;0;0;0;0;0;0;0;0;0;1;0;0;0;0;0;0;0;0;0;1;0;1;0;0;0;0;0;0;0;0;0;1;0;1;0;0;0;0;0;0;0;0;0;1;0;2;0;0;0;0;0;0;0;0;0;2;0;1;0;0;0;0;0;0;0;0;0;1;0;1;0;0;0;0;0;0;0;0;0;1;1;0;2;0;0;0;0;0;0;0;0;2;0;1;0;0;0;0;0;0;0;0;1;0;1;0;0;0;0;0;0;0;0;1;0;2;0;0;0;0;0;0;0;0;2;0;2;0;0;0;0;0;0;0;0;2;0;2;0;0;0;0;0;0;0;0;2;0;4;0;0;0;0;0;0;0;0;4;0;3;0;0;0;0;0;0;0;0;3;0;3;0;0;0;0;0;0;0;0;3;1;0;3;1;1;0;0;0;0;0;5;0;3;1;1;0;0;0;0;0;5;0;3;1;0;0;0;0;0;0;4;0;6;0;0;0;0;0;0;0;6;0;6;0;0;0;0;0;0;0;6;0;6;0;0;0;0;0;0;0;6;0;9;1;1;0;0;0;0;0;11;0;9;1;1;0;0;0;0;0;11;0;9;1;0;0;0;0;0;0;10;1;0;4;0;0;0;0;0;0;4;0;4;0;0;0;0;0;0;4;0;4;0;0;0;0;0;0;4;0;6;0;0;0;0;0;0;6;0;6;0;0;0;0;0;0;6;0;6;0;0;0;0;0;0;6;0;10;0;0;0;0;0;0;10;0;10;0;0;0;0;0;0;10;0;10;0;0;0;0;0;0;10;1;0;3;1;0;0;0;0;4;0;3;1;0;0;0;0;4;0;3;1;0;0;0;0;4;0;3;0;0;0;0;0;3;0;3;0;0;0;0;0;3;0;3;0;0;0;0;0;3;0;6;1;0;0;0;0;7;0;6;1;0;0;0;0;7;0;6;1;0;0;0;0;7;1;0;5;0;0;0;0;5;0;5;0;0;0;0;5;0;5;0;0;0;0;5;0;8;0;0;0;0;8;0;8;0;0;0;0;8;0;8;0;0;0;0;8;0;13;0;0;0;0;13;0;13;0;0;0;0;13;0;13;0;0;0;0;13;1;0;1;2;3;5;4;6;0;0;0;0;21;0;0;1;3;5;4;6;0;0;0;0;19;0;0;1;3;5;3;6;0;0;0;0;18;0;1;2;6;6;3;8;0;0;0;0;26;0;1;2;6;6;3;8;0;0;0;0;26;0;1;2;6;6;3;8;0;0;0;0;26;0;2;4;9;11;7;14;0;0;0;0;47;0;1;3;9;11;7;14;0;0;0;0;45;0;1;3;9;11;6;14;0;0;0;0;44;6;40 OTOMI V FAM OTO-MANGUE ;0;0;0;0;0;0;0;0;0;2;2;1;0;1;0;0;2;27/06/2012 06:13:25 p.m.
22DPB0011N;MOISES SAENZ;1;QUERETARO;007;EZEQUIEL MONTES;0102;LOS SANCHEZ;CONOCIDO NUM. 0;;IN;202;97;76;24;30;;;;;;2011;;;;X;2;3;1;1;0;0;0;0;0;0;0;7;2;3;1;1;0;0;0;0;0;0;0;7;1;3;1;1;0;0;0;0;0;0;0;6;0;5;0;0;0;0;0;0;0;0;0;5;0;5;0;0;0;0;0;0;0;0;0;5;0;5;0;0;0;0;0;0;0;0;0;5;2;8;1;1;0;0;0;0;0;0;0;12;2;8;1;1;0;0;0;0;0;0;0;12;1;8;1;1;0;0;0;0;0;0;0;11;1;0;5;0;0;0;0;0;0;0;0;5;0;5;0;0;0;0;0;0;0;0;5;0;5;0;0;0;0;0;0;0;0;5;2;1;0;0;0;0;0;0;0;0;3;2;1;0;0;0;0;0;0;0;0;3;2;1;0;0;0;0;0;0;0;0;3;2;6;0;0;0;0;0;0;0;0;8;2;6;0;0;0;0;0;0;0;0;8;2;6;0;0;0;0;0;0;0;0;8;1;0;2;0;0;0;0;0;0;0;2;0;2;0;0;0;0;0;0;0;2;0;1;0;0;0;0;0;0;0;1;0;6;0;2;1;0;0;0;0;9;0;6;0;2;1;0;0;0;0;9;0;6;0;1;1;0;0;0;0;8;0;8;0;2;1;0;0;0;0;11;0;8;0;2;1;0;0;0;0;11;0;7;0;1;1;0;0;0;0;9;1;0;4;1;0;0;0;0;0;5;0;3;1;0;0;0;0;0;4;0;3;1;0;0;0;0;0;4;0;5;1;0;0;0;0;0;6;0;5;1;0;0;0;0;0;6;0;5;1;0;0;0;0;0;6;0;9;2;0;0;0;0;0;11;0;8;2;0;0;0;0;0;10;0;8;2;0;0;0;0;0;10;1;0;6;1;0;0;1;0;8;0;6;1;0;0;0;0;7;0;5;1;0;0;0;0;6;0;5;1;0;0;0;0;6;0;5;1;0;0;0;0;6;0;4;1;0;0;0;0;5;0;11;2;0;0;1;0;14;0;11;2;0;0;0;0;13;0;9;2;0;0;0;0;11;1;0;3;2;0;0;0;5;0;3;2;0;0;0;5;0;3;2;0;0;0;5;0;2;0;0;0;0;2;0;2;0;0;0;0;2;0;2;0;0;0;0;2;0;5;2;0;0;0;7;0;5;2;0;0;0;7;0;5;2;0;0;0;7;1;2;3;6;3;4;7;4;2;0;1;0;32;2;3;6;3;3;7;4;2;0;0;0;30;1;3;6;2;3;6;4;2;0;0;0;27;0;7;1;6;5;8;4;0;0;0;0;31;0;7;1;6;5;8;4;0;0;0;0;31;0;7;1;6;5;6;4;0;0;0;0;29;2;10;7;9;9;15;8;2;0;1;0;63;2;10;7;9;8;15;8;2;0;0;0;61;1;10;7;8;8;12;8;2;0;0;0;56;6;40 OTOMI V FAM OTO-MANGUE ;1;1;2;0;0;0;0;0;0;3;3;1;0;2;0;0;3;02/07/2012 05:04:10 p.m.
22DPB0012M;DR. BELISARIO DOMINGUEZ;1;QUERETARO;007;EZEQUIEL MONTES;0036;SAN JOSE DE LOS TREJO (LAS ADELITAS);CONOCIDO NUM. 0;;IN;202;97;76;24;30;;;;;;2011;;;;X;0;2;0;0;0;0;0;0;0;0;0;2;0;2;0;0;0;0;0;0;0;0;0;2;0;2;0;0;0;0;0;0;0;0;0;2;0;4;0;0;0;0;0;0;0;0;0;4;0;4;0;0;0;0;0;0;0;0;0;4;0;4;0;0;0;0;0;0;0;0;0;4;0;6;0;0;0;0;0;0;0;0;0;6;0;6;0;0;0;0;0;0;0;0;0;6;0;6;0;0;0;0;0;0;0;0;0;6;1;0;0;0;1;0;0;0;0;0;0;1;0;0;0;1;0;0;0;0;0;0;1;0;0;0;1;0;0;0;0;0;0;1;0;4;0;0;0;0;0;0;0;0;4;0;4;0;0;0;0;0;0;0;0;4;0;4;0;0;0;0;0;0;0;0;4;0;4;0;1;0;0;0;0;0;0;5;0;4;0;1;0;0;0;0;0;0;5;0;4;0;1;0;0;0;0;0;0;5;1;0;3;0;0;0;0;0;0;0;3;0;3;0;0;0;0;0;0;0;3;0;3;0;0;0;0;0;0;0;3;0;2;0;0;0;0;0;0;0;2;0;2;0;0;0;0;0;0;0;2;0;2;0;0;0;0;0;0;0;2;0;5;0;0;0;0;0;0;0;5;0;5;0;0;0;0;0;0;0;5;0;5;0;0;0;0;0;0;0;5;1;0;6;0;0;0;0;0;0;6;0;6;0;0;0;0;0;0;6;0;6;0;0;0;0;0;0;6;0;7;0;0;0;0;0;0;7;0;7;0;0;0;0;0;0;7;0;7;0;0;0;0;0;0;7;0;13;0;0;0;0;0;0;13;0;13;0;0;0;0;0;0;13;0;13;0;0;0;0;0;0;13;1;0;2;0;1;1;0;0;4;0;2;0;1;1;0;0;4;0;2;0;1;1;0;0;4;0;2;2;0;0;0;0;4;0;2;2;0;0;0;0;4;0;2;2;0;0;0;0;4;0;4;2;1;1;0;0;8;0;4;2;1;1;0;0;8;0;4;2;1;1;0;0;8;1;0;2;0;0;0;0;2;0;2;0;0;0;0;2;0;2;0;0;0;0;2;0;3;2;0;1;0;6;0;3;2;0;1;0;6;0;3;2;0;1;0;6;0;5;2;0;1;0;8;0;5;2;0;1;0;8;0;5;2;0;1;0;8;1;0;2;0;3;7;2;2;1;1;0;0;18;0;2;0;3;7;2;2;1;1;0;0;18;0;2;0;3;7;2;2;1;1;0;0;18;0;4;4;2;7;2;5;2;0;1;0;27;0;4;4;2;7;2;5;2;0;1;0;27;0;4;4;2;7;2;5;2;0;1;0;27;0;6;4;5;14;4;7;3;1;1;0;45;0;6;4;5;14;4;7;3;1;1;0;45;0;6;4;5;14;4;7;3;1;1;0;45;6;40 OTOMI V FAM OTO-MANGUE ;0;0;0;0;0;0;0;0;0;2;2;1;0;1;0;0;2;27/06/2012 05:06:55 p.m.
22DPB0013L;NI¥O ARTILLERO;1;QUERETARO;007;EZEQUIEL MONTES;0028;LA PURISIMA;J. TRINIDAD VELAZQUEZ S/N NUM. 0;;IN;202;97;76;24;30;;;;;;2011;;;;X;0;9;0;0;0;0;0;0;0;0;0;9;0;9;0;0;0;0;0;0;0;0;0;9;0;7;0;0;0;0;0;0;0;0;0;7;0;13;2;0;0;0;0;0;0;0;0;15;0;11;2;0;0;0;0;0;0;0;0;13;0;11;2;0;0;0;0;0;0;0;0;13;0;22;2;0;0;0;0;0;0;0;0;24;0;20;2;0;0;0;0;0;0;0;0;22;0;18;2;0;0;0;0;0;0;0;0;20;1;0;6;3;1;1;0;0;0;0;0;11;0;6;3;1;0;0;0;0;0;0;10;0;6;3;0;0;0;0;0;0;0;9;0;15;0;0;2;0;0;0;0;0;17;0;15;0;0;2;0;0;0;0;0;17;0;12;0;0;1;0;0;0;0;0;13;0;21;3;1;3;0;0;0;0;0;28;0;21;3;1;2;0;0;0;0;0;27;0;18;3;0;1;0;0;0;0;0;22;1;0;14;1;1;0;0;1;0;0;17;0;14;1;1;0;0;1;0;0;17;0;11;0;1;0;0;1;0;0;13;0;17;0;0;0;0;0;0;0;17;0;17;0;0;0;0;0;0;0;17;0;16;0;0;0;0;0;0;0;16;0;31;1;1;0;0;1;0;0;34;0;31;1;1;0;0;1;0;0;34;0;27;0;1;0;0;1;0;0;29;1;0;10;3;1;0;0;0;0;14;0;10;3;1;0;0;0;0;14;0;10;2;1;0;0;0;0;13;0;6;1;0;0;0;0;0;7;0;6;1;0;0;0;0;0;7;0;6;1;0;0;0;0;0;7;0;16;4;1;0;0;0;0;21;0;16;4;1;0;0;0;0;21;0;16;3;1;0;0;0;0;20;1;0;13;4;0;1;0;0;18;0;12;3;0;1;0;0;16;0;12;0;0;1;0;0;13;0;9;1;1;0;0;0;11;0;9;1;0;0;0;0;10;0;9;1;0;0;0;0;10;0;22;5;1;1;0;0;29;0;21;4;0;1;0;0;26;0;21;1;0;1;0;0;23;1;0;4;0;0;0;1;5;0;4;0;0;0;1;5;0;4;0;0;0;1;5;0;7;1;0;0;0;8;0;7;1;0;0;0;8;0;7;1;0;0;0;8;0;11;1;0;0;1;13;0;11;1;0;0;1;13;0;11;1;0;0;1;13;1;0;9;6;17;12;18;9;0;2;0;1;74;0;9;6;17;12;16;8;0;2;0;1;71;0;7;6;14;10;15;5;0;2;0;1;60;0;13;17;17;6;12;8;2;0;0;0;75;0;11;17;17;6;12;8;1;0;0;0;72;0;11;14;16;6;11;8;1;0;0;0;67;0;22;23;34;18;30;17;2;2;0;1;149;0;20;23;34;18;28;16;1;2;0;1;143;0;18;20;30;16;26;13;1;2;0;1;127;6;40 OTOMI V FAM OTO-MANGUE ;0;0;0;1;1;1;1;1;1;0;6;0;1;6;0;1;8;28/06/2012 10:22:30 p.m.
22DPB0014K;FRANCISCO I. MADERO;1;QUERETARO;004;CADEREYTA DE MONTES;0066;MESA DEL CASTILLO (LA FAJILLA);LOCALIDAD LAS LOMAS NUM. 0;;IN;203;97;76;24;30;;;;;;2011;;;;X;0;2;0;0;0;0;0;0;0;0;0;2;0;2;0;0;0;0;0;0;0;0;0;2;0;2;0;0;0;0;0;0;0;0;0;2;0;2;0;0;0;0;0;0;0;0;0;2;0;2;0;0;0;0;0;0;0;0;0;2;0;2;0;0;0;0;0;0;0;0;0;2;0;4;0;0;0;0;0;0;0;0;0;4;0;4;0;0;0;0;0;0;0;0;0;4;0;4;0;0;0;0;0;0;0;0;0;4;1;0;0;1;0;0;0;0;0;0;0;1;0;0;1;0;0;0;0;0;0;0;1;0;0;1;0;0;0;0;0;0;0;1;0;7;0;0;0;0;0;0;0;0;7;0;7;0;0;0;0;0;0;0;0;7;0;7;0;0;0;0;0;0;0;0;7;0;7;1;0;0;0;0;0;0;0;8;0;7;1;0;0;0;0;0;0;0;8;0;7;1;0;0;0;0;0;0;0;8;1;0;1;0;0;0;0;0;0;0;1;0;1;0;0;0;0;0;0;0;1;0;1;0;0;0;0;0;0;0;1;0;0;0;0;0;0;0;0;0;0;0;0;0;0;0;0;0;0;0;0;0;0;0;0;0;0;0;0;0;0;0;1;0;0;0;0;0;0;0;1;0;1;0;0;0;0;0;0;0;1;0;1;0;0;0;0;0;0;0;1;1;0;2;0;0;0;0;0;0;2;0;2;0;0;0;0;0;0;2;0;2;0;0;0;0;0;0;2;0;1;0;0;0;0;0;0;1;0;1;0;0;0;0;0;0;1;0;1;0;0;0;0;0;0;1;0;3;0;0;0;0;0;0;3;0;3;0;0;0;0;0;0;3;0;3;0;0;0;0;0;0;3;1;0;2;0;1;0;0;0;3;0;2;0;1;0;0;0;3;0;2;0;1;0;0;0;3;0;0;0;0;0;0;0;0;0;0;0;0;0;0;0;0;0;0;0;0;0;0;0;0;0;2;0;1;0;0;0;3;0;2;0;1;0;0;0;3;0;2;0;1;0;0;0;3;1;0;0;1;0;0;0;1;0;0;1;0;0;0;1;0;0;1;0;0;0;1;0;0;0;0;0;0;0;0;0;0;0;0;0;0;0;0;0;0;0;0;0;0;0;1;0;0;0;1;0;0;1;0;0;0;1;0;0;1;0;0;0;1;1;0;2;0;2;2;2;0;2;0;0;0;10;0;2;0;2;2;2;0;2;0;0;0;10;0;2;0;2;2;2;0;2;0;0;0;10;0;2;7;0;1;0;0;0;0;0;0;10;0;2;7;0;1;0;0;0;0;0;0;10;0;2;7;0;1;0;0;0;0;0;0;10;0;4;7;2;3;2;0;2;0;0;0;20;0;4;7;2;3;2;0;2;0;0;0;20;0;4;7;2;3;2;0;2;0;0;0;20;6;40 OTOMI V FAM OTO-MANGUE ;0;0;0;0;0;0;0;0;0;1;1;0;0;1;0;0;1;01/07/2012 06:03:39 p.m.
22DPB0016I;PROFR. PABLO CABRERA PEDRAZA;1;QUERETARO;004;CADEREYTA DE MONTES;0135;EL PINALITO;CONOCIDO NUM. 0;;IN;208;97;76;24;30;;;;;;2011;;;;X;0;1;0;0;0;0;0;0;0;0;0;1;0;1;0;0;0;0;0;0;0;0;0;1;0;1;0;0;0;0;0;0;0;0;0;1;0;1;0;0;0;0;0;0;0;0;0;1;0;1;0;0;0;0;0;0;0;0;0;1;0;1;0;0;0;0;0;0;0;0;0;1;0;2;0;0;0;0;0;0;0;0;0;2;0;2;0;0;0;0;0;0;0;0;0;2;0;2;0;0;0;0;0;0;0;0;0;2;1;0;1;0;0;0;0;0;0;0;0;1;0;1;0;0;0;0;0;0;0;0;1;0;1;0;0;0;0;0;0;0;0;1;0;1;0;0;0;0;0;0;0;0;1;0;1;0;0;0;0;0;0;0;0;1;0;1;0;0;0;0;0;0;0;0;1;0;2;0;0;0;0;0;0;0;0;2;0;2;0;0;0;0;0;0;0;0;2;0;2;0;0;0;0;0;0;0;0;2;1;0;3;2;0;1;0;0;0;0;6;0;3;2;0;1;0;0;0;0;6;0;3;2;0;1;0;0;0;0;6;0;2;0;0;0;0;0;0;0;2;0;2;0;0;0;0;0;0;0;2;0;2;0;0;0;0;0;0;0;2;0;5;2;0;1;0;0;0;0;8;0;5;2;0;1;0;0;0;0;8;0;5;2;0;1;0;0;0;0;8;1;0;1;1;0;0;1;0;0;3;0;1;1;0;0;1;0;0;3;0;1;1;0;0;1;0;0;3;0;2;0;0;0;0;0;0;2;0;2;0;0;0;0;0;0;2;0;2;0;0;0;0;0;0;2;0;3;1;0;0;1;0;0;5;0;3;1;0;0;1;0;0;5;0;3;1;0;0;1;0;0;5;1;0;0;0;0;0;0;0;0;0;0;0;0;0;0;0;0;0;0;0;0;0;0;0;0;0;0;2;0;0;0;0;2;0;0;2;0;0;0;0;2;0;0;2;0;0;0;0;2;0;0;2;0;0;0;0;2;0;0;2;0;0;0;0;2;0;0;2;0;0;0;0;2;1;0;1;1;0;0;0;2;0;1;1;0;0;0;2;0;1;1;0;0;0;2;0;1;3;1;0;0;5;0;1;3;1;0;0;5;0;1;3;1;0;0;5;0;2;4;1;0;0;7;0;2;4;1;0;0;7;0;2;4;1;0;0;7;1;0;1;1;3;3;1;2;1;1;0;0;13;0;1;1;3;3;1;2;1;1;0;0;13;0;1;1;3;3;1;2;1;1;0;0;13;0;1;1;2;2;0;3;3;1;0;0;13;0;1;1;2;2;0;3;3;1;0;0;13;0;1;1;2;2;0;3;3;1;0;0;13;0;2;2;5;5;1;5;4;2;0;0;26;0;2;2;5;5;1;5;4;2;0;0;26;0;2;2;5;5;1;5;4;2;0;0;26;6;40 OTOMI V FAM OTO-MANGUE ;0;0;0;0;0;0;0;0;0;1;1;1;0;0;0;0;1;28/06/2012 05:26:22 p.m.
22DPB0017H;GENERAL LAZARO CARDENAS;1;QUERETARO;001;AMEALCO DE BONFIL;0121;CUICILLO (BARRIO DE SAN ILDEFONSO);CONOCIDO NUM. 0;;IN;102;22;74;24;30;;;;;;2011;;;;X;1;5;3;0;0;0;0;0;0;0;0;9;1;5;3;0;0;0;0;0;0;0;0;9;0;5;3;0;0;0;0;0;0;0;0;8;1;11;0;1;0;0;0;0;0;0;0;13;1;11;0;1;0;0;0;0;0;0;0;13;0;10;0;1;0;0;0;0;0;0;0;11;2;16;3;1;0;0;0;0;0;0;0;22;2;16;3;1;0;0;0;0;0;0;0;22;0;15;3;1;0;0;0;0;0;0;0;19;1;0;9;2;1;1;0;0;1;0;0;14;0;9;2;1;1;0;0;1;0;0;14;0;9;2;1;1;0;0;1;0;0;14;0;6;0;0;0;0;0;0;0;0;6;0;6;0;0;0;0;0;0;0;0;6;0;5;0;0;0;0;0;0;0;0;5;0;15;2;1;1;0;0;1;0;0;20;0;15;2;1;1;0;0;1;0;0;20;0;14;2;1;1;0;0;1;0;0;19;1;10;0;7;3;0;0;0;0;0;20;10;0;7;3;0;0;0;0;0;20;10;0;7;3;0;0;0;0;0;20;9;0;0;4;1;0;0;0;0;14;9;0;0;4;1;0;0;0;0;14;9;0;0;4;1;0;0;0;0;14;19;0;7;7;1;0;0;0;0;34;19;0;7;7;1;0;0;0;0;34;19;0;7;7;1;0;0;0;0;34;1;0;7;2;0;0;0;0;0;9;0;7;2;0;0;0;0;0;9;0;7;2;0;0;0;0;0;9;0;8;1;0;0;0;0;0;9;0;8;1;0;0;0;0;0;9;0;8;1;0;0;0;0;0;9;0;15;3;0;0;0;0;0;18;0;15;3;0;0;0;0;0;18;0;15;3;0;0;0;0;0;18;1;0;5;2;0;0;0;0;7;0;5;2;0;0;0;0;7;0;5;2;0;0;0;0;7;0;8;3;1;1;0;0;13;0;8;3;1;1;0;0;13;0;8;3;1;1;0;0;13;0;13;5;1;1;0;0;20;0;13;5;1;1;0;0;20;0;13;5;1;1;0;0;20;1;2;8;4;0;0;0;14;2;8;3;0;0;0;13;2;8;3;0;0;0;13;1;8;0;0;0;0;9;1;8;0;0;0;0;9;1;8;0;0;0;0;9;3;16;4;0;0;0;23;3;16;3;0;0;0;22;3;16;3;0;0;0;22;1;1;5;22;2;15;13;10;4;1;0;0;73;1;5;22;2;15;13;10;3;1;0;0;72;0;5;22;2;15;13;10;3;1;0;0;71;1;11;15;1;8;14;12;1;1;0;0;64;1;11;15;1;8;14;12;1;1;0;0;64;0;10;14;1;8;14;12;1;1;0;0;61;2;16;37;3;23;27;22;5;2;0;0;137;2;16;37;3;23;27;22;4;2;0;0;136;0;15;36;3;23;27;22;4;2;0;0;132;6;20 IXCATECO V FAM OTO-MANGUE;2;1;3;1;1;1;1;1;1;0;6;0;1;6;0;0;7;26/06/2012 04:09:25 p.m.
22DPB0020V;MAURILIO MU¥OZ BASILIO;1;QUERETARO;004;CADEREYTA DE MONTES;0172;EL HUIZACHE;CONOCIDO NUM. 0;;IN;204;97;76;24;30;;;;;;2011;;;;X;1;1;0;0;0;0;0;0;0;0;0;2;1;1;0;0;0;0;0;0;0;0;0;2;1;1;0;0;0;0;0;0;0;0;0;2;1;1;0;0;0;0;0;0;0;0;0;2;1;1;0;0;0;0;0;0;0;0;0;2;1;1;0;0;0;0;0;0;0;0;0;2;2;2;0;0;0;0;0;0;0;0;0;4;2;2;0;0;0;0;0;0;0;0;0;4;2;2;0;0;0;0;0;0;0;0;0;4;1;0;2;0;0;0;0;0;0;0;0;2;0;2;0;0;0;0;0;0;0;0;2;0;2;0;0;0;0;0;0;0;0;2;0;2;0;0;0;0;0;0;0;0;2;0;2;0;0;0;0;0;0;0;0;2;0;2;0;0;0;0;0;0;0;0;2;0;4;0;0;0;0;0;0;0;0;4;0;4;0;0;0;0;0;0;0;0;4;0;4;0;0;0;0;0;0;0;0;4;1;0;2;0;0;0;0;0;0;0;2;0;2;0;0;0;0;0;0;0;2;0;2;0;0;0;0;0;0;0;2;0;3;0;0;0;0;0;0;0;3;0;3;0;0;0;0;0;0;0;3;0;3;0;0;0;0;0;0;0;3;0;5;0;0;0;0;0;0;0;5;0;5;0;0;0;0;0;0;0;5;0;5;0;0;0;0;0;0;0;5;1;0;2;0;0;0;0;0;0;2;0;2;0;0;0;0;0;0;2;0;2;0;0;0;0;0;0;2;0;1;0;0;0;0;0;0;1;0;1;0;0;0;0;0;0;1;0;1;0;0;0;0;0;0;1;0;3;0;0;0;0;0;0;3;0;3;0;0;0;0;0;0;3;0;3;0;0;0;0;0;0;3;1;1;0;1;0;0;0;0;2;1;0;1;0;0;0;0;2;1;0;1;0;0;0;0;2;0;3;0;0;0;0;0;3;0;3;0;0;0;0;0;3;0;3;0;0;0;0;0;3;1;3;1;0;0;0;0;5;1;3;1;0;0;0;0;5;1;3;1;0;0;0;0;5;1;0;1;3;0;0;0;4;0;1;2;0;0;0;3;0;1;2;0;0;0;3;0;0;0;1;0;0;1;0;0;0;1;0;0;1;0;0;0;1;0;0;1;0;1;3;1;0;0;5;0;1;2;1;0;0;4;0;1;2;1;0;0;4;1;1;1;2;2;3;0;2;3;0;0;0;14;1;1;2;2;3;0;2;2;0;0;0;13;1;1;2;2;3;0;2;2;0;0;0;13;1;1;2;3;1;3;0;0;1;0;0;12;1;1;2;3;1;3;0;0;1;0;0;12;1;1;2;3;1;3;0;0;1;0;0;12;2;2;4;5;4;3;2;3;1;0;0;26;2;2;4;5;4;3;2;2;1;0;0;25;2;2;4;5;4;3;2;2;1;0;0;25;6;40 OTOMI V FAM OTO-MANGUE ;0;1;1;0;0;0;0;0;0;1;1;0;0;1;0;1;2;01/07/2012 12:44:54 p.m.
22DPB0021U;18 DE MARZO;1;QUERETARO;004;CADEREYTA DE MONTES;0113;EL SUSPIRO;CONOCIDO NUM. 0;;IN;204;97;76;24;30;;;;;;2011;1;;;;1;0;0;0;0;0;0;0;0;0;0;1;1;0;0;0;0;0;0;0;0;0;0;1;1;0;0;0;0;0;0;0;0;0;0;1;0;0;0;0;0;0;0;0;0;0;0;0;0;0;0;0;0;0;0;0;0;0;0;0;0;0;0;0;0;0;0;0;0;0;0;0;1;0;0;0;0;0;0;0;0;0;0;1;1;0;0;0;0;0;0;0;0;0;0;1;1;0;0;0;0;0;0;0;0;0;0;1;1;;;;;;;;;;;;;;;;;;;;;;;;;;;;;;;;;;;;;;;;;;;;;;;;;;;;;;;;;;;;;;;;;;;;;;;;;;;;;;;;;;;;;;;;;;;;;;;;;;;;;;;;;;;;;;;;;;;;;;;;;;;;;;;;;;;;;;;;;;;;;;;;;;;;;;;;;;;;;;;;;;;;;;;;;;;;;;;;;;;;;;;;;;;;;;;;;;;;;;;;;;;;;;;;;;;;;;;;;;;;;;;;;;;;;;;;;;;;;;;;;;;;;;;;;;;;;;;;;;;;;;;;;;;;;;;;;;;;;;;;;;;;;;;;;;;;;;;;;;;;;;;;;;;;;;;;;;;;;;;;;;;;;;;;;;;;;;;;;;;;;;;;;;;;;;;;;;;;;;;;;;;;;;;;;;;;;;;;;;;;;;;;;;;;;;;;;;;;;;;;;;;;;;;;;;;;;;;;;;;;;;;;;;;;;;;;;;;;;;;;;;;;;;;;;;;;;;;;;;;;;;;;;;;;;;;;;;;;;;;;;;;;;;;;;;;;;;;;;;;;;;;;;;;;;;;;;;;;;;;;;;;;;;;;;;;;;;;;;;01/07/2012 12:29:03 p.m.
22DPB0022T;IGNACIO MANUEL ALTAMIRANO;1;QUERETARO;001;AMEALCO DE BONFIL;0050;SANTIAGO MEXQUITITLAN BARRIO 1O.;CONOCIDO NUM. 0;;IN;101;22;74;24;30;;;;;;2011;;;;X;3;18;6;1;0;0;0;0;0;0;0;28;3;18;5;1;0;0;0;0;0;0;0;27;3;18;4;1;0;0;0;0;0;0;0;26;5;23;5;0;0;0;0;0;0;0;0;33;5;21;5;0;0;0;0;0;0;0;0;31;5;21;5;0;0;0;0;0;0;0;0;31;8;41;11;1;0;0;0;0;0;0;0;61;8;39;10;1;0;0;0;0;0;0;0;58;8;39;9;1;0;0;0;0;0;0;0;57;2;7;18;4;1;0;1;0;0;0;0;31;7;18;3;1;0;1;0;0;0;0;30;6;17;3;1;0;1;0;0;0;0;28;4;11;1;0;0;0;0;0;0;0;16;4;11;1;0;0;0;0;0;0;0;16;3;11;0;0;0;0;0;0;0;0;14;11;29;5;1;0;1;0;0;0;0;47;11;29;4;1;0;1;0;0;0;0;46;9;28;3;1;0;1;0;0;0;0;42;2;3;22;3;2;0;1;0;0;0;31;3;20;3;2;0;1;0;0;0;29;3;18;3;2;0;1;0;0;0;27;3;11;3;0;0;0;0;0;0;17;3;10;3;0;0;0;0;0;0;16;3;10;3;0;0;0;0;0;0;16;6;33;6;2;0;1;0;0;0;48;6;30;6;2;0;1;0;0;0;45;6;28;6;2;0;1;0;0;0;43;2;3;17;3;1;0;1;0;0;25;3;16;2;1;0;1;0;0;23;3;16;2;1;0;1;0;0;23;5;17;6;0;0;0;0;0;28;5;17;5;0;0;0;0;0;27;5;17;5;0;0;0;0;0;27;8;34;9;1;0;1;0;0;53;8;33;7;1;0;1;0;0;50;8;33;7;1;0;1;0;0;50;2;1;10;5;1;0;0;1;18;1;10;4;0;0;0;1;16;1;10;4;0;0;0;1;16;9;17;7;0;2;0;0;35;9;17;7;0;1;0;0;34;9;17;7;0;1;0;0;34;10;27;12;1;2;0;1;53;10;27;11;0;1;0;1;50;10;27;11;0;1;0;1;50;2;0;19;6;4;0;0;29;0;18;6;4;0;0;28;0;18;6;4;0;0;28;0;16;8;2;0;0;26;0;16;7;2;0;0;25;0;16;7;2;0;0;25;0;35;14;6;0;0;55;0;34;13;6;0;0;53;0;34;13;6;0;0;53;2;3;25;27;30;22;15;26;8;5;0;1;162;3;25;26;27;21;14;24;7;5;0;1;153;3;24;24;25;21;14;24;7;5;0;1;148;5;27;19;17;29;23;23;8;4;0;0;155;5;25;19;16;29;22;23;7;3;0;0;149;5;24;19;15;29;22;23;7;3;0;0;147;8;52;46;47;51;38;49;16;9;0;1;317;8;50;45;43;50;36;47;14;8;0;1;302;8;48;43;40;50;36;47;14;8;0;1;295;12;40 OTOMI V FAM OTO-MANGUE ;4;2;6;2;2;2;2;2;2;0;12;0;1;12;0;1;14;26/06/2012 07:08:40 p.m.
22DPB0023S;FRANCISCO I. MADERO;1;QUERETARO;001;AMEALCO DE BONFIL;0029;STGO. MEXQUITITLAN BARRIO 5O. (EL PASTOREO);CONOCIDO NUM. 0;;IN;101;22;74;24;30;;;;;;2011;;;;X;3;9;0;0;0;0;0;0;0;0;0;12;3;9;0;0;0;0;0;0;0;0;0;12;1;9;0;0;0;0;0;0;0;0;0;10;2;8;2;0;0;0;0;0;0;0;0;12;2;8;1;0;0;0;0;0;0;0;0;11;2;7;1;0;0;0;0;0;0;0;0;10;5;17;2;0;0;0;0;0;0;0;0;24;5;17;1;0;0;0;0;0;0;0;0;23;3;16;1;0;0;0;0;0;0;0;0;20;1;2;7;1;1;1;0;1;0;0;0;13;2;7;1;1;1;0;1;0;0;0;13;2;6;1;1;1;0;1;0;0;0;12;1;7;1;0;0;0;0;0;0;0;9;1;7;0;0;0;0;0;0;0;0;8;1;6;0;0;0;0;0;0;0;0;7;3;14;2;1;1;0;1;0;0;0;22;3;14;1;1;1;0;1;0;0;0;21;3;12;1;1;1;0;1;0;0;0;19;1;1;9;6;1;0;0;0;0;0;17;1;9;6;1;0;0;0;0;0;17;1;9;4;1;0;0;0;0;0;15;2;6;2;0;0;0;0;0;0;10;2;6;2;0;0;0;0;0;0;10;2;6;1;0;0;0;0;0;0;9;3;15;8;1;0;0;0;0;0;27;3;15;8;1;0;0;0;0;0;27;3;15;5;1;0;0;0;0;0;24;1;7;10;8;2;1;1;0;0;29;7;9;8;2;1;1;0;0;28;7;9;8;2;1;1;0;0;28;2;11;3;0;0;0;0;0;16;2;11;3;0;0;0;0;0;16;2;11;3;0;0;0;0;0;16;9;21;11;2;1;1;0;0;45;9;20;11;2;1;1;0;0;44;9;20;11;2;1;1;0;0;44;2;0;7;2;0;0;0;0;9;0;7;2;0;0;0;0;9;0;7;2;0;0;0;0;9;2;8;4;2;1;1;0;18;2;8;4;2;1;1;0;18;2;8;4;2;1;1;0;18;2;15;6;2;1;1;0;27;2;15;6;2;1;1;0;27;2;15;6;2;1;1;0;27;1;0;7;2;1;0;0;10;0;7;2;1;0;0;10;0;7;2;1;0;0;10;0;15;3;0;0;1;19;0;15;3;0;0;1;19;0;15;3;0;0;1;19;0;22;5;1;0;1;29;0;22;5;1;0;1;29;0;22;5;1;0;1;29;1;3;11;8;17;17;17;11;4;2;0;0;90;3;11;8;17;16;17;11;4;2;0;0;89;1;11;7;17;14;17;11;4;2;0;0;84;2;9;11;9;15;11;19;5;1;1;1;84;2;9;10;8;15;11;19;5;1;1;1;82;2;8;9;8;14;11;19;5;1;1;1;79;5;20;19;26;32;28;30;9;3;1;1;174;5;20;18;25;31;28;30;9;3;1;1;171;3;19;16;25;28;28;30;9;3;1;1;163;7;40 OTOMI V FAM OTO-MANGUE ;0;0;0;1;1;1;0;1;1;1;6;0;1;6;0;0;7;28/06/2012 09:53:14 a.m.
22DPB0024R;VICENTE GUERRERO;1;QUERETARO;018;TOLIMAN;0126;LOS GONZALEZ;CONOCIDO NUM. 0;;IN;207;97;76;24;30;;;;;;2011;;;;X;0;11;0;0;0;0;0;0;0;0;0;11;0;11;0;0;0;0;0;0;0;0;0;11;0;11;0;0;0;0;0;0;0;0;0;11;0;8;0;0;0;0;0;0;0;0;0;8;0;8;0;0;0;0;0;0;0;0;0;8;0;8;0;0;0;0;0;0;0;0;0;8;0;19;0;0;0;0;0;0;0;0;0;19;0;19;0;0;0;0;0;0;0;0;0;19;0;19;0;0;0;0;0;0;0;0;0;19;1;0;6;3;1;1;0;1;0;0;0;12;0;6;3;1;1;0;1;0;0;0;12;0;6;3;1;1;0;1;0;0;0;12;0;6;1;0;0;0;0;0;0;0;7;0;6;1;0;0;0;0;0;0;0;7;0;6;1;0;0;0;0;0;0;0;7;0;12;4;1;1;0;1;0;0;0;19;0;12;4;1;1;0;1;0;0;0;19;0;12;4;1;1;0;1;0;0;0;19;1;0;14;1;1;0;0;0;0;0;16;0;14;1;1;0;0;0;0;0;16;0;14;1;1;0;0;0;0;0;16;0;12;0;0;0;0;0;0;0;12;0;12;0;0;0;0;0;0;0;12;0;12;0;0;0;0;0;0;0;12;0;26;1;1;0;0;0;0;0;28;0;26;1;1;0;0;0;0;0;28;0;26;1;1;0;0;0;0;0;28;1;0;8;1;1;0;0;0;0;10;0;8;1;1;0;0;0;0;10;0;8;1;1;0;0;0;0;10;0;14;2;0;0;0;0;0;16;0;14;2;0;0;0;0;0;16;0;14;2;0;0;0;0;0;16;0;22;3;1;0;0;0;0;26;0;22;3;1;0;0;0;0;26;0;22;3;1;0;0;0;0;26;1;0;11;9;0;0;0;0;20;0;11;9;0;0;0;0;20;0;11;9;0;0;0;0;20;0;3;3;0;0;0;0;6;0;3;3;0;0;0;0;6;0;3;3;0;0;0;0;6;0;14;12;0;0;0;0;26;0;14;12;0;0;0;0;26;0;14;12;0;0;0;0;26;1;0;6;5;1;0;0;12;0;6;5;1;0;0;12;0;6;5;1;0;0;12;0;9;3;0;0;0;12;0;9;3;0;0;0;12;0;9;3;0;0;0;12;0;15;8;1;0;0;24;0;15;8;1;0;0;24;0;15;8;1;0;0;24;1;0;11;6;17;10;14;16;6;1;0;0;81;0;11;6;17;10;14;16;6;1;0;0;81;0;11;6;17;10;14;16;6;1;0;0;81;0;8;6;13;14;5;12;3;0;0;0;61;0;8;6;13;14;5;12;3;0;0;0;61;0;8;6;13;14;5;12;3;0;0;0;61;0;19;12;30;24;19;28;9;1;0;0;142;0;19;12;30;24;19;28;9;1;0;0;142;0;19;12;30;24;19;28;9;1;0;0;142;6;40 OTOMI V FAM OTO-MANGUE ;7;3;10;1;1;1;1;1;1;0;6;0;1;6;0;1;8;29/06/2012 12:50:54 p.m.
22DPB0025Q;BELISARIO DOMINGUEZ;1;QUERETARO;001;AMEALCO DE BONFIL;0049;SANTIAGO MEXQUITITLAN BARRIO 2O.;CONOCIDO NUM. 0;;IN;101;22;74;24;30;;;;;;2011;;;;X;1;4;0;0;0;0;0;0;0;0;0;5;1;4;0;0;0;0;0;0;0;0;0;5;1;4;0;0;0;0;0;0;0;0;0;5;4;6;0;0;0;0;0;0;0;0;0;10;4;5;0;0;0;0;0;0;0;0;0;9;4;5;0;0;0;0;0;0;0;0;0;9;5;10;0;0;0;0;0;0;0;0;0;15;5;9;0;0;0;0;0;0;0;0;0;14;5;9;0;0;0;0;0;0;0;0;0;14;1;4;5;0;0;0;0;0;0;0;0;9;4;5;0;0;0;0;0;0;0;0;9;4;5;0;0;0;0;0;0;0;0;9;2;3;5;1;0;0;0;0;0;0;11;2;3;4;1;0;0;0;0;0;0;10;2;3;4;1;0;0;0;0;0;0;10;6;8;5;1;0;0;0;0;0;0;20;6;8;4;1;0;0;0;0;0;0;19;6;8;4;1;0;0;0;0;0;0;19;1;0;7;1;0;0;0;0;0;0;8;0;7;1;0;0;0;0;0;0;8;0;7;1;0;0;0;0;0;0;8;0;10;1;0;1;0;0;0;0;12;0;10;1;0;1;0;0;0;0;12;0;10;1;0;1;0;0;0;0;12;0;17;2;0;1;0;0;0;0;20;0;17;2;0;1;0;0;0;0;20;0;17;2;0;1;0;0;0;0;20;1;5;4;0;0;0;0;0;0;9;5;4;0;0;0;0;0;0;9;5;4;0;0;0;0;0;0;9;3;5;1;1;0;0;0;1;11;3;5;1;1;0;0;0;1;11;3;5;1;1;0;0;0;0;10;8;9;1;1;0;0;0;1;20;8;9;1;1;0;0;0;1;20;8;9;1;1;0;0;0;0;19;1;3;7;1;0;0;0;0;11;3;7;1;0;0;0;0;11;3;7;1;0;0;0;0;11;1;7;0;0;1;0;0;9;1;7;0;0;1;0;0;9;1;7;0;0;1;0;0;9;4;14;1;0;1;0;0;20;4;14;1;0;1;0;0;20;4;14;1;0;1;0;0;20;1;3;7;3;0;0;0;13;3;7;2;0;0;0;12;3;7;2;0;0;0;12;1;3;1;2;0;0;7;1;3;1;2;0;0;7;1;3;1;2;0;0;7;4;10;4;2;0;0;20;4;10;3;2;0;0;19;4;10;3;2;0;0;19;1;1;8;5;12;8;10;8;3;0;0;0;55;1;8;5;12;8;10;8;2;0;0;0;54;1;8;5;12;8;10;8;2;0;0;0;54;4;8;3;18;8;9;5;1;3;0;1;60;4;7;3;17;8;9;5;1;3;0;1;58;4;7;3;17;8;9;5;1;3;0;0;57;5;16;8;30;16;19;13;4;3;0;1;115;5;15;8;29;16;19;13;3;3;0;1;112;5;15;8;29;16;19;13;3;3;0;0;111;6;40 OTOMI V FAM OTO-MANGUE ;0;1;1;1;1;1;1;1;1;0;6;0;1;6;0;0;7;26/06/2012 01:35:55 a.m.
22DPB0026P;BENITO JUAREZ;1;QUERETARO;004;CADEREYTA DE MONTES;0055;LA LUZ (CARRIZALITO);CONOCIDO NUM. 0;;IN;204;97;76;24;30;;;;;;2011;;;;X;0;1;0;0;0;0;0;0;0;0;0;1;0;1;0;0;0;0;0;0;0;0;0;1;0;1;0;0;0;0;0;0;0;0;0;1;0;1;0;0;0;0;0;0;0;0;0;1;0;1;0;0;0;0;0;0;0;0;0;1;0;1;0;0;0;0;0;0;0;0;0;1;0;2;0;0;0;0;0;0;0;0;0;2;0;2;0;0;0;0;0;0;0;0;0;2;0;2;0;0;0;0;0;0;0;0;0;2;1;0;2;1;0;0;0;0;0;0;0;3;0;2;1;0;0;0;0;0;0;0;3;0;2;0;0;0;0;0;0;0;0;2;1;0;0;0;0;0;0;0;0;0;1;1;0;0;0;0;0;0;0;0;0;1;1;0;0;0;0;0;0;0;0;0;1;1;2;1;0;0;0;0;0;0;0;4;1;2;1;0;0;0;0;0;0;0;4;1;2;0;0;0;0;0;0;0;0;3;1;0;1;0;0;1;0;0;0;0;2;0;1;0;0;1;0;0;0;0;2;0;1;0;0;0;0;0;0;0;1;0;0;0;0;0;0;0;0;0;0;0;0;0;0;0;0;0;0;0;0;0;0;0;0;0;0;0;0;0;0;0;1;0;0;1;0;0;0;0;2;0;1;0;0;1;0;0;0;0;2;0;1;0;0;0;0;0;0;0;1;1;0;2;0;0;1;0;0;0;3;0;2;0;0;1;0;0;0;3;0;2;0;0;1;0;0;0;3;0;2;0;0;0;0;0;0;2;0;2;0;0;0;0;0;0;2;0;2;0;0;0;0;0;0;2;0;4;0;0;1;0;0;0;5;0;4;0;0;1;0;0;0;5;0;4;0;0;1;0;0;0;5;1;0;0;0;0;0;0;0;0;0;0;0;0;0;0;0;0;0;0;0;0;0;0;0;0;0;1;1;0;0;0;0;2;0;0;1;0;0;0;0;1;0;0;1;0;0;0;0;1;0;1;1;0;0;0;0;2;0;0;1;0;0;0;0;1;0;0;1;0;0;0;0;1;1;0;1;0;0;0;0;1;0;1;0;0;0;0;1;0;1;0;0;0;0;1;0;0;1;0;0;0;1;0;0;1;0;0;0;1;0;0;1;0;0;0;1;0;1;1;0;0;0;2;0;1;1;0;0;0;2;0;1;1;0;0;0;2;1;0;1;2;2;2;0;2;1;0;0;0;10;0;1;2;2;2;0;2;1;0;0;0;10;0;1;2;1;2;0;1;1;0;0;0;8;0;2;0;0;2;1;1;1;0;0;0;7;0;2;0;0;2;0;1;1;0;0;0;6;0;2;0;0;2;0;1;1;0;0;0;6;0;3;2;2;4;1;3;2;0;0;0;17;0;3;2;2;4;0;3;2;0;0;0;16;0;3;2;1;4;0;2;2;0;0;0;14;6;40 OTOMI V FAM OTO-MANGUE ;0;0;0;0;0;0;0;0;0;1;1;0;0;1;0;0;1;28/06/2012 08:25:52 p.m.
22DPB0030B;BENITO JUAREZ;1;QUERETARO;004;CADEREYTA DE MONTES;0061;LOS MARTINEZ;CONOCIDO NUM. 0;;IN;204;97;76;24;30;;;;;;2011;;;;X;0;0;0;0;0;0;0;0;0;0;0;0;0;0;0;0;0;0;0;0;0;0;0;0;0;0;0;0;0;0;0;0;0;0;0;0;1;2;0;0;0;0;0;0;0;0;0;3;1;2;0;0;0;0;0;0;0;0;0;3;1;2;0;0;0;0;0;0;0;0;0;3;1;2;0;0;0;0;0;0;0;0;0;3;1;2;0;0;0;0;0;0;0;0;0;3;1;2;0;0;0;0;0;0;0;0;0;3;1;0;0;0;0;0;0;0;0;0;0;0;0;0;0;0;0;0;0;0;0;0;0;0;0;0;0;0;0;0;0;0;0;0;0;0;0;0;0;1;0;0;0;0;1;0;0;0;0;0;1;0;0;0;0;1;0;0;0;0;0;1;0;0;0;0;1;0;0;0;0;0;1;0;0;0;0;1;0;0;0;0;0;1;0;0;0;0;1;0;0;0;0;0;1;0;0;0;0;1;1;1;1;0;0;0;1;0;0;0;3;1;1;0;0;0;1;0;0;0;3;1;1;0;0;0;1;0;0;0;3;0;0;0;0;0;0;0;0;0;0;0;0;0;0;0;0;0;0;0;0;0;0;0;0;0;0;0;0;0;0;1;1;0;0;0;1;0;0;0;3;1;1;0;0;0;1;0;0;0;3;1;1;0;0;0;1;0;0;0;3;1;0;1;0;0;0;0;0;0;1;0;1;0;0;0;0;0;0;1;0;1;0;0;0;0;0;0;1;1;0;0;0;0;0;0;0;1;1;0;0;0;0;0;0;0;1;1;0;0;0;0;0;0;0;1;1;1;0;0;0;0;0;0;2;1;1;0;0;0;0;0;0;2;1;1;0;0;0;0;0;0;2;1;0;1;1;0;0;0;0;2;0;1;1;0;0;0;0;2;0;1;1;0;0;0;0;2;0;0;0;0;0;0;0;0;0;0;0;0;0;0;0;0;0;0;0;0;0;0;0;0;0;1;1;0;0;0;0;2;0;1;1;0;0;0;0;2;0;1;1;0;0;0;0;2;1;0;0;0;1;0;0;1;0;0;0;1;0;0;1;0;0;0;1;0;0;1;0;2;0;0;0;0;2;0;2;0;0;0;0;2;0;2;0;0;0;0;2;0;2;0;1;0;0;3;0;2;0;1;0;0;3;0;2;0;1;0;0;3;1;0;0;1;1;1;1;1;1;1;0;0;7;0;0;1;1;1;1;1;1;1;0;0;7;0;0;1;1;1;1;1;1;1;0;0;7;1;2;0;1;0;0;3;0;0;0;0;7;1;2;0;1;0;0;3;0;0;0;0;7;1;2;0;1;0;0;3;0;0;0;0;7;1;2;1;2;1;1;4;1;1;0;0;14;1;2;1;2;1;1;4;1;1;0;0;14;1;2;1;2;1;1;4;1;1;0;0;14;6;40 OTOMI V FAM OTO-MANGUE ;7;7;14;0;0;0;0;0;0;1;1;0;0;1;0;0;1;01/07/2012 11:51:50 p.m.
22DPB0032Z;PEDRO DE GANTE;1;QUERETARO;004;CADEREYTA DE MONTES;0124;LA VERACRUZ;CONOCIDO NUM. 0;;IN;204;97;76;24;30;;;;;;2011;;;;X;0;0;0;0;0;0;0;0;0;0;0;0;0;0;0;0;0;0;0;0;0;0;0;0;0;0;0;0;0;0;0;0;0;0;0;0;0;0;0;0;0;0;0;0;0;0;0;0;0;0;0;0;0;0;0;0;0;0;0;0;0;0;0;0;0;0;0;0;0;0;0;0;0;0;0;0;0;0;0;0;0;0;0;0;0;0;0;0;0;0;0;0;0;0;0;0;0;0;0;0;0;0;0;0;0;0;0;0;0;0;0;0;0;0;0;0;0;0;0;0;0;0;0;0;0;0;0;0;0;0;0;0;0;0;0;0;0;0;0;0;0;0;1;0;0;0;0;0;0;0;0;0;1;0;0;0;0;0;0;0;0;0;0;0;0;0;0;0;0;0;0;0;0;0;0;1;0;0;0;0;0;0;0;0;0;1;0;0;0;0;0;0;0;0;0;0;0;0;0;0;0;0;0;0;0;0;0;0;0;0;0;0;0;0;0;0;0;0;0;0;0;0;0;0;0;0;0;0;0;0;0;0;0;0;0;0;0;0;0;0;0;0;0;0;0;0;0;0;0;0;0;0;0;0;0;0;0;0;0;0;0;0;0;0;0;0;0;0;0;0;0;0;0;0;0;0;0;0;0;0;0;0;0;0;0;0;0;0;0;0;0;0;0;0;0;0;0;0;0;0;0;0;0;0;0;0;0;0;0;0;0;0;0;0;0;0;0;0;0;0;0;0;0;0;0;0;0;1;2;0;0;0;0;0;0;3;1;2;0;0;0;0;0;0;3;1;2;0;0;0;0;0;0;3;1;2;0;0;0;0;0;0;3;1;2;0;0;0;0;0;0;3;1;2;0;0;0;0;0;0;3;1;0;2;0;0;0;0;0;2;0;2;0;0;0;0;0;2;0;2;0;0;0;0;0;2;0;4;1;0;0;0;0;5;0;4;0;0;0;0;0;4;0;4;0;0;0;0;0;4;0;6;1;0;0;0;0;7;0;6;0;0;0;0;0;6;0;6;0;0;0;0;0;6;1;0;1;0;0;0;0;1;0;1;0;0;0;0;1;0;1;0;0;0;0;1;0;0;0;0;0;0;0;0;0;0;0;0;0;0;0;0;0;0;0;0;0;0;1;0;0;0;0;1;0;1;0;0;0;0;1;0;1;0;0;0;0;1;1;0;0;0;0;0;2;1;0;0;0;0;3;0;0;0;0;0;2;1;0;0;0;0;3;0;0;0;0;0;2;1;0;0;0;0;3;0;1;0;1;2;4;1;0;0;0;0;9;0;0;0;1;2;4;0;0;0;0;0;7;0;0;0;1;2;4;0;0;0;0;0;7;0;1;0;1;2;6;2;0;0;0;0;12;0;0;0;1;2;6;1;0;0;0;0;10;0;0;0;1;2;6;1;0;0;0;0;10;3;40 OTOMI V FAM OTO-MANGUE ;0;0;0;0;0;0;0;0;0;1;1;0;0;1;0;0;1;27/06/2012 07:31:04 p.m.
22DPB0033Z;BENITO JUAREZ;1;QUERETARO;001;AMEALCO DE BONFIL;0087;EJIDO DE SAN JUAN DEHEDO;CONOCIDO NUM. 0;;IN;104;22;74;24;30;;;;;;2011;;;;X;2;8;0;1;1;0;0;0;0;0;0;12;2;8;0;1;1;0;0;0;0;0;0;12;2;8;0;1;1;0;0;0;0;0;0;12;1;4;0;0;0;0;0;0;0;0;0;5;1;4;0;0;0;0;0;0;0;0;0;5;1;4;0;0;0;0;0;0;0;0;0;5;3;12;0;1;1;0;0;0;0;0;0;17;3;12;0;1;1;0;0;0;0;0;0;17;3;12;0;1;1;0;0;0;0;0;0;17;1;5;1;0;0;0;0;0;0;0;0;6;5;1;0;0;0;0;0;0;0;0;6;4;1;0;0;0;0;0;0;0;0;5;2;4;0;0;0;0;0;0;0;0;6;2;4;0;0;0;0;0;0;0;0;6;2;4;0;0;0;0;0;0;0;0;6;7;5;0;0;0;0;0;0;0;0;12;7;5;0;0;0;0;0;0;0;0;12;6;5;0;0;0;0;0;0;0;0;11;1;2;4;1;2;0;0;0;0;0;9;2;4;1;2;0;0;0;0;0;9;2;3;1;2;0;0;0;0;0;8;0;6;1;0;0;0;0;0;0;7;0;6;1;0;0;0;0;0;0;7;0;5;1;0;0;0;0;0;0;6;2;10;2;2;0;0;0;0;0;16;2;10;2;2;0;0;0;0;0;16;2;8;2;2;0;0;0;0;0;14;1;0;5;2;0;0;0;0;0;7;0;5;2;0;0;0;0;0;7;0;4;1;0;0;0;0;0;5;0;8;0;0;0;0;0;0;8;0;8;0;0;0;0;0;0;8;0;8;0;0;0;0;0;0;8;0;13;2;0;0;0;0;0;15;0;13;2;0;0;0;0;0;15;0;12;1;0;0;0;0;0;13;1;0;7;1;0;2;0;0;10;0;7;1;0;2;0;0;10;0;5;1;0;2;0;0;8;0;5;1;0;0;0;0;6;0;5;1;0;0;0;0;6;0;5;1;0;0;0;0;6;0;12;2;0;2;0;0;16;0;12;2;0;2;0;0;16;0;10;2;0;2;0;0;14;1;0;3;0;0;0;1;4;0;3;0;0;0;1;4;0;3;0;0;0;1;4;0;2;0;1;0;0;3;0;2;0;1;0;0;3;0;2;0;1;0;0;3;0;5;0;1;0;1;7;0;5;0;1;0;1;7;0;5;0;1;0;1;7;1;2;13;3;5;7;11;4;0;2;0;1;48;2;13;3;5;7;11;4;0;2;0;1;48;2;12;3;4;6;8;4;0;2;0;1;42;1;6;4;6;9;5;3;0;1;0;0;35;1;6;4;6;9;5;3;0;1;0;0;35;1;6;4;5;9;5;3;0;1;0;0;34;3;19;7;11;16;16;7;0;3;0;1;83;3;19;7;11;16;16;7;0;3;0;1;83;3;18;7;9;15;13;7;0;3;0;1;76;6;40 OTOMI V FAM OTO-MANGUE ;0;0;0;0;0;0;0;0;0;3;3;1;0;2;0;0;3;27/06/2012 10:46:07 p.m.
22DPB0034Y;IGNACIO ZARAGOZA;1;QUERETARO;001;AMEALCO DE BONFIL;0048;SANTIAGO MEXQUITITLAN BARRIO 4O.;CONOCIDO NUM. 0;;IN;103;22;74;24;30;;;;;;2011;;;;X;2;12;0;0;0;0;0;0;0;0;0;14;2;12;0;0;0;0;0;0;0;0;0;14;0;11;0;0;0;0;0;0;0;0;0;11;3;12;1;0;0;0;0;0;0;0;0;16;3;11;1;0;0;0;0;0;0;0;0;15;3;11;1;0;0;0;0;0;0;0;0;15;5;24;1;0;0;0;0;0;0;0;0;30;5;23;1;0;0;0;0;0;0;0;0;29;3;22;1;0;0;0;0;0;0;0;0;26;1;2;10;3;1;0;0;0;0;0;0;16;2;10;3;1;0;0;0;0;0;0;16;2;9;3;1;0;0;0;0;0;0;15;4;12;1;1;0;0;0;0;0;0;18;3;12;1;1;0;0;0;0;0;0;17;3;12;1;1;0;0;0;0;0;0;17;6;22;4;2;0;0;0;0;0;0;34;5;22;4;2;0;0;0;0;0;0;33;5;21;4;2;0;0;0;0;0;0;32;1;3;8;3;0;0;1;0;0;0;15;3;8;3;0;0;1;0;0;0;15;3;8;3;0;0;1;0;0;0;15;3;9;1;0;0;0;0;0;0;13;3;9;1;0;0;0;0;0;0;13;3;9;1;0;0;0;0;0;0;13;6;17;4;0;0;1;0;0;0;28;6;17;4;0;0;1;0;0;0;28;6;17;4;0;0;1;0;0;0;28;1;5;9;3;1;0;0;0;0;18;5;9;2;1;0;0;0;0;17;4;9;2;1;0;0;0;0;16;3;7;3;0;1;0;0;0;14;3;7;3;0;1;0;0;0;14;3;7;3;0;1;0;0;0;14;8;16;6;1;1;0;0;0;32;8;16;5;1;1;0;0;0;31;7;16;5;1;1;0;0;0;30;1;4;9;6;4;2;1;0;26;4;9;6;4;1;0;0;24;4;9;6;4;1;0;0;24;6;14;1;0;0;0;0;21;6;14;1;0;0;0;0;21;6;14;1;0;0;0;0;21;10;23;7;4;2;1;0;47;10;23;7;4;1;0;0;45;10;23;7;4;1;0;0;45;2;0;11;3;0;0;0;14;0;11;3;0;0;0;14;0;11;3;0;0;0;14;0;14;3;0;0;0;17;0;14;3;0;0;0;17;0;14;3;0;0;0;17;0;25;6;0;0;0;31;0;25;6;0;0;0;31;0;25;6;0;0;0;31;1;2;14;13;16;17;12;18;8;2;1;0;103;2;14;13;16;17;11;18;8;1;0;0;100;0;13;12;15;17;11;18;8;1;0;0;95;3;16;16;13;15;17;15;4;0;0;0;99;3;14;16;13;15;17;15;4;0;0;0;97;3;14;16;13;15;17;15;4;0;0;0;97;5;30;29;29;32;29;33;12;2;1;0;202;5;28;29;29;32;28;33;12;1;0;0;197;3;27;28;28;32;28;33;12;1;0;0;192;7;40 OTOMI V FAM OTO-MANGUE ;0;0;0;1;1;1;1;2;1;0;7;0;1;6;1;1;9;27/06/2012 05:45:49 p.m.
22DPB0036W;LAZARO CARDENAS;1;QUERETARO;004;CADEREYTA DE MONTES;0032;EL CHILAR;CONOCIDO NUM. 0;;IN;205;97;76;24;30;;;;;;2011;;;;X;2;4;0;0;0;0;0;0;0;0;0;6;2;4;0;0;0;0;0;0;0;0;0;6;1;3;0;0;0;0;0;0;0;0;0;4;1;3;0;0;0;0;0;0;0;0;0;4;1;3;0;0;0;0;0;0;0;0;0;4;1;3;0;0;0;0;0;0;0;0;0;4;3;7;0;0;0;0;0;0;0;0;0;10;3;7;0;0;0;0;0;0;0;0;0;10;2;6;0;0;0;0;0;0;0;0;0;8;1;0;2;0;0;0;0;0;0;0;0;2;0;2;0;0;0;0;0;0;0;0;2;0;2;0;0;0;0;0;0;0;0;2;1;4;0;0;0;0;0;0;0;0;5;1;4;0;0;0;0;0;0;0;0;5;1;4;0;0;0;0;0;0;0;0;5;1;6;0;0;0;0;0;0;0;0;7;1;6;0;0;0;0;0;0;0;0;7;1;6;0;0;0;0;0;0;0;0;7;1;0;3;0;0;0;0;0;0;0;3;0;3;0;0;0;0;0;0;0;3;0;3;0;0;0;0;0;0;0;3;3;1;0;1;0;0;0;0;0;5;3;1;0;1;0;0;0;0;0;5;3;1;0;1;0;0;0;0;0;5;3;4;0;1;0;0;0;0;0;8;3;4;0;1;0;0;0;0;0;8;3;4;0;1;0;0;0;0;0;8;1;1;5;0;0;0;0;0;0;6;1;5;0;0;0;0;0;0;6;1;5;0;0;0;0;0;0;6;0;1;0;0;0;0;0;0;1;0;1;0;0;0;0;0;0;1;0;1;0;0;0;0;0;0;1;1;6;0;0;0;0;0;0;7;1;6;0;0;0;0;0;0;7;1;6;0;0;0;0;0;0;7;1;0;2;2;1;0;0;0;5;0;2;2;1;0;0;0;5;0;2;2;1;0;0;0;5;0;1;0;0;0;0;0;1;0;1;0;0;0;0;0;1;0;1;0;0;0;0;0;1;0;3;2;1;0;0;0;6;0;3;2;1;0;0;0;6;0;3;2;1;0;0;0;6;1;0;2;0;0;0;0;2;0;2;0;0;0;0;2;0;2;0;0;0;0;2;0;1;0;0;0;0;1;0;1;0;0;0;0;1;0;1;0;0;0;0;1;0;3;0;0;0;0;3;0;3;0;0;0;0;3;0;3;0;0;0;0;3;1;2;4;2;4;5;2;4;1;0;0;0;24;2;4;2;4;5;2;4;1;0;0;0;24;1;3;2;4;5;2;4;1;0;0;0;22;1;4;7;1;1;2;1;0;0;0;0;17;1;4;7;1;1;2;1;0;0;0;0;17;1;4;7;1;1;2;1;0;0;0;0;17;3;8;9;5;6;4;5;1;0;0;0;41;3;8;9;5;6;4;5;1;0;0;0;41;2;7;9;5;6;4;5;1;0;0;0;39;6;40 OTOMI V FAM OTO-MANGUE ;0;0;0;0;0;0;0;0;0;2;2;1;0;1;0;0;2;26/06/2012 09:28:20 p.m.
22DPB0037V;LEONA VICARIO;1;QUERETARO;004;CADEREYTA DE MONTES;0056;LOS LLANITOS DE PATHE;CONOCIDO NUM. 0;;IN;205;97;76;24;30;;;;;;2011;;;;X;0;4;3;0;0;0;0;0;0;0;0;7;0;4;3;0;0;0;0;0;0;0;0;7;0;3;3;0;0;0;0;0;0;0;0;6;0;2;0;0;0;0;0;0;0;0;0;2;0;2;0;0;0;0;0;0;0;0;0;2;0;2;0;0;0;0;0;0;0;0;0;2;0;6;3;0;0;0;0;0;0;0;0;9;0;6;3;0;0;0;0;0;0;0;0;9;0;5;3;0;0;0;0;0;0;0;0;8;1;0;0;0;0;0;0;0;0;0;0;0;0;0;0;0;0;0;0;0;0;0;0;0;0;0;0;0;0;0;0;0;0;0;0;6;1;0;0;0;0;0;0;0;7;0;6;1;0;0;0;0;0;0;0;7;0;5;1;0;0;0;0;0;0;0;6;0;6;1;0;0;0;0;0;0;0;7;0;6;1;0;0;0;0;0;0;0;7;0;5;1;0;0;0;0;0;0;0;6;1;0;6;1;0;0;0;0;0;0;7;0;6;1;0;0;0;0;0;0;7;0;5;1;0;0;0;0;0;0;6;1;0;6;0;0;0;0;0;0;7;1;0;6;0;0;0;0;0;0;7;1;0;6;0;0;0;0;0;0;7;1;6;7;0;0;0;0;0;0;14;1;6;7;0;0;0;0;0;0;14;1;5;7;0;0;0;0;0;0;13;1;1;2;1;2;0;0;0;0;6;1;2;1;2;0;0;0;0;6;1;2;1;2;0;0;0;0;6;0;2;0;0;0;0;0;0;2;0;2;0;0;0;0;0;0;2;0;2;0;0;0;0;0;0;2;1;4;1;2;0;0;0;0;8;1;4;1;2;0;0;0;0;8;1;4;1;2;0;0;0;0;8;1;0;3;0;0;0;0;0;3;0;3;0;0;0;0;0;3;0;3;0;0;0;0;0;3;0;2;0;0;0;0;0;2;0;2;0;0;0;0;0;2;0;2;0;0;0;0;0;2;0;5;0;0;0;0;0;5;0;5;0;0;0;0;0;5;0;5;0;0;0;0;0;5;1;1;1;0;0;0;0;2;1;1;0;0;0;0;2;1;1;0;0;0;0;2;1;1;0;0;0;0;2;1;1;0;0;0;0;2;1;1;0;0;0;0;2;2;2;0;0;0;0;4;2;2;0;0;0;0;4;2;2;0;0;0;0;4;1;0;4;3;7;3;5;3;0;0;0;0;25;0;4;3;7;3;5;3;0;0;0;0;25;0;3;3;6;3;5;3;0;0;0;0;23;0;2;7;1;8;3;1;0;0;0;0;22;0;2;7;1;8;3;1;0;0;0;0;22;0;2;6;1;8;3;1;0;0;0;0;21;0;6;10;8;11;8;4;0;0;0;0;47;0;6;10;8;11;8;4;0;0;0;0;47;0;5;9;7;11;8;4;0;0;0;0;44;6;40 OTOMI V FAM OTO-MANGUE ;0;0;0;0;0;0;0;0;0;2;2;0;0;2;0;1;3;26/06/2012 07:20:59 p.m.
22DPB0038U;GENERAL IGNACIO ZARAGOZA;1;QUERETARO;004;CADEREYTA DE MONTES;0003;EL AGUACATE;IGNACIO ZARAGOZA S/N NUM. 0;;IN;206;97;76;24;30;;;;;;2011;;;;X;0;7;0;0;0;0;0;0;0;0;0;7;0;7;0;0;0;0;0;0;0;0;0;7;0;7;0;0;0;0;0;0;0;0;0;7;0;8;1;0;0;0;0;0;0;0;0;9;0;6;1;0;0;0;0;0;0;0;0;7;0;6;1;0;0;0;0;0;0;0;0;7;0;15;1;0;0;0;0;0;0;0;0;16;0;13;1;0;0;0;0;0;0;0;0;14;0;13;1;0;0;0;0;0;0;0;0;14;1;0;6;1;0;0;0;0;0;0;0;7;0;5;1;0;0;0;0;0;0;0;6;0;5;1;0;0;0;0;0;0;0;6;0;8;0;0;0;0;0;0;0;0;8;0;8;0;0;0;0;0;0;0;0;8;0;8;0;0;0;0;0;0;0;0;8;0;14;1;0;0;0;0;0;0;0;15;0;13;1;0;0;0;0;0;0;0;14;0;13;1;0;0;0;0;0;0;0;14;1;0;6;0;0;0;0;0;0;0;6;0;6;0;0;0;0;0;0;0;6;0;6;0;0;0;0;0;0;0;6;0;5;0;0;0;0;0;0;0;5;0;5;0;0;0;0;0;0;0;5;0;5;0;0;0;0;0;0;0;5;0;11;0;0;0;0;0;0;0;11;0;11;0;0;0;0;0;0;0;11;0;11;0;0;0;0;0;0;0;11;1;0;9;0;0;0;0;0;0;9;0;8;0;0;0;0;0;0;8;0;8;0;0;0;0;0;0;8;0;6;0;0;1;0;0;0;7;0;6;0;0;0;0;0;0;6;0;6;0;0;0;0;0;0;6;0;15;0;0;1;0;0;0;16;0;14;0;0;0;0;0;0;14;0;14;0;0;0;0;0;0;14;1;0;5;3;0;0;1;0;9;0;5;3;0;0;1;0;9;0;5;3;0;0;1;0;9;0;9;5;1;0;0;0;15;0;9;4;1;0;0;0;14;0;9;4;1;0;0;0;14;0;14;8;1;0;1;0;24;0;14;7;1;0;1;0;23;0;14;7;1;0;1;0;23;1;0;5;4;1;0;0;10;0;5;4;1;0;0;10;0;5;4;1;0;0;10;0;7;2;0;0;0;9;0;7;2;0;0;0;9;0;7;2;0;0;0;9;0;12;6;1;0;0;19;0;12;6;1;0;0;19;0;12;6;1;0;0;19;1;0;7;6;7;9;5;8;4;1;1;0;48;0;7;5;7;8;5;8;4;1;1;0;46;0;7;5;7;8;5;8;4;1;1;0;46;0;8;9;5;6;9;12;4;0;0;0;53;0;6;9;5;6;9;11;3;0;0;0;49;0;6;9;5;6;9;11;3;0;0;0;49;0;15;15;12;15;14;20;8;1;1;0;101;0;13;14;12;14;14;19;7;1;1;0;95;0;13;14;12;14;14;19;7;1;1;0;95;6;40 OTOMI V FAM OTO-MANGUE ;5;8;13;1;0;0;1;1;1;1;5;0;1;5;0;1;7;27/06/2012 10:51:18 a.m.
22DPB0039T;RAZA OTOMI;1;QUERETARO;004;CADEREYTA DE MONTES;0159;TZIBANTZA;CONOCIDO NUM. 0;;IN;205;97;76;24;30;;;;;;2011;;;;X;0;1;0;0;0;0;0;0;0;0;0;1;0;1;0;0;0;0;0;0;0;0;0;1;0;1;0;0;0;0;0;0;0;0;0;1;0;4;0;0;0;0;0;0;0;0;0;4;0;4;0;0;0;0;0;0;0;0;0;4;0;4;0;0;0;0;0;0;0;0;0;4;0;5;0;0;0;0;0;0;0;0;0;5;0;5;0;0;0;0;0;0;0;0;0;5;0;5;0;0;0;0;0;0;0;0;0;5;1;0;3;0;0;0;0;0;0;0;0;3;0;3;0;0;0;0;0;0;0;0;3;0;3;0;0;0;0;0;0;0;0;3;0;3;0;0;0;0;0;0;0;0;3;0;3;0;0;0;0;0;0;0;0;3;0;3;0;0;0;0;0;0;0;0;3;0;6;0;0;0;0;0;0;0;0;6;0;6;0;0;0;0;0;0;0;0;6;0;6;0;0;0;0;0;0;0;0;6;1;0;0;1;0;0;0;0;0;0;1;0;0;1;0;0;0;0;0;0;1;0;0;1;0;0;0;0;0;0;1;0;4;1;0;0;0;0;0;0;5;0;4;1;0;0;0;0;0;0;5;0;4;1;0;0;0;0;0;0;5;0;4;2;0;0;0;0;0;0;6;0;4;2;0;0;0;0;0;0;6;0;4;2;0;0;0;0;0;0;6;1;0;2;0;1;0;0;0;0;3;0;2;0;1;0;0;0;0;3;0;2;0;1;0;0;0;0;3;0;3;3;0;0;0;0;0;6;0;3;3;0;0;0;0;0;6;0;3;3;0;0;0;0;0;6;0;5;3;1;0;0;0;0;9;0;5;3;1;0;0;0;0;9;0;5;3;1;0;0;0;0;9;1;0;7;0;1;0;0;0;8;0;7;0;1;0;0;0;8;0;7;0;1;0;0;0;8;0;2;0;0;0;0;0;2;0;2;0;0;0;0;0;2;0;2;0;0;0;0;0;2;0;9;0;1;0;0;0;10;0;9;0;1;0;0;0;10;0;9;0;1;0;0;0;10;1;0;2;2;1;0;0;5;0;2;2;1;0;0;5;0;2;2;1;0;0;5;0;1;2;0;0;0;3;0;1;2;0;0;0;3;0;1;2;0;0;0;3;0;3;4;1;0;0;8;0;3;4;1;0;0;8;0;3;4;1;0;0;8;1;0;1;3;0;3;7;3;3;1;0;0;21;0;1;3;0;3;7;3;3;1;0;0;21;0;1;3;0;3;7;3;3;1;0;0;21;0;4;3;4;4;5;1;2;0;0;0;23;0;4;3;4;4;5;1;2;0;0;0;23;0;4;3;4;4;5;1;2;0;0;0;23;0;5;6;4;7;12;4;5;1;0;0;44;0;5;6;4;7;12;4;5;1;0;0;44;0;5;6;4;7;12;4;5;1;0;0;44;6;40 OTOMI V FAM OTO-MANGUE ;0;0;0;0;0;0;0;0;0;2;2;1;0;1;0;0;2;02/07/2012 05:24:30 p.m.
22DPB0040I;JUAN ESCUTIA;1;QUERETARO;004;CADEREYTA DE MONTES;0005;ALTAMIRA (LA BONDOTITA);CONOCIDO NUM. 0;;IN;208;97;76;24;30;;;;;;2011;;;;X;0;4;0;1;0;0;0;0;0;0;0;5;0;3;0;1;0;0;0;0;0;0;0;4;0;3;0;1;0;0;0;0;0;0;0;4;0;4;0;0;1;0;0;0;0;0;0;5;0;4;0;0;1;0;0;0;0;0;0;5;0;4;0;0;1;0;0;0;0;0;0;5;0;8;0;1;1;0;0;0;0;0;0;10;0;7;0;1;1;0;0;0;0;0;0;9;0;7;0;1;1;0;0;0;0;0;0;9;1;0;4;2;0;0;0;0;0;0;0;6;0;4;2;0;0;0;0;0;0;0;6;0;4;2;0;0;0;0;0;0;0;6;0;3;0;0;0;0;0;0;0;0;3;0;2;0;0;0;0;0;0;0;0;2;0;1;0;0;0;0;0;0;0;0;1;0;7;2;0;0;0;0;0;0;0;9;0;6;2;0;0;0;0;0;0;0;8;0;5;2;0;0;0;0;0;0;0;7;1;0;2;3;1;1;0;0;0;0;7;0;2;3;1;1;0;0;0;0;7;0;2;3;1;1;0;0;0;0;7;0;2;0;0;0;0;0;0;0;2;0;2;0;0;0;0;0;0;0;2;0;2;0;0;0;0;0;0;0;2;0;4;3;1;1;0;0;0;0;9;0;4;3;1;1;0;0;0;0;9;0;4;3;1;1;0;0;0;0;9;1;0;4;0;0;1;1;0;0;6;0;4;0;0;1;1;0;0;6;0;4;0;0;1;1;0;0;6;0;2;2;1;1;0;0;0;6;0;1;2;1;1;0;0;0;5;0;1;2;1;1;0;0;0;5;0;6;2;1;2;1;0;0;12;0;5;2;1;2;1;0;0;11;0;5;2;1;2;1;0;0;11;1;0;3;3;1;1;0;0;8;0;3;3;1;1;0;0;8;0;3;3;0;1;0;0;7;0;2;3;0;0;1;0;6;0;2;3;0;0;1;0;6;0;1;3;0;0;1;0;5;0;5;6;1;1;1;0;14;0;5;6;1;1;1;0;14;0;4;6;0;1;1;0;12;1;0;0;2;1;0;0;3;0;0;2;1;0;0;3;0;0;2;1;0;0;3;0;2;1;0;0;1;4;0;2;1;0;0;1;4;0;2;1;0;0;1;4;0;2;3;1;0;1;7;0;2;3;1;0;1;7;0;2;3;1;0;1;7;1;0;4;4;5;7;4;4;4;3;0;0;35;0;3;4;5;7;4;4;4;3;0;0;34;0;3;4;5;7;4;4;3;3;0;0;33;0;4;3;2;3;4;6;2;0;1;1;26;0;4;2;2;2;4;6;2;0;1;1;24;0;4;1;2;2;3;6;2;0;1;1;22;0;8;7;7;10;8;10;6;3;1;1;61;0;7;6;7;9;8;10;6;3;1;1;58;0;7;5;7;9;7;10;5;3;1;1;55;6;40 OTOMI V FAM OTO-MANGUE ;1;1;2;0;0;0;0;0;0;2;2;0;0;2;0;0;2;26/06/2012 08:24:42 p.m.
22DPB0042G;GUADALUPE VICTORIA;1;QUERETARO;004;CADEREYTA DE MONTES;0035;EL DIVINO PASTOR;CONOCIDO NUM. 0;;IN;204;97;76;24;30;;;;;;2011;;;;X;0;1;0;0;0;0;0;0;0;0;0;1;0;1;0;0;0;0;0;0;0;0;0;1;0;1;0;0;0;0;0;0;0;0;0;1;1;0;0;0;0;0;0;0;0;0;0;1;1;0;0;0;0;0;0;0;0;0;0;1;1;0;0;0;0;0;0;0;0;0;0;1;1;1;0;0;0;0;0;0;0;0;0;2;1;1;0;0;0;0;0;0;0;0;0;2;1;1;0;0;0;0;0;0;0;0;0;2;1;1;1;0;0;0;0;0;0;0;0;2;1;1;0;0;0;0;0;0;0;0;2;1;1;0;0;0;0;0;0;0;0;2;0;0;0;0;0;0;0;0;0;0;0;0;0;0;0;0;0;0;0;0;0;0;0;0;0;0;0;0;0;0;0;0;0;1;1;0;0;0;0;0;0;0;0;2;1;1;0;0;0;0;0;0;0;0;2;1;1;0;0;0;0;0;0;0;0;2;1;0;2;0;0;0;0;0;0;0;2;0;2;0;0;0;0;0;0;0;2;0;2;0;0;0;0;0;0;0;2;0;1;1;0;0;0;0;0;0;2;0;1;1;0;0;0;0;0;0;2;0;1;1;0;0;0;0;0;0;2;0;3;1;0;0;0;0;0;0;4;0;3;1;0;0;0;0;0;0;4;0;3;1;0;0;0;0;0;0;4;1;1;0;1;1;0;0;0;0;3;1;0;1;1;0;0;0;0;3;1;0;1;1;0;0;0;0;3;0;1;0;1;0;0;0;0;2;0;1;0;1;0;0;0;0;2;0;1;0;1;0;0;0;0;2;1;1;1;2;0;0;0;0;5;1;1;1;2;0;0;0;0;5;1;1;1;2;0;0;0;0;5;1;0;2;1;1;0;0;0;4;0;2;1;1;0;0;0;4;0;2;1;1;0;0;0;4;0;0;1;0;0;0;0;1;0;0;1;0;0;0;0;1;0;0;1;0;0;0;0;1;0;2;2;1;0;0;0;5;0;2;2;1;0;0;0;5;0;2;2;1;0;0;0;5;1;0;0;0;0;0;0;0;0;0;0;0;0;0;0;0;0;0;0;0;0;0;0;0;0;0;0;0;0;0;0;0;0;0;0;0;0;0;0;0;0;0;0;0;0;0;0;0;0;0;0;0;0;0;0;0;0;0;0;0;0;0;0;0;0;0;2;1;3;0;3;2;1;0;0;0;12;0;2;1;3;0;3;2;1;0;0;0;12;0;2;1;3;0;3;2;1;0;0;0;12;1;0;0;1;2;0;2;0;0;0;0;6;1;0;0;1;2;0;2;0;0;0;0;6;1;0;0;1;2;0;2;0;0;0;0;6;1;2;1;4;2;3;4;1;0;0;0;18;1;2;1;4;2;3;4;1;0;0;0;18;1;2;1;4;2;3;4;1;0;0;0;18;5;40 OTOMI V FAM OTO-MANGUE ;1;0;1;0;0;0;0;0;0;1;1;0;0;1;0;0;1;30/06/2012 10:47:31 p.m.
22DPB0043F;JOSEFA ORTIZ DE DOMINGUEZ;1;QUERETARO;004;CADEREYTA DE MONTES;0063;EL MEMBRILLO;CONOCIDO NUM. 0;;IN;208;97;76;24;30;;;;;;2011;;;;X;0;4;0;0;1;0;0;0;0;0;0;5;0;4;0;0;1;0;0;0;0;0;0;5;0;4;0;0;1;0;0;0;0;0;0;5;0;5;0;0;0;0;0;0;0;0;0;5;0;5;0;0;0;0;0;0;0;0;0;5;0;5;0;0;0;0;0;0;0;0;0;5;0;9;0;0;1;0;0;0;0;0;0;10;0;9;0;0;1;0;0;0;0;0;0;10;0;9;0;0;1;0;0;0;0;0;0;10;1;0;3;2;0;0;0;0;0;0;0;5;0;3;2;0;0;0;0;0;0;0;5;0;2;2;0;0;0;0;0;0;0;4;0;1;0;0;0;0;0;0;0;0;1;0;1;0;0;0;0;0;0;0;0;1;0;0;0;0;0;0;0;0;0;0;0;0;4;2;0;0;0;0;0;0;0;6;0;4;2;0;0;0;0;0;0;0;6;0;2;2;0;0;0;0;0;0;0;4;1;1;2;1;0;0;0;0;0;0;4;1;2;1;0;0;0;0;0;0;4;1;2;1;0;0;0;0;0;0;4;2;4;0;1;0;0;0;0;0;7;2;4;0;1;0;0;0;0;0;7;2;4;0;1;0;0;0;0;0;7;3;6;1;1;0;0;0;0;0;11;3;6;1;1;0;0;0;0;0;11;3;6;1;1;0;0;0;0;0;11;1;3;3;0;0;0;0;0;0;6;3;3;0;0;0;0;0;0;6;3;2;0;0;0;0;0;0;5;1;2;2;1;0;0;0;0;6;1;2;2;1;0;0;0;0;6;1;2;2;0;0;0;0;0;5;4;5;2;1;0;0;0;0;12;4;5;2;1;0;0;0;0;12;4;4;2;0;0;0;0;0;10;1;0;3;0;0;0;0;0;3;0;3;0;0;0;0;0;3;0;3;0;0;0;0;0;3;1;2;0;1;1;0;0;5;1;2;0;1;1;0;0;5;1;2;0;1;1;0;0;5;1;5;0;1;1;0;0;8;1;5;0;1;1;0;0;8;1;5;0;1;1;0;0;8;1;0;2;1;0;0;0;3;0;2;1;0;0;0;3;0;2;1;0;0;0;3;0;0;0;0;0;1;1;0;0;0;0;0;1;1;0;0;0;0;0;1;1;0;2;1;0;0;1;4;0;2;1;0;0;1;4;0;2;1;0;0;1;4;1;0;4;4;7;5;3;2;1;0;0;0;26;0;4;4;7;5;3;2;1;0;0;0;26;0;4;3;7;4;3;2;1;0;0;0;24;0;5;3;5;3;5;1;1;1;0;1;25;0;5;3;5;3;5;1;1;1;0;1;25;0;5;2;5;3;5;0;1;1;0;1;23;0;9;7;12;8;8;3;2;1;0;1;51;0;9;7;12;8;8;3;2;1;0;1;51;0;9;5;12;7;8;2;2;1;0;1;47;6;40 OTOMI V FAM OTO-MANGUE ;0;0;0;0;0;0;0;0;0;2;2;0;0;2;0;0;2;25/06/2012 08:08:38 p.m.
22DPB0044E;LIC. ADOLFO LOPEZ MATEOS;1;QUERETARO;004;CADEREYTA DE MONTES;0050;LA LAJA;CONOCIDO NUM. 0;;IN;208;97;76;24;30;;;;;;2011;;;;X;0;4;2;0;0;0;0;0;0;0;0;6;0;4;2;0;0;0;0;0;0;0;0;6;0;3;2;0;0;0;0;0;0;0;0;5;0;8;1;0;0;0;0;0;0;0;0;9;0;8;1;0;0;0;0;0;0;0;0;9;0;7;1;0;0;0;0;0;0;0;0;8;0;12;3;0;0;0;0;0;0;0;0;15;0;12;3;0;0;0;0;0;0;0;0;15;0;10;3;0;0;0;0;0;0;0;0;13;1;0;5;4;2;1;0;0;0;0;0;12;0;5;4;2;1;0;0;0;0;0;12;0;5;4;2;0;0;0;0;0;0;11;0;6;1;1;0;0;0;0;0;0;8;0;6;1;1;0;0;0;0;0;0;8;0;6;1;1;0;0;0;0;0;0;8;0;11;5;3;1;0;0;0;0;0;20;0;11;5;3;1;0;0;0;0;0;20;0;11;5;3;0;0;0;0;0;0;19;1;0;5;3;1;0;0;0;0;0;9;0;5;3;1;0;0;0;0;0;9;0;5;3;1;0;0;0;0;0;9;0;3;3;1;0;0;0;0;0;7;0;3;3;1;0;0;0;0;0;7;0;3;2;0;0;0;0;0;0;5;0;8;6;2;0;0;0;0;0;16;0;8;6;2;0;0;0;0;0;16;0;8;5;1;0;0;0;0;0;14;1;2;1;0;2;0;0;0;0;5;2;1;0;2;0;0;0;0;5;2;1;0;1;0;0;0;0;4;1;4;2;0;2;1;0;0;10;1;4;2;0;2;1;0;0;10;1;4;2;0;2;1;0;0;10;3;5;2;2;2;1;0;0;15;3;5;2;2;2;1;0;0;15;3;5;2;1;2;1;0;0;14;1;0;4;2;0;1;0;0;7;0;4;2;0;1;0;0;7;0;4;1;0;1;0;0;6;0;5;3;2;0;0;0;10;0;5;3;2;0;0;0;10;0;5;3;1;0;0;0;9;0;9;5;2;1;0;0;17;0;9;5;2;1;0;0;17;0;9;4;1;1;0;0;15;1;0;1;1;0;0;0;2;0;1;1;0;0;0;2;0;1;1;0;0;0;2;0;3;0;0;0;0;3;0;3;0;0;0;0;3;0;3;0;0;0;0;3;0;4;1;0;0;0;5;0;4;1;0;0;0;5;0;4;1;0;0;0;5;1;0;4;7;11;6;6;5;1;1;0;0;41;0;4;7;11;6;6;5;1;1;0;0;41;0;3;7;11;6;5;3;1;1;0;0;37;0;8;7;5;8;8;6;4;1;0;0;47;0;8;7;5;8;8;6;4;1;0;0;47;0;7;7;5;7;7;6;3;1;0;0;43;0;12;14;16;14;14;11;5;2;0;0;88;0;12;14;16;14;14;11;5;2;0;0;88;0;10;14;16;13;12;9;4;2;0;0;80;6;40 OTOMI V FAM OTO-MANGUE ;1;0;1;1;1;0;0;0;0;2;4;1;0;3;0;0;4;29/06/2012 03:15:16 p.m.
22DPB0045D;VICENTE SUAREZ;1;QUERETARO;004;CADEREYTA DE MONTES;0079;PORTEZUELO;CONOCIDO NUM. 0;;IN;205;97;76;24;30;;;;;;2011;;;;X;0;6;1;1;0;0;0;0;0;0;0;8;0;6;1;1;0;0;0;0;0;0;0;8;0;6;0;1;0;0;0;0;0;0;0;7;0;8;1;1;0;0;0;0;0;0;0;10;0;8;1;1;0;0;0;0;0;0;0;10;0;5;1;1;0;0;0;0;0;0;0;7;0;14;2;2;0;0;0;0;0;0;0;18;0;14;2;2;0;0;0;0;0;0;0;18;0;11;1;2;0;0;0;0;0;0;0;14;1;0;8;1;1;0;0;0;0;0;0;10;0;8;1;1;0;0;0;0;0;0;10;0;6;0;0;0;0;0;0;0;0;6;0;4;0;0;1;0;0;0;0;0;5;0;4;0;0;1;0;0;0;0;0;5;0;4;0;0;0;0;0;0;0;0;4;0;12;1;1;1;0;0;0;0;0;15;0;12;1;1;1;0;0;0;0;0;15;0;10;0;0;0;0;0;0;0;0;10;1;0;4;3;1;1;1;0;0;0;10;0;4;3;1;1;1;0;0;0;10;0;2;3;0;1;1;0;0;0;7;0;7;4;0;1;1;0;0;0;13;0;7;4;0;1;1;0;0;0;13;0;7;4;0;1;0;0;0;0;12;0;11;7;1;2;2;0;0;0;23;0;11;7;1;2;2;0;0;0;23;0;9;7;0;2;1;0;0;0;19;1;0;2;4;1;0;0;0;0;7;0;2;4;1;0;0;0;0;7;0;2;4;1;0;0;0;0;7;0;3;2;2;1;0;0;0;8;0;3;2;2;1;0;0;0;8;0;3;2;1;1;0;0;0;7;0;5;6;3;1;0;0;0;15;0;5;6;3;1;0;0;0;15;0;5;6;2;1;0;0;0;14;1;0;5;0;0;0;0;0;5;0;5;0;0;0;0;0;5;0;5;0;0;0;0;0;5;0;4;3;0;0;0;0;7;0;4;3;0;0;0;0;7;0;4;3;0;0;0;0;7;0;9;3;0;0;0;0;12;0;9;3;0;0;0;0;12;0;9;3;0;0;0;0;12;1;0;6;0;1;1;0;8;0;6;0;1;1;0;8;0;6;0;1;1;0;8;0;2;3;1;1;0;7;0;2;3;1;1;0;7;0;2;3;1;1;0;7;0;8;3;2;2;0;15;0;8;3;2;2;0;15;0;8;3;2;2;0;15;1;0;6;9;6;6;10;8;1;1;1;0;48;0;6;9;6;6;10;8;1;1;1;0;48;0;6;6;3;5;9;8;1;1;1;0;40;0;8;5;8;7;7;8;5;1;1;0;50;0;8;5;8;7;7;8;5;1;1;0;50;0;5;5;8;7;6;7;4;1;1;0;44;0;14;14;14;13;17;16;6;2;2;0;98;0;14;14;14;13;17;16;6;2;2;0;98;0;11;11;11;12;15;15;5;2;2;0;84;6;40 OTOMI V FAM OTO-MANGUE ;0;1;1;1;0;1;0;0;0;2;4;0;0;4;0;1;5;27/06/2012 08:10:17 p.m.
22DPB0046C;FRANCISCO I. MADERO;1;QUERETARO;004;CADEREYTA DE MONTES;0112;EL SOYATAL;CONOCIDO NUM. 0;;IN;208;97;76;24;30;;;;;;2011;;;;X;0;5;0;0;0;0;0;0;0;0;0;5;0;5;0;0;0;0;0;0;0;0;0;5;0;5;0;0;0;0;0;0;0;0;0;5;0;1;0;0;0;0;0;0;0;0;0;1;0;1;0;0;0;0;0;0;0;0;0;1;0;1;0;0;0;0;0;0;0;0;0;1;0;6;0;0;0;0;0;0;0;0;0;6;0;6;0;0;0;0;0;0;0;0;0;6;0;6;0;0;0;0;0;0;0;0;0;6;1;0;6;0;0;0;0;0;0;0;0;6;0;6;0;0;0;0;0;0;0;0;6;0;5;0;0;0;0;0;0;0;0;5;0;3;1;0;0;0;0;0;0;0;4;0;3;1;0;0;0;0;0;0;0;4;0;2;1;0;0;0;0;0;0;0;3;0;9;1;0;0;0;0;0;0;0;10;0;9;1;0;0;0;0;0;0;0;10;0;7;1;0;0;0;0;0;0;0;8;1;0;3;0;0;0;0;0;0;0;3;0;3;0;0;0;0;0;0;0;3;0;2;0;0;0;0;0;0;0;2;0;2;2;0;0;0;0;0;0;4;0;2;2;0;0;0;0;0;0;4;0;2;2;0;0;0;0;0;0;4;0;5;2;0;0;0;0;0;0;7;0;5;2;0;0;0;0;0;0;7;0;4;2;0;0;0;0;0;0;6;1;0;3;2;0;0;0;0;0;5;0;3;2;0;0;0;0;0;5;0;3;2;0;0;0;0;0;5;0;1;1;1;0;0;0;0;3;0;1;1;1;0;0;0;0;3;0;1;1;0;0;0;0;0;2;0;4;3;1;0;0;0;0;8;0;4;3;1;0;0;0;0;8;0;4;3;0;0;0;0;0;7;1;0;1;2;0;0;0;0;3;0;1;2;0;0;0;0;3;0;1;2;0;0;0;0;3;0;3;0;0;0;0;0;3;0;3;0;0;0;0;0;3;0;3;0;0;0;0;0;3;0;4;2;0;0;0;0;6;0;4;2;0;0;0;0;6;0;4;2;0;0;0;0;6;1;0;3;0;0;0;0;3;0;3;0;0;0;0;3;0;3;0;0;0;0;3;0;1;1;0;0;0;2;0;1;1;0;0;0;2;0;1;1;0;0;0;2;0;4;1;0;0;0;5;0;4;1;0;0;0;5;0;4;1;0;0;0;5;1;0;5;6;3;3;3;5;0;0;0;0;25;0;5;6;3;3;3;5;0;0;0;0;25;0;5;5;2;3;3;5;0;0;0;0;23;0;1;3;3;3;4;2;1;0;0;0;17;0;1;3;3;3;4;2;1;0;0;0;17;0;1;2;3;3;4;1;1;0;0;0;15;0;6;9;6;6;7;7;1;0;0;0;42;0;6;9;6;6;7;7;1;0;0;0;42;0;6;7;5;6;7;6;1;0;0;0;38;6;40 OTOMI V FAM OTO-MANGUE ;0;0;0;0;0;0;0;0;0;2;2;0;0;2;0;0;2;26/06/2012 08:48:14 p.m.
22DPB0047B;MELCHOR OCAMPO;1;QUERETARO;004;CADEREYTA DE MONTES;0076;LA PASTILLA;CONOCIDO NUM. 0;;IN;203;97;76;24;30;;;;;;2011;;;;X;0;0;0;0;0;0;0;0;0;0;0;0;0;0;0;0;0;0;0;0;0;0;0;0;0;0;0;0;0;0;0;0;0;0;0;0;0;4;0;0;0;0;0;0;0;0;0;4;0;4;0;0;0;0;0;0;0;0;0;4;0;4;0;0;0;0;0;0;0;0;0;4;0;4;0;0;0;0;0;0;0;0;0;4;0;4;0;0;0;0;0;0;0;0;0;4;0;4;0;0;0;0;0;0;0;0;0;4;1;0;2;0;1;0;0;0;0;0;0;3;0;2;0;1;0;0;0;0;0;0;3;0;2;0;0;0;0;0;0;0;0;2;0;4;0;0;0;0;0;0;0;0;4;0;4;0;0;0;0;0;0;0;0;4;0;4;0;0;0;0;0;0;0;0;4;0;6;0;1;0;0;0;0;0;0;7;0;6;0;1;0;0;0;0;0;0;7;0;6;0;0;0;0;0;0;0;0;6;1;0;1;1;0;0;0;0;0;0;2;0;1;1;0;0;0;0;0;0;2;0;1;1;0;0;0;0;0;0;2;0;1;0;0;1;1;0;0;0;3;0;1;0;0;1;1;0;0;0;3;0;1;0;0;1;1;0;0;0;3;0;2;1;0;1;1;0;0;0;5;0;2;1;0;1;1;0;0;0;5;0;2;1;0;1;1;0;0;0;5;1;0;0;2;0;0;0;0;0;2;0;0;2;0;0;0;0;0;2;0;0;2;0;0;0;0;0;2;0;3;0;1;0;0;0;0;4;0;3;0;1;0;0;0;0;4;0;3;0;1;0;0;0;0;4;0;3;2;1;0;0;0;0;6;0;3;2;1;0;0;0;0;6;0;3;2;1;0;0;0;0;6;1;0;2;1;0;0;0;0;3;0;2;1;0;0;0;0;3;0;2;1;0;0;0;0;3;0;1;0;0;0;0;0;1;0;1;0;0;0;0;0;1;0;1;0;0;0;0;0;1;0;3;1;0;0;0;0;4;0;3;1;0;0;0;0;4;0;3;1;0;0;0;0;4;1;0;1;0;1;2;0;4;0;1;0;1;2;0;4;0;1;0;1;2;0;4;0;1;2;0;0;0;3;0;1;2;0;0;0;3;0;1;2;0;0;0;3;0;2;2;1;2;0;7;0;2;2;1;2;0;7;0;2;2;1;2;0;7;1;0;0;2;1;2;4;2;0;1;2;0;14;0;0;2;1;2;4;2;0;1;2;0;14;0;0;2;1;1;4;2;0;1;2;0;13;0;4;4;1;3;1;3;3;0;0;0;19;0;4;4;1;3;1;3;3;0;0;0;19;0;4;4;1;3;1;3;3;0;0;0;19;0;4;6;2;5;5;5;3;1;2;0;33;0;4;6;2;5;5;5;3;1;2;0;33;0;4;6;2;4;5;5;3;1;2;0;32;6;40 OTOMI V FAM OTO-MANGUE ;0;1;1;0;0;0;0;0;0;2;2;0;0;2;0;0;2;29/06/2012 08:55:35 p.m.
22DPB0049Z;BENITO JUAREZ;1;QUERETARO;004;CADEREYTA DE MONTES;0125;LAS VIGUITAS;CONOCIDO NUM. 0;;IN;203;97;76;24;30;;;;;;2011;;;;X;0;0;0;0;0;0;0;0;0;0;0;0;0;0;0;0;0;0;0;0;0;0;0;0;0;0;0;0;0;0;0;0;0;0;0;0;0;2;0;0;0;0;0;0;0;0;0;2;0;2;0;0;0;0;0;0;0;0;0;2;0;2;0;0;0;0;0;0;0;0;0;2;0;2;0;0;0;0;0;0;0;0;0;2;0;2;0;0;0;0;0;0;0;0;0;2;0;2;0;0;0;0;0;0;0;0;0;2;1;0;1;2;0;0;0;0;0;0;0;3;0;1;2;0;0;0;0;0;0;0;3;0;1;2;0;0;0;0;0;0;0;3;0;6;0;0;0;0;0;0;0;0;6;0;6;0;0;0;0;0;0;0;0;6;0;6;0;0;0;0;0;0;0;0;6;0;7;2;0;0;0;0;0;0;0;9;0;7;2;0;0;0;0;0;0;0;9;0;7;2;0;0;0;0;0;0;0;9;1;0;3;1;0;0;0;0;0;0;4;0;3;1;0;0;0;0;0;0;4;0;3;1;0;0;0;0;0;0;4;0;3;0;0;0;0;0;0;0;3;0;3;0;0;0;0;0;0;0;3;0;3;0;0;0;0;0;0;0;3;0;6;1;0;0;0;0;0;0;7;0;6;1;0;0;0;0;0;0;7;0;6;1;0;0;0;0;0;0;7;1;2;0;1;0;1;0;0;0;4;2;0;1;0;1;0;0;0;4;2;0;1;0;1;0;0;0;4;0;3;1;1;0;0;0;0;5;0;3;1;1;0;0;0;0;5;0;3;1;1;0;0;0;0;5;2;3;2;1;1;0;0;0;9;2;3;2;1;1;0;0;0;9;2;3;2;1;1;0;0;0;9;1;0;2;0;0;1;0;0;3;0;2;0;0;1;0;0;3;0;2;0;0;1;0;0;3;0;3;0;0;0;0;0;3;0;3;0;0;0;0;0;3;0;3;0;0;0;0;0;3;0;5;0;0;1;0;0;6;0;5;0;0;1;0;0;6;0;5;0;0;1;0;0;6;1;0;3;1;0;0;0;4;0;3;1;0;0;0;4;0;3;1;0;0;0;4;0;3;2;0;0;0;5;0;3;2;0;0;0;5;0;3;2;0;0;0;5;0;6;3;0;0;0;9;0;6;3;0;0;0;9;0;6;3;0;0;0;9;1;0;0;1;7;1;3;3;2;1;0;0;18;0;0;1;7;1;3;3;2;1;0;0;18;0;0;1;7;1;3;3;2;1;0;0;18;0;2;6;3;3;4;4;2;0;0;0;24;0;2;6;3;3;4;4;2;0;0;0;24;0;2;6;3;3;4;4;2;0;0;0;24;0;2;7;10;4;7;7;4;1;0;0;42;0;2;7;10;4;7;7;4;1;0;0;42;0;2;7;10;4;7;7;4;1;0;0;42;6;40 OTOMI V FAM OTO-MANGUE ;0;2;2;0;0;0;0;0;0;2;2;1;0;1;0;0;2;29/06/2012 01:18:28 p.m.
22DPB0050P;GENERAL MARIANO ESCOBEDO;1;QUERETARO;004;CADEREYTA DE MONTES;0152;BOYECITO;CONOCIDO NUM. 0;;IN;205;97;76;24;30;;;;;;2011;;;;X;2;3;2;0;0;0;0;0;0;0;0;7;2;3;2;0;0;0;0;0;0;0;0;7;2;2;0;0;0;0;0;0;0;0;0;4;1;2;0;0;0;0;0;0;0;0;0;3;1;2;0;0;0;0;0;0;0;0;0;3;0;2;0;0;0;0;0;0;0;0;0;2;3;5;2;0;0;0;0;0;0;0;0;10;3;5;2;0;0;0;0;0;0;0;0;10;2;4;0;0;0;0;0;0;0;0;0;6;1;3;3;1;0;0;0;0;0;0;0;7;3;3;1;0;0;0;0;0;0;0;7;2;3;1;0;0;0;0;0;0;0;6;2;7;0;0;0;0;0;0;0;0;9;2;7;0;0;0;0;0;0;0;0;9;1;6;0;0;0;0;0;0;0;0;7;5;10;1;0;0;0;0;0;0;0;16;5;10;1;0;0;0;0;0;0;0;16;3;9;1;0;0;0;0;0;0;0;13;1;2;6;2;1;0;0;0;0;0;11;2;6;2;1;0;0;0;0;0;11;2;5;1;0;0;0;0;0;0;8;3;2;1;1;0;0;0;0;0;7;3;2;1;1;0;0;0;0;0;7;3;2;1;1;0;0;0;0;0;7;5;8;3;2;0;0;0;0;0;18;5;8;3;2;0;0;0;0;0;18;5;7;2;1;0;0;0;0;0;15;1;0;7;1;1;1;0;0;0;10;0;7;1;1;1;0;0;0;10;0;7;1;1;1;0;0;0;10;2;5;1;1;0;0;0;0;9;2;5;1;1;0;0;0;0;9;2;4;1;1;0;0;0;0;8;2;12;2;2;1;0;0;0;19;2;12;2;2;1;0;0;0;19;2;11;2;2;1;0;0;0;18;1;0;6;2;1;0;0;0;9;0;6;2;1;0;0;0;9;0;6;2;1;0;0;0;9;2;6;1;0;0;0;0;9;2;6;1;0;0;0;0;9;2;6;1;0;0;0;0;9;2;12;3;1;0;0;0;18;2;12;3;1;0;0;0;18;2;12;3;1;0;0;0;18;1;0;3;0;1;0;0;4;0;3;0;1;0;0;4;0;3;0;1;0;0;4;0;4;1;0;0;0;5;0;4;1;0;0;0;5;0;4;1;0;0;0;5;0;7;1;1;0;0;9;0;7;1;1;0;0;9;0;7;1;1;0;0;9;1;2;6;7;7;9;8;6;2;1;0;0;48;2;6;7;7;9;8;6;2;1;0;0;48;2;4;5;6;8;7;6;2;1;0;0;41;1;4;10;4;8;8;6;1;0;0;0;42;1;4;10;4;8;8;6;1;0;0;0;42;0;3;9;4;7;8;6;1;0;0;0;38;3;10;17;11;17;16;12;3;1;0;0;90;3;10;17;11;17;16;12;3;1;0;0;90;2;7;14;10;15;15;12;3;1;0;0;79;6;40 OTOMI V FAM OTO-MANGUE ;0;1;1;0;0;0;1;1;0;2;4;0;1;4;0;1;6;27/06/2012 07:46:05 p.m.
22DPB0051O;JUSTO SIERRA;1;QUERETARO;004;CADEREYTA DE MONTES;0130;YONTHE;CONOCIDO NUM. 0;;IN;205;97;76;24;30;;;;;;2011;;;;X;0;6;0;0;0;0;0;0;0;0;0;6;0;6;0;0;0;0;0;0;0;0;0;6;0;4;0;0;0;0;0;0;0;0;0;4;0;3;0;0;0;0;0;0;0;0;0;3;0;3;0;0;0;0;0;0;0;0;0;3;0;3;0;0;0;0;0;0;0;0;0;3;0;9;0;0;0;0;0;0;0;0;0;9;0;9;0;0;0;0;0;0;0;0;0;9;0;7;0;0;0;0;0;0;0;0;0;7;1;2;4;0;0;0;0;0;0;0;0;6;2;4;0;0;0;0;0;0;0;0;6;2;4;0;0;0;0;0;0;0;0;6;1;2;0;0;1;0;0;0;0;0;4;1;2;0;0;1;0;0;0;0;0;4;1;2;0;0;1;0;0;0;0;0;4;3;6;0;0;1;0;0;0;0;0;10;3;6;0;0;1;0;0;0;0;0;10;3;6;0;0;1;0;0;0;0;0;10;1;0;4;0;2;0;0;0;0;0;6;0;4;0;2;0;0;0;0;0;6;0;4;0;1;0;0;0;0;0;5;1;3;2;1;0;0;0;0;0;7;1;3;2;1;0;0;0;0;0;7;1;3;2;1;0;0;0;0;0;7;1;7;2;3;0;0;0;0;0;13;1;7;2;3;0;0;0;0;0;13;1;7;2;2;0;0;0;0;0;12;1;0;1;3;1;2;0;0;0;7;0;1;3;1;2;0;0;0;7;0;1;3;1;2;0;0;0;7;0;4;0;0;0;0;0;0;4;0;4;0;0;0;0;0;0;4;0;4;0;0;0;0;0;0;4;0;5;3;1;2;0;0;0;11;0;5;3;1;2;0;0;0;11;0;5;3;1;2;0;0;0;11;1;1;0;1;2;0;1;1;6;1;0;1;2;0;1;1;6;1;0;1;2;0;1;1;6;0;6;1;0;0;0;0;7;0;6;1;0;0;0;0;7;0;6;1;0;0;0;0;7;1;6;2;2;0;1;1;13;1;6;2;2;0;1;1;13;1;6;2;2;0;1;1;13;1;0;1;4;2;1;0;8;0;1;4;2;1;0;8;0;1;4;2;1;0;8;0;1;0;0;0;0;1;0;1;0;0;0;0;1;0;1;0;0;0;0;1;0;2;4;2;1;0;9;0;2;4;2;1;0;9;0;2;4;2;1;0;9;1;0;8;4;4;2;5;3;8;2;2;1;39;0;8;4;4;2;5;3;8;2;2;1;39;0;6;4;4;2;4;3;8;2;2;1;36;0;4;3;3;6;8;2;0;0;0;0;26;0;4;3;3;6;8;2;0;0;0;0;26;0;4;3;3;6;8;2;0;0;0;0;26;0;12;7;7;8;13;5;8;2;2;1;65;0;12;7;7;8;13;5;8;2;2;1;65;0;10;7;7;8;12;5;8;2;2;1;62;6;40 OTOMI V FAM OTO-MANGUE ;0;1;1;0;0;0;0;0;0;3;3;1;0;2;0;0;3;26/06/2012 01:11:45 p.m.
22DPB0052N;EMILIANO ZAPATA;1;QUERETARO;004;CADEREYTA DE MONTES;0068;LA MORA;CONOCIDO NUM. 0;;IN;206;97;76;24;30;;;;;;2011;;;;X;0;4;0;0;0;0;0;0;0;0;0;4;0;4;0;0;0;0;0;0;0;0;0;4;0;4;0;0;0;0;0;0;0;0;0;4;0;5;0;0;0;0;0;0;0;0;0;5;0;5;0;0;0;0;0;0;0;0;0;5;0;5;0;0;0;0;0;0;0;0;0;5;0;9;0;0;0;0;0;0;0;0;0;9;0;9;0;0;0;0;0;0;0;0;0;9;0;9;0;0;0;0;0;0;0;0;0;9;1;0;6;0;0;0;0;0;0;0;0;6;0;6;0;0;0;0;0;0;0;0;6;0;6;0;0;0;0;0;0;0;0;6;0;5;0;0;0;0;0;0;0;0;5;0;5;0;0;0;0;0;0;0;0;5;0;5;0;0;0;0;0;0;0;0;5;0;11;0;0;0;0;0;0;0;0;11;0;11;0;0;0;0;0;0;0;0;11;0;11;0;0;0;0;0;0;0;0;11;1;0;4;0;0;0;0;0;0;0;4;0;4;0;0;0;0;0;0;0;4;0;4;0;0;0;0;0;0;0;4;0;3;0;0;0;0;0;0;0;3;0;3;0;0;0;0;0;0;0;3;0;3;0;0;0;0;0;0;0;3;0;7;0;0;0;0;0;0;0;7;0;7;0;0;0;0;0;0;0;7;0;7;0;0;0;0;0;0;0;7;1;0;6;0;0;0;0;0;0;6;0;6;0;0;0;0;0;0;6;0;6;0;0;0;0;0;0;6;0;3;0;0;0;0;0;0;3;0;3;0;0;0;0;0;0;3;0;3;0;0;0;0;0;0;3;0;9;0;0;0;0;0;0;9;0;9;0;0;0;0;0;0;9;0;9;0;0;0;0;0;0;9;1;0;2;0;2;0;0;0;4;0;2;0;2;0;0;0;4;0;2;0;2;0;0;0;4;0;1;0;2;0;0;0;3;0;1;0;2;0;0;0;3;0;1;0;2;0;0;0;3;0;3;0;4;0;0;0;7;0;3;0;4;0;0;0;7;0;3;0;4;0;0;0;7;1;0;2;2;1;0;0;5;0;2;2;1;0;0;5;0;2;2;1;0;0;5;0;2;4;0;0;0;6;0;2;4;0;0;0;6;0;2;4;0;0;0;6;0;4;6;1;0;0;11;0;4;6;1;0;0;11;0;4;6;1;0;0;11;1;0;4;6;4;6;2;2;4;1;0;0;29;0;4;6;4;6;2;2;4;1;0;0;29;0;4;6;4;6;2;2;4;1;0;0;29;0;5;5;3;3;1;2;6;0;0;0;25;0;5;5;3;3;1;2;6;0;0;0;25;0;5;5;3;3;1;2;6;0;0;0;25;0;9;11;7;9;3;4;10;1;0;0;54;0;9;11;7;9;3;4;10;1;0;0;54;0;9;11;7;9;3;4;10;1;0;0;54;6;40 OTOMI V FAM OTO-MANGUE ;0;0;0;0;0;0;0;0;0;2;2;0;0;2;0;0;2;29/06/2012 11:43:12 a.m.
22DPB0053M;GENERAL FRANCISCO VILLA;1;QUERETARO;004;CADEREYTA DE MONTES;0115;EL TERRERO;CONOCIDO NUM. 0;;IN;205;97;76;24;30;;;;;;2011;;;;X;3;3;0;0;0;0;0;0;0;0;0;6;3;3;0;0;0;0;0;0;0;0;0;6;3;3;0;0;0;0;0;0;0;0;0;6;0;5;0;0;1;0;0;0;0;0;0;6;0;5;0;0;1;0;0;0;0;0;0;6;0;5;0;0;1;0;0;0;0;0;0;6;3;8;0;0;1;0;0;0;0;0;0;12;3;8;0;0;1;0;0;0;0;0;0;12;3;8;0;0;1;0;0;0;0;0;0;12;1;4;2;0;0;0;1;0;0;0;0;7;4;2;0;0;0;1;0;0;0;0;7;4;2;0;0;0;0;0;0;0;0;6;1;3;1;0;1;0;0;0;0;0;6;1;3;1;0;1;0;0;0;0;0;6;1;1;0;0;1;0;0;0;0;0;3;5;5;1;0;1;1;0;0;0;0;13;5;5;1;0;1;1;0;0;0;0;13;5;3;0;0;1;0;0;0;0;0;9;1;4;2;0;1;0;0;0;0;0;7;4;2;0;1;0;0;0;0;0;7;4;2;0;1;0;0;0;0;0;7;1;2;0;0;0;0;0;0;0;3;1;2;0;0;0;0;0;0;0;3;1;1;0;0;0;0;0;0;0;2;5;4;0;1;0;0;0;0;0;10;5;4;0;1;0;0;0;0;0;10;5;3;0;1;0;0;0;0;0;9;1;2;1;2;1;0;0;0;0;6;2;1;2;1;0;0;0;0;6;2;1;2;1;0;0;0;0;6;1;2;2;2;0;0;0;0;7;1;2;2;2;0;0;0;0;7;1;2;2;2;0;0;0;0;7;3;3;4;3;0;0;0;0;13;3;3;4;3;0;0;0;0;13;3;3;4;3;0;0;0;0;13;1;2;6;0;1;1;0;0;10;2;6;0;1;1;0;0;10;1;5;0;1;0;0;0;7;0;3;0;0;0;0;0;3;0;3;0;0;0;0;0;3;0;3;0;0;0;0;0;3;2;9;0;1;1;0;0;13;2;9;0;1;1;0;0;13;1;8;0;1;0;0;0;10;1;0;3;0;0;0;0;3;0;3;0;0;0;0;3;0;3;0;0;0;0;3;0;6;1;0;0;0;7;0;6;1;0;0;0;7;0;5;1;0;0;0;6;0;9;1;0;0;0;10;0;9;1;0;0;0;10;0;8;1;0;0;0;9;1;3;7;6;4;3;9;5;1;1;0;0;39;3;7;6;4;3;9;5;1;1;0;0;39;3;7;6;4;2;8;4;1;0;0;0;35;0;6;4;4;3;6;8;1;0;0;0;32;0;6;4;4;3;6;8;1;0;0;0;32;0;6;2;2;3;6;7;1;0;0;0;27;3;13;10;8;6;15;13;2;1;0;0;71;3;13;10;8;6;15;13;2;1;0;0;71;3;13;8;6;5;14;11;2;0;0;0;62;6;40 OTOMI V FAM OTO-MANGUE ;0;0;0;1;0;0;1;0;0;2;4;1;0;3;0;0;4;27/06/2012 08:36:53 p.m.
22DPB0055K;GUADALUPE VICTORIA;1;QUERETARO;007;EZEQUIEL MONTES;0029;LOS RAMIREZ;CONOCIDO NUM. 0;;IN;202;97;76;24;30;;;;;;2011;;;;X;1;1;0;0;0;0;0;0;0;0;0;2;1;1;0;0;0;0;0;0;0;0;0;2;1;1;0;0;0;0;0;0;0;0;0;2;1;0;0;0;0;0;0;0;0;0;0;1;1;0;0;0;0;0;0;0;0;0;0;1;1;0;0;0;0;0;0;0;0;0;0;1;2;1;0;0;0;0;0;0;0;0;0;3;2;1;0;0;0;0;0;0;0;0;0;3;2;1;0;0;0;0;0;0;0;0;0;3;1;0;1;1;0;0;0;0;0;0;0;2;0;1;1;0;0;0;0;0;0;0;2;0;1;1;0;0;0;0;0;0;0;2;1;1;0;0;0;0;0;0;0;0;2;1;1;0;0;0;0;0;0;0;0;2;1;1;0;0;0;0;0;0;0;0;2;1;2;1;0;0;0;0;0;0;0;4;1;2;1;0;0;0;0;0;0;0;4;1;2;1;0;0;0;0;0;0;0;4;1;0;2;1;0;0;0;0;0;0;3;0;2;1;0;0;0;0;0;0;3;0;2;1;0;0;0;0;0;0;3;0;1;0;0;0;0;0;0;0;1;0;1;0;0;0;0;0;0;0;1;0;1;0;0;0;0;0;0;0;1;0;3;1;0;0;0;0;0;0;4;0;3;1;0;0;0;0;0;0;4;0;3;1;0;0;0;0;0;0;4;1;0;1;0;1;0;0;0;0;2;0;1;0;1;0;0;0;0;2;0;1;0;1;0;0;0;0;2;0;1;0;0;0;0;0;0;1;0;1;0;0;0;0;0;0;1;0;1;0;0;0;0;0;0;1;0;2;0;1;0;0;0;0;3;0;2;0;1;0;0;0;0;3;0;2;0;1;0;0;0;0;3;1;2;3;0;1;0;0;0;6;2;3;0;1;0;0;0;6;2;3;0;1;0;0;0;6;0;0;0;0;0;0;0;0;0;0;0;0;0;0;0;0;0;0;0;0;0;0;0;0;2;3;0;1;0;0;0;6;2;3;0;1;0;0;0;6;2;3;0;1;0;0;0;6;1;0;3;2;0;0;0;5;0;3;2;0;0;0;5;0;3;2;0;0;0;5;0;2;0;0;0;0;2;0;2;0;0;0;0;2;0;2;0;0;0;0;2;0;5;2;0;0;0;7;0;5;2;0;0;0;7;0;5;2;0;0;0;7;1;1;1;1;3;4;3;4;3;0;0;0;20;1;1;1;3;4;3;4;3;0;0;0;20;1;1;1;3;4;3;4;3;0;0;0;20;1;1;1;1;1;0;2;0;0;0;0;7;1;1;1;1;1;0;2;0;0;0;0;7;1;1;1;1;1;0;2;0;0;0;0;7;2;2;2;4;5;3;6;3;0;0;0;27;2;2;2;4;5;3;6;3;0;0;0;27;2;2;2;4;5;3;6;3;0;0;0;27;6;40 OTOMI V FAM OTO-MANGUE ;0;0;0;0;0;0;0;0;0;1;1;0;0;0;1;0;1;27/06/2012 12:08:38 p.m.
22DPB0056J;LIC. ADOLFO LOPEZ MATEOS;1;QUERETARO;007;EZEQUIEL MONTES;0033;SAN ANTONIO;CONOCIDO NUM. 0;;IN;202;97;76;24;30;;;;;;2011;;;;X;0;1;1;0;0;0;0;0;0;0;0;2;0;1;1;0;0;0;0;0;0;0;0;2;0;1;1;0;0;0;0;0;0;0;0;2;0;1;0;0;0;0;0;0;0;0;0;1;0;1;0;0;0;0;0;0;0;0;0;1;0;1;0;0;0;0;0;0;0;0;0;1;0;2;1;0;0;0;0;0;0;0;0;3;0;2;1;0;0;0;0;0;0;0;0;3;0;2;1;0;0;0;0;0;0;0;0;3;1;0;0;0;0;0;0;0;0;0;0;0;0;0;0;0;0;0;0;0;0;0;0;0;0;0;0;0;0;0;0;0;0;0;0;3;1;0;0;0;0;0;0;0;4;0;3;1;0;0;0;0;0;0;0;4;0;3;1;0;0;0;0;0;0;0;4;0;3;1;0;0;0;0;0;0;0;4;0;3;1;0;0;0;0;0;0;0;4;0;3;1;0;0;0;0;0;0;0;4;1;0;3;0;1;0;0;0;0;0;4;0;2;0;1;0;0;0;0;0;3;0;2;0;1;0;0;0;0;0;3;0;2;0;0;1;0;0;0;0;3;0;2;0;0;1;0;0;0;0;3;0;2;0;0;1;0;0;0;0;3;0;5;0;1;1;0;0;0;0;7;0;4;0;1;1;0;0;0;0;6;0;4;0;1;1;0;0;0;0;6;1;0;2;0;0;0;0;0;0;2;0;2;0;0;0;0;0;0;2;0;2;0;0;0;0;0;0;2;0;2;2;1;0;0;0;0;5;0;2;2;1;0;0;0;0;5;0;2;2;1;0;0;0;0;5;0;4;2;1;0;0;0;0;7;0;4;2;1;0;0;0;0;7;0;4;2;1;0;0;0;0;7;1;0;3;1;0;0;0;0;4;0;2;1;0;0;0;0;3;0;2;1;0;0;0;0;3;0;2;0;0;0;0;0;2;0;2;0;0;0;0;0;2;0;2;0;0;0;0;0;2;0;5;1;0;0;0;0;6;0;4;1;0;0;0;0;5;0;4;1;0;0;0;0;5;1;0;4;3;0;0;0;7;0;4;3;0;0;0;7;0;4;3;0;0;0;7;0;2;0;0;0;0;2;0;2;0;0;0;0;2;0;2;0;0;0;0;2;0;6;3;0;0;0;9;0;6;3;0;0;0;9;0;6;3;0;0;0;9;1;0;1;1;3;2;4;5;3;0;0;0;19;0;1;1;2;2;3;5;3;0;0;0;17;0;1;1;2;2;3;5;3;0;0;0;17;0;1;3;3;2;4;4;0;0;0;0;17;0;1;3;3;2;4;4;0;0;0;0;17;0;1;3;3;2;4;4;0;0;0;0;17;0;2;4;6;4;8;9;3;0;0;0;36;0;2;4;5;4;7;9;3;0;0;0;34;0;2;4;5;4;7;9;3;0;0;0;34;6;40 OTOMI V FAM OTO-MANGUE ;0;0;0;0;0;0;0;0;0;2;2;1;0;1;0;0;2;25/06/2012 12:46:28 p.m.
22DPB0057I;HEROES DE LA INDEPENDENCIA;1;QUERETARO;001;AMEALCO DE BONFIL;0125;LLANO LARGO;CONOCIDO NUM. 0;;IN;102;22;74;24;30;;;;;;2011;;;;X;0;9;4;0;0;0;0;0;0;0;0;13;0;9;4;0;0;0;0;0;0;0;0;13;0;9;4;0;0;0;0;0;0;0;0;13;0;12;1;0;0;0;0;0;0;0;0;13;0;12;1;0;0;0;0;0;0;0;0;13;0;12;1;0;0;0;0;0;0;0;0;13;0;21;5;0;0;0;0;0;0;0;0;26;0;21;5;0;0;0;0;0;0;0;0;26;0;21;5;0;0;0;0;0;0;0;0;26;1;4;4;1;1;2;0;0;0;0;0;12;4;4;1;1;2;0;0;0;0;0;12;4;4;1;1;2;0;0;0;0;0;12;0;8;2;0;0;0;0;0;0;0;10;0;8;2;0;0;0;0;0;0;0;10;0;8;2;0;0;0;0;0;0;0;10;4;12;3;1;2;0;0;0;0;0;22;4;12;3;1;2;0;0;0;0;0;22;4;12;3;1;2;0;0;0;0;0;22;1;1;11;3;0;1;0;0;0;0;16;1;11;3;0;1;0;0;0;0;16;1;11;3;0;1;0;0;0;0;16;2;8;3;0;0;0;0;0;0;13;2;8;3;0;0;0;0;0;0;13;2;8;3;0;0;0;0;0;0;13;3;19;6;0;1;0;0;0;0;29;3;19;6;0;1;0;0;0;0;29;3;19;6;0;1;0;0;0;0;29;1;0;2;6;0;0;0;0;0;8;0;2;6;0;0;0;0;0;8;0;2;6;0;0;0;0;0;8;0;6;11;0;0;0;0;0;17;0;6;11;0;0;0;0;0;17;0;6;11;0;0;0;0;0;17;0;8;17;0;0;0;0;0;25;0;8;17;0;0;0;0;0;25;0;8;17;0;0;0;0;0;25;1;2;5;5;1;1;0;0;14;2;5;5;1;1;0;0;14;2;5;5;1;1;0;0;14;1;13;1;0;0;0;0;15;1;13;1;0;0;0;0;15;1;13;1;0;0;0;0;15;3;18;6;1;1;0;0;29;3;18;6;1;1;0;0;29;3;18;6;1;1;0;0;29;1;0;0;0;0;0;0;0;0;0;0;0;0;0;0;0;0;0;0;0;0;0;0;0;0;0;0;0;0;0;0;0;0;0;0;0;0;0;0;0;0;0;0;0;0;0;0;0;0;0;0;0;0;0;0;0;0;0;0;0;0;0;0;0;0;0;13;9;12;8;13;6;1;1;0;0;63;0;13;9;12;8;13;6;1;1;0;0;63;0;13;9;12;8;13;6;1;1;0;0;63;0;12;11;10;10;24;1;0;0;0;0;68;0;12;11;10;10;24;1;0;0;0;0;68;0;12;11;10;10;24;1;0;0;0;0;68;0;25;20;22;18;37;7;1;1;0;0;131;0;25;20;22;18;37;7;1;1;0;0;131;0;25;20;22;18;37;7;1;1;0;0;131;5;12 CHONTAL DE OAXACA X FAM CH-O;0;0;0;1;1;1;1;1;0;0;5;1;0;0;4;0;5;26/06/2012 08:36:42 p.m.
22DPB0058H;LIC. ADOLFO LOPEZ MATEOS;1;QUERETARO;007;EZEQUIEL MONTES;0004;EL BONDOTAL;NORADINO RUBIO ORTIZ S/N NUM. 0;;IN;202;97;76;24;30;;;;;;2011;;;;X;0;3;0;0;0;0;0;0;0;0;0;3;0;3;0;0;0;0;0;0;0;0;0;3;0;2;0;0;0;0;0;0;0;0;0;2;0;2;0;0;0;0;0;0;0;0;0;2;0;2;0;0;0;0;0;0;0;0;0;2;0;2;0;0;0;0;0;0;0;0;0;2;0;5;0;0;0;0;0;0;0;0;0;5;0;5;0;0;0;0;0;0;0;0;0;5;0;4;0;0;0;0;0;0;0;0;0;4;1;0;9;0;0;0;0;0;0;0;0;9;0;9;0;0;0;0;0;0;0;0;9;0;7;0;0;0;0;0;0;0;0;7;0;3;0;0;0;0;0;0;0;0;3;0;3;0;0;0;0;0;0;0;0;3;0;3;0;0;0;0;0;0;0;0;3;0;12;0;0;0;0;0;0;0;0;12;0;12;0;0;0;0;0;0;0;0;12;0;10;0;0;0;0;0;0;0;0;10;1;0;2;0;0;0;0;0;0;0;2;0;2;0;0;0;0;0;0;0;2;0;2;0;0;0;0;0;0;0;2;0;3;0;0;0;0;0;0;0;3;0;3;0;0;0;0;0;0;0;3;0;3;0;0;0;0;0;0;0;3;0;5;0;0;0;0;0;0;0;5;0;5;0;0;0;0;0;0;0;5;0;5;0;0;0;0;0;0;0;5;1;0;2;1;0;0;0;0;0;3;0;2;1;0;0;0;0;0;3;0;2;1;0;0;0;0;0;3;0;3;0;0;0;0;0;0;3;0;3;0;0;0;0;0;0;3;0;3;0;0;0;0;0;0;3;0;5;1;0;0;0;0;0;6;0;5;1;0;0;0;0;0;6;0;5;1;0;0;0;0;0;6;1;0;4;0;0;0;0;0;4;0;4;0;0;0;0;0;4;0;4;0;0;0;0;0;4;0;0;0;1;0;0;0;1;0;0;0;1;0;0;0;1;0;0;0;1;0;0;0;1;0;4;0;1;0;0;0;5;0;4;0;1;0;0;0;5;0;4;0;1;0;0;0;5;1;0;4;2;0;0;0;6;0;4;2;0;0;0;6;0;4;2;0;0;0;6;0;2;0;0;0;0;2;0;2;0;0;0;0;2;0;2;0;0;0;0;2;0;6;2;0;0;0;8;0;6;2;0;0;0;8;0;6;2;0;0;0;8;1;0;3;9;2;2;5;4;2;0;0;0;27;0;3;9;2;2;5;4;2;0;0;0;27;0;2;7;2;2;5;4;2;0;0;0;24;0;2;3;3;3;0;2;1;0;0;0;14;0;2;3;3;3;0;2;1;0;0;0;14;0;2;3;3;3;0;2;1;0;0;0;14;0;5;12;5;5;5;6;3;0;0;0;41;0;5;12;5;5;5;6;3;0;0;0;41;0;4;10;5;5;5;6;3;0;0;0;38;6;40 OTOMI V FAM OTO-MANGUE ;0;0;0;0;0;0;0;0;0;2;2;0;0;2;0;0;2;26/06/2012 05:35:29 p.m.
22DPB0060W;VENUSTIANO CARRANZA;1;QUERETARO;018;TOLIMAN;0027;MAGUEY MANSO;CONOCIDO NUM. 0;;IN;201;97;76;24;30;;;;;;2011;;;;X;2;7;0;0;0;0;0;0;0;0;0;9;2;7;0;0;0;0;0;0;0;0;0;9;2;7;0;0;0;0;0;0;0;0;0;9;2;1;0;0;0;0;0;0;0;0;0;3;2;1;0;0;0;0;0;0;0;0;0;3;2;1;0;0;0;0;0;0;0;0;0;3;4;8;0;0;0;0;0;0;0;0;0;12;4;8;0;0;0;0;0;0;0;0;0;12;4;8;0;0;0;0;0;0;0;0;0;12;1;1;2;0;0;0;0;0;0;0;0;3;1;2;0;0;0;0;0;0;0;0;3;1;2;0;0;0;0;0;0;0;0;3;1;2;0;0;0;0;0;0;0;0;3;1;2;0;0;0;0;0;0;0;0;3;1;2;0;0;0;0;0;0;0;0;3;2;4;0;0;0;0;0;0;0;0;6;2;4;0;0;0;0;0;0;0;0;6;2;4;0;0;0;0;0;0;0;0;6;1;0;2;0;0;0;0;0;0;0;2;0;2;0;0;0;0;0;0;0;2;0;2;0;0;0;0;0;0;0;2;0;4;0;0;0;0;0;0;0;4;0;4;0;0;0;0;0;0;0;4;0;4;0;0;0;0;0;0;0;4;0;6;0;0;0;0;0;0;0;6;0;6;0;0;0;0;0;0;0;6;0;6;0;0;0;0;0;0;0;6;1;0;4;0;0;0;0;0;0;4;0;4;0;0;0;0;0;0;4;0;4;0;0;0;0;0;0;4;0;2;0;0;0;0;0;0;2;0;2;0;0;0;0;0;0;2;0;2;0;0;0;0;0;0;2;0;6;0;0;0;0;0;0;6;0;6;0;0;0;0;0;0;6;0;6;0;0;0;0;0;0;6;1;1;7;0;0;0;0;0;8;1;7;0;0;0;0;0;8;1;7;0;0;0;0;0;8;0;1;0;0;0;0;0;1;0;1;0;0;0;0;0;1;0;1;0;0;0;0;0;1;1;8;0;0;0;0;0;9;1;8;0;0;0;0;0;9;1;8;0;0;0;0;0;9;1;0;4;0;0;0;0;4;0;4;0;0;0;0;4;0;4;0;0;0;0;4;0;5;1;0;0;0;6;0;5;1;0;0;0;6;0;5;1;0;0;0;6;0;9;1;0;0;0;10;0;9;1;0;0;0;10;0;9;1;0;0;0;10;1;2;8;2;2;5;7;4;0;0;0;0;30;2;8;2;2;5;7;4;0;0;0;0;30;2;8;2;2;5;7;4;0;0;0;0;30;2;2;2;4;2;1;5;1;0;0;0;19;2;2;2;4;2;1;5;1;0;0;0;19;2;2;2;4;2;1;5;1;0;0;0;19;4;10;4;6;7;8;9;1;0;0;0;49;4;10;4;6;7;8;9;1;0;0;0;49;4;10;4;6;7;8;9;1;0;0;0;49;6;40 OTOMI V FAM OTO-MANGUE ;0;0;0;0;0;0;0;0;0;2;2;1;0;1;0;0;2;28/06/2012 03:50:25 p.m.
22DPB0061V;JUAN ALDAMA;1;QUERETARO;001;AMEALCO DE BONFIL;0148;XAJAY;CONOCIDO NUM. 0;;IN;104;22;74;24;30;;;;;;2011;;;;X;0;6;0;0;0;1;0;0;0;0;0;7;0;6;0;0;0;1;0;0;0;0;0;7;0;6;0;0;0;1;0;0;0;0;0;7;0;5;1;0;0;0;0;0;0;0;0;6;0;5;1;0;0;0;0;0;0;0;0;6;0;5;1;0;0;0;0;0;0;0;0;6;0;11;1;0;0;1;0;0;0;0;0;13;0;11;1;0;0;1;0;0;0;0;0;13;0;11;1;0;0;1;0;0;0;0;0;13;1;2;5;0;1;0;0;0;0;0;0;8;2;5;0;1;0;0;0;0;0;0;8;2;5;0;1;0;0;0;0;0;0;8;2;2;0;0;0;0;0;0;0;0;4;2;2;0;0;0;0;0;0;0;0;4;2;2;0;0;0;0;0;0;0;0;4;4;7;0;1;0;0;0;0;0;0;12;4;7;0;1;0;0;0;0;0;0;12;4;7;0;1;0;0;0;0;0;0;12;1;0;4;0;0;0;0;0;0;0;4;0;4;0;0;0;0;0;0;0;4;0;4;0;0;0;0;0;0;0;4;2;5;2;0;0;0;0;0;0;9;2;5;2;0;0;0;0;0;0;9;2;5;2;0;0;0;0;0;0;9;2;9;2;0;0;0;0;0;0;13;2;9;2;0;0;0;0;0;0;13;2;9;2;0;0;0;0;0;0;13;1;0;8;1;0;0;1;0;0;10;0;8;1;0;0;1;0;0;10;0;8;1;0;0;1;0;0;10;0;3;0;0;0;0;0;0;3;0;3;0;0;0;0;0;0;3;0;3;0;0;0;0;0;0;3;0;11;1;0;0;1;0;0;13;0;11;1;0;0;1;0;0;13;0;11;1;0;0;1;0;0;13;1;0;4;2;0;0;0;0;6;0;4;2;0;0;0;0;6;0;4;2;0;0;0;0;6;1;2;0;1;0;0;0;4;1;2;0;1;0;0;0;4;1;2;0;1;0;0;0;4;1;6;2;1;0;0;0;10;1;6;2;1;0;0;0;10;1;6;2;1;0;0;0;10;1;0;2;2;0;0;0;4;0;2;2;0;0;0;4;0;2;2;0;0;0;4;1;4;0;0;0;0;5;1;4;0;0;0;0;5;1;4;0;0;0;0;5;1;6;2;0;0;0;9;1;6;2;0;0;0;9;1;6;2;0;0;0;9;1;0;8;5;4;9;6;4;2;1;0;0;39;0;8;5;4;9;6;4;2;1;0;0;39;0;8;5;4;9;6;4;2;1;0;0;39;0;7;5;5;6;3;4;1;0;0;0;31;0;7;5;5;6;3;4;1;0;0;0;31;0;7;5;5;6;3;4;1;0;0;0;31;0;15;10;9;15;9;8;3;1;0;0;70;0;15;10;9;15;9;8;3;1;0;0;70;0;15;10;9;15;9;8;3;1;0;0;70;6;40 OTOMI V FAM OTO-MANGUE ;0;0;0;0;0;0;0;0;0;3;3;1;0;2;0;0;3;26/06/2012 08:14:20 p.m.
22DPB0065R;VICENTE GUERRERO;1;QUERETARO;004;CADEREYTA DE MONTES;0048;LOS JUAREZ;CONOCIDO NUM. 0;;IN;203;97;76;24;30;;;;;;2011;;;;X;0;14;1;0;0;0;0;0;0;0;0;15;0;14;1;0;0;0;0;0;0;0;0;15;0;12;1;0;0;0;0;0;0;0;0;13;0;9;1;0;0;0;0;0;0;0;0;10;0;9;1;0;0;0;0;0;0;0;0;10;0;8;1;0;0;0;0;0;0;0;0;9;0;23;2;0;0;0;0;0;0;0;0;25;0;23;2;0;0;0;0;0;0;0;0;25;0;20;2;0;0;0;0;0;0;0;0;22;1;0;3;2;0;0;0;0;0;0;0;5;0;3;2;0;0;0;0;0;0;0;5;0;3;2;0;0;0;0;0;0;0;5;0;7;1;1;1;0;0;0;0;0;10;0;7;1;1;1;0;0;0;0;0;10;0;7;1;0;1;0;0;0;0;0;9;0;10;3;1;1;0;0;0;0;0;15;0;10;3;1;1;0;0;0;0;0;15;0;10;3;0;1;0;0;0;0;0;14;1;0;6;2;0;2;0;0;0;0;10;0;6;2;0;2;0;0;0;0;10;0;5;2;0;2;0;0;0;0;9;0;7;2;1;0;0;0;0;0;10;0;7;2;1;0;0;0;0;0;10;0;7;2;1;0;0;0;0;0;10;0;13;4;1;2;0;0;0;0;20;0;13;4;1;2;0;0;0;0;20;0;12;4;1;2;0;0;0;0;19;1;0;6;5;0;0;0;0;0;11;0;6;5;0;0;0;0;0;11;0;6;5;0;0;0;0;0;11;0;9;1;1;0;0;0;0;11;0;9;1;1;0;0;0;0;11;0;9;1;1;0;0;0;0;11;0;15;6;1;0;0;0;0;22;0;15;6;1;0;0;0;0;22;0;15;6;1;0;0;0;0;22;1;0;7;2;4;1;0;0;14;0;7;2;4;1;0;0;14;0;6;2;3;1;0;0;12;0;10;4;0;1;0;0;15;0;10;4;0;1;0;0;15;0;8;4;0;1;0;0;13;0;17;6;4;2;0;0;29;0;17;6;4;2;0;0;29;0;14;6;3;2;0;0;25;1;0;1;2;0;0;0;3;0;1;2;0;0;0;3;0;1;2;0;0;0;3;0;5;5;0;0;0;10;0;5;5;0;0;0;10;0;5;5;0;0;0;10;0;6;7;0;0;0;13;0;6;7;0;0;0;13;0;6;7;0;0;0;13;1;0;14;4;8;8;12;5;6;1;0;0;58;0;14;4;8;8;12;5;6;1;0;0;58;0;12;4;7;8;11;5;5;1;0;0;53;0;9;8;8;12;13;10;5;1;0;0;66;0;9;8;8;12;13;10;5;1;0;0;66;0;8;8;8;11;11;10;5;1;0;0;62;0;23;12;16;20;25;15;11;2;0;0;124;0;23;12;16;20;25;15;11;2;0;0;124;0;20;12;15;19;22;15;10;2;0;0;115;6;40 OTOMI V FAM OTO-MANGUE ;1;3;4;1;1;1;1;1;1;0;6;1;0;5;0;1;7;28/06/2012 08:42:02 p.m.
22DPB0068O;VICENTE GUERRERO;1;QUERETARO;004;CADEREYTA DE MONTES;0078;LOS PI¥ONES;CONOCIDO NUM. 0;;IN;204;97;76;24;30;;;;;;2011;;;;X;0;2;0;0;0;0;0;0;0;0;0;2;0;2;0;0;0;0;0;0;0;0;0;2;0;2;0;0;0;0;0;0;0;0;0;2;0;5;0;0;0;0;0;0;0;0;0;5;0;5;0;0;0;0;0;0;0;0;0;5;0;5;0;0;0;0;0;0;0;0;0;5;0;7;0;0;0;0;0;0;0;0;0;7;0;7;0;0;0;0;0;0;0;0;0;7;0;7;0;0;0;0;0;0;0;0;0;7;1;0;5;0;0;0;0;0;0;0;0;5;0;5;0;0;0;0;0;0;0;0;5;0;3;0;0;0;0;0;0;0;0;3;0;0;1;0;0;0;0;0;0;0;1;0;0;1;0;0;0;0;0;0;0;1;0;0;1;0;0;0;0;0;0;0;1;0;5;1;0;0;0;0;0;0;0;6;0;5;1;0;0;0;0;0;0;0;6;0;3;1;0;0;0;0;0;0;0;4;1;0;1;0;0;0;0;0;0;0;1;0;1;0;0;0;0;0;0;0;1;0;1;0;0;0;0;0;0;0;1;0;2;1;0;0;0;0;0;0;3;0;2;1;0;0;0;0;0;0;3;0;2;1;0;0;0;0;0;0;3;0;3;1;0;0;0;0;0;0;4;0;3;1;0;0;0;0;0;0;4;0;3;1;0;0;0;0;0;0;4;1;0;0;0;1;0;0;0;0;1;0;0;0;1;0;0;0;0;1;0;0;0;1;0;0;0;0;1;0;4;1;1;1;0;0;0;7;0;4;1;1;1;0;0;0;7;0;3;1;1;1;0;0;0;6;0;4;1;2;1;0;0;0;8;0;4;1;2;1;0;0;0;8;0;3;1;2;1;0;0;0;7;1;0;0;1;1;0;0;0;2;0;0;1;1;0;0;0;2;0;0;1;1;0;0;0;2;0;0;1;0;0;0;0;1;0;0;1;0;0;0;0;1;0;0;1;0;0;0;0;1;0;0;2;1;0;0;0;3;0;0;2;1;0;0;0;3;0;0;2;1;0;0;0;3;1;0;1;0;1;0;0;2;0;1;0;1;0;0;2;0;1;0;1;0;0;2;0;2;1;0;0;0;3;0;2;1;0;0;0;3;0;2;1;0;0;0;3;0;3;1;1;0;0;5;0;3;1;1;0;0;5;0;3;1;1;0;0;5;1;0;2;5;1;0;0;3;1;1;0;0;13;0;2;5;1;0;0;3;1;1;0;0;13;0;2;3;1;0;0;3;1;1;0;0;11;0;5;0;3;5;1;4;2;0;0;0;20;0;5;0;3;5;1;4;2;0;0;0;20;0;5;0;3;4;1;4;2;0;0;0;19;0;7;5;4;5;1;7;3;1;0;0;33;0;7;5;4;5;1;7;3;1;0;0;33;0;7;3;4;4;1;7;3;1;0;0;30;6;40 OTOMI V FAM OTO-MANGUE ;0;1;1;0;0;0;0;0;0;2;2;0;0;2;0;0;2;30/06/2012 03:41:57 p.m.
22DPB0069N;CUAUHTEMOC;1;QUERETARO;004;CADEREYTA DE MONTES;0086;PUERTO DE LA LUZ;CONOCIDO NUM. 0;;IN;206;97;76;24;30;;;;;;2011;;;;X;0;6;1;0;0;0;0;0;0;0;0;7;0;6;1;0;0;0;0;0;0;0;0;7;0;6;1;0;0;0;0;0;0;0;0;7;0;6;0;0;0;0;0;0;0;0;0;6;0;6;0;0;0;0;0;0;0;0;0;6;0;6;0;0;0;0;0;0;0;0;0;6;0;12;1;0;0;0;0;0;0;0;0;13;0;12;1;0;0;0;0;0;0;0;0;13;0;12;1;0;0;0;0;0;0;0;0;13;1;0;6;1;0;0;0;0;0;0;0;7;0;6;1;0;0;0;0;0;0;0;7;0;6;1;0;0;0;0;0;0;0;7;0;5;4;0;0;0;0;0;0;0;9;0;5;4;0;0;0;0;0;0;0;9;0;5;4;0;0;0;0;0;0;0;9;0;11;5;0;0;0;0;0;0;0;16;0;11;5;0;0;0;0;0;0;0;16;0;11;5;0;0;0;0;0;0;0;16;1;0;9;0;0;0;0;0;0;0;9;0;9;0;0;0;0;0;0;0;9;0;9;0;0;0;0;0;0;0;9;0;7;1;0;0;0;0;0;0;8;0;7;1;0;0;0;0;0;0;8;0;7;1;0;0;0;0;0;0;8;0;16;1;0;0;0;0;0;0;17;0;16;1;0;0;0;0;0;0;17;0;16;1;0;0;0;0;0;0;17;1;0;5;0;0;0;0;0;0;5;0;5;0;0;0;0;0;0;5;0;5;0;0;0;0;0;0;5;0;7;1;0;0;0;0;0;8;0;6;1;0;0;0;0;0;7;0;6;1;0;0;0;0;0;7;0;12;1;0;0;0;0;0;13;0;11;1;0;0;0;0;0;12;0;11;1;0;0;0;0;0;12;1;0;4;5;0;0;0;0;9;0;4;5;0;0;0;0;9;0;4;5;0;0;0;0;9;0;9;0;0;0;0;0;9;0;9;0;0;0;0;0;9;0;9;0;0;0;0;0;9;0;13;5;0;0;0;0;18;0;13;5;0;0;0;0;18;0;13;5;0;0;0;0;18;1;0;7;3;1;1;0;12;0;7;3;1;1;0;12;0;7;3;1;1;0;12;0;5;3;1;0;0;9;0;5;3;1;0;0;9;0;5;3;1;0;0;9;0;12;6;2;1;0;21;0;12;6;2;1;0;21;0;12;6;2;1;0;21;1;0;6;7;10;5;4;12;3;1;1;0;49;0;6;7;10;5;4;12;3;1;1;0;49;0;6;7;10;5;4;12;3;1;1;0;49;0;6;5;11;8;10;5;3;1;0;0;49;0;6;5;11;7;10;5;3;1;0;0;48;0;6;5;11;7;10;5;3;1;0;0;48;0;12;12;21;13;14;17;6;2;1;0;98;0;12;12;21;12;14;17;6;2;1;0;97;0;12;12;21;12;14;17;6;2;1;0;97;6;40 OTOMI V FAM OTO-MANGUE ;0;1;1;0;0;0;0;1;1;2;4;0;1;4;0;0;5;28/06/2012 03:44:36 p.m.
22DPB0070C;VASCO DE QUIROGA;1;QUERETARO;004;CADEREYTA DE MONTES;0142;EL DEVISADERO;CONOCIDO NUM. 0;;IN;206;97;76;24;30;;;;;;2011;;;;X;0;3;0;0;0;0;0;0;0;0;0;3;0;3;0;0;0;0;0;0;0;0;0;3;0;3;0;0;0;0;0;0;0;0;0;3;0;5;0;0;0;0;0;0;0;0;0;5;0;5;0;0;0;0;0;0;0;0;0;5;0;5;0;0;0;0;0;0;0;0;0;5;0;8;0;0;0;0;0;0;0;0;0;8;0;8;0;0;0;0;0;0;0;0;0;8;0;8;0;0;0;0;0;0;0;0;0;8;1;0;6;0;0;0;0;0;0;0;0;6;0;6;0;0;0;0;0;0;0;0;6;0;6;0;0;0;0;0;0;0;0;6;0;3;0;0;0;0;0;0;0;0;3;0;3;0;0;0;0;0;0;0;0;3;0;3;0;0;0;0;0;0;0;0;3;0;9;0;0;0;0;0;0;0;0;9;0;9;0;0;0;0;0;0;0;0;9;0;9;0;0;0;0;0;0;0;0;9;1;0;2;0;0;0;0;0;0;0;2;0;2;0;0;0;0;0;0;0;2;0;2;0;0;0;0;0;0;0;2;0;2;0;0;0;0;0;0;0;2;0;2;0;0;0;0;0;0;0;2;0;2;0;0;0;0;0;0;0;2;0;4;0;0;0;0;0;0;0;4;0;4;0;0;0;0;0;0;0;4;0;4;0;0;0;0;0;0;0;4;1;0;6;1;0;0;0;0;0;7;0;6;1;0;0;0;0;0;7;0;6;1;0;0;0;0;0;7;0;5;0;0;0;0;0;0;5;0;5;0;0;0;0;0;0;5;0;5;0;0;0;0;0;0;5;0;11;1;0;0;0;0;0;12;0;11;1;0;0;0;0;0;12;0;11;1;0;0;0;0;0;12;1;0;8;0;0;0;0;0;8;0;8;0;0;0;0;0;8;0;8;0;0;0;0;0;8;0;4;0;1;0;0;0;5;0;4;0;1;0;0;0;5;0;4;0;1;0;0;0;5;0;12;0;1;0;0;0;13;0;12;0;1;0;0;0;13;0;12;0;1;0;0;0;13;1;0;3;0;0;0;0;3;0;3;0;0;0;0;3;0;3;0;0;0;0;3;0;9;0;0;0;0;9;0;9;0;0;0;0;9;0;9;0;0;0;0;9;0;12;0;0;0;0;12;0;12;0;0;0;0;12;0;12;0;0;0;0;12;1;0;3;6;2;6;9;3;0;0;0;0;29;0;3;6;2;6;9;3;0;0;0;0;29;0;3;6;2;6;9;3;0;0;0;0;29;0;5;3;2;5;4;9;1;0;0;0;29;0;5;3;2;5;4;9;1;0;0;0;29;0;5;3;2;5;4;9;1;0;0;0;29;0;8;9;4;11;13;12;1;0;0;0;58;0;8;9;4;11;13;12;1;0;0;0;58;0;8;9;4;11;13;12;1;0;0;0;58;6;40 OTOMI V FAM OTO-MANGUE ;29;29;58;0;0;0;0;0;0;2;2;0;0;2;0;0;2;29/06/2012 03:11:42 p.m.
22DPB0071B;5 DE MAYO;1;QUERETARO;004;CADEREYTA DE MONTES;0141;LAS JOYAS;CONOCIDO NUM. 0;;IN;206;97;76;24;30;;;;;;2011;;;;X;0;4;0;0;0;0;0;0;0;0;0;4;0;4;0;0;0;0;0;0;0;0;0;4;0;4;0;0;0;0;0;0;0;0;0;4;0;0;0;0;0;0;0;0;0;0;0;0;0;0;0;0;0;0;0;0;0;0;0;0;0;0;0;0;0;0;0;0;0;0;0;0;0;4;0;0;0;0;0;0;0;0;0;4;0;4;0;0;0;0;0;0;0;0;0;4;0;4;0;0;0;0;0;0;0;0;0;4;1;0;2;0;0;0;0;0;0;0;0;2;0;2;0;0;0;0;0;0;0;0;2;0;2;0;0;0;0;0;0;0;0;2;0;3;0;0;0;0;0;0;0;0;3;0;3;0;0;0;0;0;0;0;0;3;0;3;0;0;0;0;0;0;0;0;3;0;5;0;0;0;0;0;0;0;0;5;0;5;0;0;0;0;0;0;0;0;5;0;5;0;0;0;0;0;0;0;0;5;1;0;3;0;0;0;0;0;0;0;3;0;2;0;0;0;0;0;0;0;2;0;2;0;0;0;0;0;0;0;2;0;4;0;0;0;0;0;0;0;4;0;4;0;0;0;0;0;0;0;4;0;4;0;0;0;0;0;0;0;4;0;7;0;0;0;0;0;0;0;7;0;6;0;0;0;0;0;0;0;6;0;6;0;0;0;0;0;0;0;6;1;0;2;0;0;0;0;0;0;2;0;2;0;0;0;0;0;0;2;0;2;0;0;0;0;0;0;2;0;4;2;0;0;0;0;0;6;0;4;2;0;0;0;0;0;6;0;4;2;0;0;0;0;0;6;0;6;2;0;0;0;0;0;8;0;6;2;0;0;0;0;0;8;0;6;2;0;0;0;0;0;8;1;0;1;1;0;0;0;0;2;0;1;1;0;0;0;0;2;0;1;1;0;0;0;0;2;0;2;0;0;0;0;0;2;0;2;0;0;0;0;0;2;0;2;0;0;0;0;0;2;0;3;1;0;0;0;0;4;0;3;1;0;0;0;0;4;0;3;1;0;0;0;0;4;1;0;2;1;0;0;0;3;0;2;1;0;0;0;3;0;2;1;0;0;0;3;0;2;0;0;0;0;2;0;2;0;0;0;0;2;0;2;0;0;0;0;2;0;4;1;0;0;0;5;0;4;1;0;0;0;5;0;4;1;0;0;0;5;1;0;4;2;3;2;1;3;1;0;0;0;16;0;4;2;2;2;1;3;1;0;0;0;15;0;4;2;2;2;1;3;1;0;0;0;15;0;0;3;4;4;4;2;0;0;0;0;17;0;0;3;4;4;4;2;0;0;0;0;17;0;0;3;4;4;4;2;0;0;0;0;17;0;4;5;7;6;5;5;1;0;0;0;33;0;4;5;6;6;5;5;1;0;0;0;32;0;4;5;6;6;5;5;1;0;0;0;32;6;40 OTOMI V FAM OTO-MANGUE ;1;0;1;0;0;0;0;0;0;1;1;0;0;1;0;0;1;29/06/2012 11:21:07 a.m.
22DPB0072A;YA BOTSI MAXEI;1;QUERETARO;001;AMEALCO DE BONFIL;0094;EL CACAHUATE (STGO. MEXQUITITLAN BARRIO 6O.);CONOCIDO NUM. 0;;IN;103;22;74;24;30;;;;;;2011;;;;X;0;1;1;0;0;0;0;0;0;0;0;2;0;1;1;0;0;0;0;0;0;0;0;2;0;1;1;0;0;0;0;0;0;0;0;2;0;1;4;0;1;0;0;0;0;0;0;6;0;1;4;0;1;0;0;0;0;0;0;6;0;1;4;0;1;0;0;0;0;0;0;6;0;2;5;0;1;0;0;0;0;0;0;8;0;2;5;0;1;0;0;0;0;0;0;8;0;2;5;0;1;0;0;0;0;0;0;8;1;0;1;3;1;0;0;0;0;0;0;5;0;1;3;1;0;0;0;0;0;0;5;0;1;3;1;0;0;0;0;0;0;5;0;2;0;3;0;0;0;0;0;0;5;0;2;0;3;0;0;0;0;0;0;5;0;2;0;3;0;0;0;0;0;0;5;0;3;3;4;0;0;0;0;0;0;10;0;3;3;4;0;0;0;0;0;0;10;0;3;3;4;0;0;0;0;0;0;10;1;0;2;3;0;2;0;0;0;0;7;0;2;3;0;2;0;0;0;0;7;0;2;3;0;2;0;0;0;0;7;0;1;6;1;0;0;0;0;0;8;0;1;6;1;0;0;0;0;0;8;0;1;6;1;0;0;0;0;0;8;0;3;9;1;2;0;0;0;0;15;0;3;9;1;2;0;0;0;0;15;0;3;9;1;2;0;0;0;0;15;1;0;0;3;0;1;0;1;0;5;0;0;3;0;1;0;1;0;5;0;0;3;0;1;0;1;0;5;0;0;1;0;1;0;0;0;2;0;0;1;0;1;0;0;0;2;0;0;1;0;1;0;0;0;2;0;0;4;0;2;0;1;0;7;0;0;4;0;2;0;1;0;7;0;0;4;0;2;0;1;0;7;1;0;2;4;1;1;0;0;8;0;2;4;1;1;0;0;8;0;2;4;1;1;0;0;8;0;6;1;0;1;0;0;8;0;6;1;0;1;0;0;8;0;6;1;0;1;0;0;8;0;8;5;1;2;0;0;16;0;8;5;1;2;0;0;16;0;8;5;1;2;0;0;16;1;0;1;2;0;0;0;3;0;1;2;0;0;0;3;0;1;2;0;0;0;3;0;0;4;1;0;0;5;0;0;4;1;0;0;5;0;0;4;1;0;0;5;0;1;6;1;0;0;8;0;1;6;1;0;0;8;0;1;6;1;0;0;8;1;0;1;2;5;4;5;7;4;1;1;0;30;0;1;2;5;4;5;7;4;1;1;0;30;0;1;2;5;4;5;7;4;1;1;0;30;0;1;6;1;10;8;1;5;2;0;0;34;0;1;6;1;10;8;1;5;2;0;0;34;0;1;6;1;10;8;1;5;2;0;0;34;0;2;8;6;14;13;8;9;3;1;0;64;0;2;8;6;14;13;8;9;3;1;0;64;0;2;8;6;14;13;8;9;3;1;0;64;6;40 OTOMI V FAM OTO-MANGUE ;0;0;0;0;0;0;0;0;0;3;3;0;0;3;0;0;3;28/06/2012 01:53:06 p.m.
22DPB0075Y;MIGUEL HIDALGO;1;QUERETARO;018;TOLIMAN;0025;RANCHO DE GUADALUPE;CONOCIDO NUM. 0;;IN;207;97;76;24;30;;;;;;2011;;;;X;0;5;0;0;0;0;0;0;0;0;0;5;0;5;0;0;0;0;0;0;0;0;0;5;0;5;0;0;0;0;0;0;0;0;0;5;0;2;0;0;0;0;0;0;0;0;0;2;0;2;0;0;0;0;0;0;0;0;0;2;0;2;0;0;0;0;0;0;0;0;0;2;0;7;0;0;0;0;0;0;0;0;0;7;0;7;0;0;0;0;0;0;0;0;0;7;0;7;0;0;0;0;0;0;0;0;0;7;1;0;2;0;0;0;0;0;0;0;0;2;0;2;0;0;0;0;0;0;0;0;2;0;2;0;0;0;0;0;0;0;0;2;0;3;0;0;0;0;0;0;0;0;3;0;3;0;0;0;0;0;0;0;0;3;0;3;0;0;0;0;0;0;0;0;3;0;5;0;0;0;0;0;0;0;0;5;0;5;0;0;0;0;0;0;0;0;5;0;5;0;0;0;0;0;0;0;0;5;1;0;3;0;0;0;0;0;0;0;3;0;3;0;0;0;0;0;0;0;3;0;3;0;0;0;0;0;0;0;3;0;1;0;0;0;0;0;0;0;1;0;1;0;0;0;0;0;0;0;1;0;1;0;0;0;0;0;0;0;1;0;4;0;0;0;0;0;0;0;4;0;4;0;0;0;0;0;0;0;4;0;4;0;0;0;0;0;0;0;4;1;0;0;0;0;0;0;0;0;0;0;0;0;0;0;0;0;0;0;0;0;0;0;0;0;0;0;0;0;2;0;0;0;0;0;0;2;0;2;0;0;0;0;0;0;2;0;2;0;0;0;0;0;0;2;0;2;0;0;0;0;0;0;2;0;2;0;0;0;0;0;0;2;0;2;0;0;0;0;0;0;2;1;0;0;1;0;0;0;0;1;0;0;1;0;0;0;0;1;0;0;1;0;0;0;0;1;0;0;1;0;0;0;0;1;0;0;1;0;0;0;0;1;0;0;1;0;0;0;0;1;0;0;2;0;0;0;0;2;0;0;2;0;0;0;0;2;0;0;2;0;0;0;0;2;1;0;0;0;0;0;0;0;0;0;0;0;0;0;0;0;0;0;0;0;0;0;0;0;1;0;0;0;1;0;0;1;0;0;0;1;0;0;1;0;0;0;1;0;0;1;0;0;0;1;0;0;1;0;0;0;1;0;0;1;0;0;0;1;1;0;5;2;3;0;0;1;0;0;0;0;11;0;5;2;3;0;0;1;0;0;0;0;11;0;5;2;3;0;0;1;0;0;0;0;11;0;2;3;1;2;0;1;1;0;0;0;10;0;2;3;1;2;0;1;1;0;0;0;10;0;2;3;1;2;0;1;1;0;0;0;10;0;7;5;4;2;0;2;1;0;0;0;21;0;7;5;4;2;0;2;1;0;0;0;21;0;7;5;4;2;0;2;1;0;0;0;21;6;40 OTOMI V FAM OTO-MANGUE ;0;0;0;0;0;0;0;0;0;1;1;0;0;1;0;0;1;26/06/2012 05:33:55 p.m.
22DPB0076X;NI¥OS HEROES;1;QUERETARO;004;CADEREYTA DE MONTES;0238;XIDHI;CONOCIDO NUM. 0;;IN;205;97;76;24;30;;;;;;2011;;;;X;0;0;0;0;0;0;0;0;0;0;0;0;0;0;0;0;0;0;0;0;0;0;0;0;0;0;0;0;0;0;0;0;0;0;0;0;1;3;0;0;0;0;0;0;0;0;0;4;1;3;0;0;0;0;0;0;0;0;0;4;0;3;0;0;0;0;0;0;0;0;0;3;1;3;0;0;0;0;0;0;0;0;0;4;1;3;0;0;0;0;0;0;0;0;0;4;0;3;0;0;0;0;0;0;0;0;0;3;1;0;1;0;0;0;0;0;0;0;0;1;0;1;0;0;0;0;0;0;0;0;1;0;1;0;0;0;0;0;0;0;0;1;0;1;0;0;0;0;0;0;0;0;1;0;1;0;0;0;0;0;0;0;0;1;0;1;0;0;0;0;0;0;0;0;1;0;2;0;0;0;0;0;0;0;0;2;0;2;0;0;0;0;0;0;0;0;2;0;2;0;0;0;0;0;0;0;0;2;1;0;1;0;0;0;0;0;0;0;1;0;1;0;0;0;0;0;0;0;1;0;1;0;0;0;0;0;0;0;1;0;2;0;0;0;0;0;0;0;2;0;2;0;0;0;0;0;0;0;2;0;2;0;0;0;0;0;0;0;2;0;3;0;0;0;0;0;0;0;3;0;3;0;0;0;0;0;0;0;3;0;3;0;0;0;0;0;0;0;3;1;0;1;0;0;0;0;0;0;1;0;1;0;0;0;0;0;0;1;0;1;0;0;0;0;0;0;1;0;1;0;0;0;0;0;0;1;0;1;0;0;0;0;0;0;1;0;1;0;0;0;0;0;0;1;0;2;0;0;0;0;0;0;2;0;2;0;0;0;0;0;0;2;0;2;0;0;0;0;0;0;2;1;0;1;0;0;0;0;0;1;0;1;0;0;0;0;0;1;0;1;0;0;0;0;0;1;1;1;0;0;0;0;0;2;1;1;0;0;0;0;0;2;1;1;0;0;0;0;0;2;1;2;0;0;0;0;0;3;1;2;0;0;0;0;0;3;1;2;0;0;0;0;0;3;1;0;0;0;0;0;0;0;0;0;0;0;0;0;0;0;0;0;0;0;0;0;0;0;3;0;0;0;3;0;0;3;0;0;0;3;0;0;3;0;0;0;3;0;0;3;0;0;0;3;0;0;3;0;0;0;3;0;0;3;0;0;0;3;1;0;0;1;1;1;1;0;0;0;0;0;4;0;0;1;1;1;1;0;0;0;0;0;4;0;0;1;1;1;1;0;0;0;0;0;4;1;3;1;2;2;1;0;3;0;0;0;13;1;3;1;2;2;1;0;3;0;0;0;13;0;3;1;2;2;1;0;3;0;0;0;12;1;3;2;3;3;2;0;3;0;0;0;17;1;3;2;3;3;2;0;3;0;0;0;17;0;3;2;3;3;2;0;3;0;0;0;16;6;40 OTOMI V FAM OTO-MANGUE ;0;0;0;0;0;0;0;0;0;1;1;0;0;1;0;0;1;28/06/2012 03:46:17 p.m.
22DPB0077W;ESCUADRON 201;1;QUERETARO;001;AMEALCO DE BONFIL;0039;SAN ILDEFONSO TULTEPEC (CENTRO);CONOCIDO NUM. 0;;IN;102;22;74;24;30;;;;;;2011;;;;X;4;18;4;2;0;0;0;0;0;0;0;28;4;18;4;1;0;0;0;0;0;0;0;27;4;18;4;1;0;0;0;0;0;0;0;27;8;16;5;0;0;0;0;0;0;0;0;29;8;16;5;0;0;0;0;0;0;0;0;29;8;16;5;0;0;0;0;0;0;0;0;29;12;34;9;2;0;0;0;0;0;0;0;57;12;34;9;1;0;0;0;0;0;0;0;56;12;34;9;1;0;0;0;0;0;0;0;56;2;7;14;6;0;0;0;0;0;0;0;27;7;14;5;0;0;0;0;0;0;0;26;7;14;5;0;0;0;0;0;0;0;26;1;20;3;0;0;0;0;0;0;0;24;1;20;3;0;0;0;0;0;0;0;24;1;20;3;0;0;0;0;0;0;0;24;8;34;9;0;0;0;0;0;0;0;51;8;34;8;0;0;0;0;0;0;0;50;8;34;8;0;0;0;0;0;0;0;50;2;5;10;1;0;0;0;0;0;0;16;5;10;1;0;0;0;0;0;0;16;5;9;1;0;0;0;0;0;0;15;4;14;2;0;0;0;0;0;0;20;4;14;2;0;0;0;0;0;0;20;4;14;2;0;0;0;0;0;0;20;9;24;3;0;0;0;0;0;0;36;9;24;3;0;0;0;0;0;0;36;9;23;3;0;0;0;0;0;0;35;1;0;19;2;1;0;0;0;0;22;0;19;2;1;0;0;0;0;22;0;19;2;1;0;0;0;0;22;6;15;4;0;0;0;0;0;25;6;15;4;0;0;0;0;0;25;6;15;4;0;0;0;0;0;25;6;34;6;1;0;0;0;0;47;6;34;6;1;0;0;0;0;47;6;34;6;1;0;0;0;0;47;2;3;21;1;2;0;0;0;27;3;21;1;2;0;0;0;27;3;21;1;2;0;0;0;27;13;22;3;0;0;0;0;38;12;22;3;0;0;0;0;37;12;22;2;0;0;0;0;36;16;43;4;2;0;0;0;65;15;43;4;2;0;0;0;64;15;43;3;2;0;0;0;63;2;0;22;2;0;1;0;25;0;22;2;0;1;0;25;0;22;2;0;1;0;25;1;21;2;1;0;0;25;1;21;2;1;0;0;25;1;21;2;1;0;0;25;1;43;4;1;1;0;50;1;43;4;1;1;0;50;1;43;4;1;1;0;50;2;4;25;23;18;23;23;24;4;0;1;0;145;4;25;23;16;23;23;24;4;0;1;0;143;4;25;23;15;23;23;24;4;0;1;0;142;8;17;29;23;30;27;24;2;1;0;0;161;8;17;29;23;29;27;24;2;1;0;0;160;8;17;29;23;29;27;23;2;1;0;0;159;12;42;52;41;53;50;48;6;1;1;0;306;12;42;52;39;52;50;48;6;1;1;0;303;12;42;52;38;52;50;47;6;1;1;0;301;11;40 OTOMI V FAM OTO-MANGUE ;0;0;0;2;2;1;2;2;2;0;11;0;1;11;0;0;12;26/06/2012 08:32:25 p.m.
22DPB0078V;VICENTE GUERRERO;1;QUERETARO;001;AMEALCO DE BONFIL;0038;SAN FELIPE (SANTIAGO MEXQUITITLAN BARRIO 6O.);CONOCIDO NUM. 0;;IN;103;22;74;24;30;;;;;;2011;;;;X;4;15;1;0;0;0;0;0;0;0;0;20;4;14;1;0;0;0;0;0;0;0;0;19;4;13;0;0;0;0;0;0;0;0;0;17;5;9;0;1;0;0;0;0;0;0;0;15;5;9;0;1;0;0;0;0;0;0;0;15;5;8;0;1;0;0;0;0;0;0;0;14;9;24;1;1;0;0;0;0;0;0;0;35;9;23;1;1;0;0;0;0;0;0;0;34;9;21;0;1;0;0;0;0;0;0;0;31;1;3;8;3;1;0;0;0;0;0;0;15;3;8;3;1;0;0;0;0;0;0;15;3;7;2;1;0;0;0;0;0;0;13;5;6;3;2;0;0;0;0;0;0;16;5;6;3;2;0;0;0;0;0;0;16;5;6;2;2;0;0;0;0;0;0;15;8;14;6;3;0;0;0;0;0;0;31;8;14;6;3;0;0;0;0;0;0;31;8;13;4;3;0;0;0;0;0;0;28;1;3;10;1;1;0;0;0;0;0;15;3;10;1;1;0;0;0;0;0;15;3;10;1;1;0;0;0;0;0;15;2;8;2;0;1;0;0;0;0;13;2;8;2;0;1;0;0;0;0;13;2;8;2;0;1;0;0;0;0;13;5;18;3;1;1;0;0;0;0;28;5;18;3;1;1;0;0;0;0;28;5;18;3;1;1;0;0;0;0;28;1;3;11;0;0;0;1;0;0;15;3;10;0;0;0;1;0;0;14;3;10;0;0;0;0;0;0;13;4;2;1;1;0;0;0;0;8;4;2;1;0;0;0;0;0;7;4;1;1;0;0;0;0;0;6;7;13;1;1;0;1;0;0;23;7;12;1;0;0;1;0;0;21;7;11;1;0;0;0;0;0;19;1;0;12;3;0;0;0;0;15;0;12;3;0;0;0;0;15;0;12;3;0;0;0;0;15;3;15;1;0;1;0;1;21;3;15;1;0;1;0;1;21;3;15;1;0;1;0;1;21;3;27;4;0;1;0;1;36;3;27;4;0;1;0;1;36;3;27;4;0;1;0;1;36;2;1;5;1;3;0;0;10;1;5;1;2;0;0;9;1;5;1;2;0;0;9;1;11;4;3;1;1;21;1;11;4;3;1;1;21;1;11;4;3;1;1;21;2;16;5;6;1;1;31;2;16;5;5;1;1;30;2;16;5;5;1;1;30;1;4;18;12;16;13;14;8;1;4;0;0;90;4;17;12;16;12;14;8;1;3;0;0;87;4;16;10;15;12;14;8;1;2;0;0;82;5;14;8;16;9;17;14;4;4;1;2;94;5;14;8;16;9;17;13;4;4;1;2;93;5;13;8;15;8;17;13;4;4;1;2;90;9;32;20;32;22;31;22;5;8;1;2;184;9;31;20;32;21;31;21;5;7;1;2;180;9;29;18;30;20;31;21;5;6;1;2;172;7;40 OTOMI V FAM OTO-MANGUE ;6;7;13;1;1;1;1;2;1;0;7;0;1;7;0;0;8;26/06/2012 09:24:01 a.m.
22DPB0079U;FRAY PEDRO DE GANTE;1;QUERETARO;001;AMEALCO DE BONFIL;0053;TENASDA (BARRIO DE SAN ILDEFONSO);CONOCIDO NUM. 0;;IN;104;22;74;24;30;;;;;;2011;;;;X;0;4;0;0;0;0;0;0;0;0;0;4;0;4;0;0;0;0;0;0;0;0;0;4;0;4;0;0;0;0;0;0;0;0;0;4;0;2;0;0;0;0;0;0;0;0;0;2;0;2;0;0;0;0;0;0;0;0;0;2;0;1;0;0;0;0;0;0;0;0;0;1;0;6;0;0;0;0;0;0;0;0;0;6;0;6;0;0;0;0;0;0;0;0;0;6;0;5;0;0;0;0;0;0;0;0;0;5;1;1;3;0;0;0;0;0;0;0;0;4;1;3;0;0;0;0;0;0;0;0;4;1;3;0;0;0;0;0;0;0;0;4;1;2;0;0;0;0;0;0;0;0;3;1;2;0;0;0;0;0;0;0;0;3;1;2;0;0;0;0;0;0;0;0;3;2;5;0;0;0;0;0;0;0;0;7;2;5;0;0;0;0;0;0;0;0;7;2;5;0;0;0;0;0;0;0;0;7;1;0;4;0;0;0;0;0;0;0;4;0;4;0;0;0;0;0;0;0;4;0;4;0;0;0;0;0;0;0;4;2;5;1;0;0;0;0;0;0;8;2;5;1;0;0;0;0;0;0;8;2;5;1;0;0;0;0;0;0;8;2;9;1;0;0;0;0;0;0;12;2;9;1;0;0;0;0;0;0;12;2;9;1;0;0;0;0;0;0;12;1;5;7;0;0;0;0;0;0;12;5;7;0;0;0;0;0;0;12;4;7;0;0;0;0;0;0;11;5;4;0;1;0;0;0;0;10;5;4;0;1;0;0;0;0;10;5;3;0;1;0;0;0;0;9;10;11;0;1;0;0;0;0;22;10;11;0;1;0;0;0;0;22;9;10;0;1;0;0;0;0;20;1;1;9;1;0;0;0;0;11;1;9;1;0;0;0;0;11;1;9;1;0;0;0;0;11;1;6;1;0;0;0;0;8;1;6;1;0;0;0;0;8;1;6;1;0;0;0;0;8;2;15;2;0;0;0;0;19;2;15;2;0;0;0;0;19;2;15;2;0;0;0;0;19;1;0;8;1;0;0;0;9;0;8;1;0;0;0;9;0;8;1;0;0;0;9;1;3;1;0;0;0;5;1;3;1;0;0;0;5;1;3;1;0;0;0;5;1;11;2;0;0;0;14;1;11;2;0;0;0;14;1;11;2;0;0;0;14;1;0;5;3;9;8;9;9;1;0;0;0;44;0;5;3;9;8;9;9;1;0;0;0;44;0;5;3;8;8;9;9;1;0;0;0;43;0;3;4;10;6;7;5;1;0;0;0;36;0;3;4;10;6;7;5;1;0;0;0;36;0;2;4;10;5;7;5;1;0;0;0;34;0;8;7;19;14;16;14;2;0;0;0;80;0;8;7;19;14;16;14;2;0;0;0;80;0;7;7;18;13;16;14;2;0;0;0;77;6;40 OTOMI V FAM OTO-MANGUE ;3;1;4;0;0;0;1;1;0;2;4;1;0;3;0;0;4;27/06/2012 04:33:30 p.m.
22DPB0080J;MELCHOR OCAMPO;1;QUERETARO;001;AMEALCO DE BONFIL;0047;SANTIAGO MEXQUITITLAN BARRIO 3O.;CONOCIDO NUM. 0;;IN;101;22;74;24;30;;;;;;2011;;;;X;6;8;4;0;0;0;0;0;0;0;0;18;6;8;4;0;0;0;0;0;0;0;0;18;6;8;4;0;0;0;0;0;0;0;0;18;3;7;5;0;0;0;0;0;0;0;0;15;3;6;4;0;0;0;0;0;0;0;0;13;3;6;4;0;0;0;0;0;0;0;0;13;9;15;9;0;0;0;0;0;0;0;0;33;9;14;8;0;0;0;0;0;0;0;0;31;9;14;8;0;0;0;0;0;0;0;0;31;1;2;14;1;1;1;0;0;0;0;0;19;2;14;1;1;1;0;0;0;0;0;19;2;12;1;1;1;0;0;0;0;0;17;4;8;0;0;0;0;0;0;0;0;12;4;7;0;0;0;0;0;0;0;0;11;4;7;0;0;0;0;0;0;0;0;11;6;22;1;1;1;0;0;0;0;0;31;6;21;1;1;1;0;0;0;0;0;30;6;19;1;1;1;0;0;0;0;0;28;1;4;10;0;1;0;0;0;0;0;15;4;10;0;1;0;0;0;0;0;15;4;9;0;1;0;0;0;0;0;14;4;8;0;0;0;0;0;0;0;12;4;8;0;0;0;0;0;0;0;12;4;8;0;0;0;0;0;0;0;12;8;18;0;1;0;0;0;0;0;27;8;18;0;1;0;0;0;0;0;27;8;17;0;1;0;0;0;0;0;26;1;2;13;1;2;0;0;0;0;18;2;12;1;2;0;0;0;0;17;2;12;1;2;0;0;0;0;17;5;8;2;0;0;0;0;0;15;5;8;2;0;0;0;0;0;15;5;8;2;0;0;0;0;0;15;7;21;3;2;0;0;0;0;33;7;20;3;2;0;0;0;0;32;7;20;3;2;0;0;0;0;32;1;1;12;1;0;0;0;0;14;1;12;1;0;0;0;0;14;1;12;1;0;0;0;0;14;4;6;2;0;0;0;0;12;4;5;2;0;0;0;0;11;4;5;2;0;0;0;0;11;5;18;3;0;0;0;0;26;5;17;3;0;0;0;0;25;5;17;3;0;0;0;0;25;1;1;14;2;2;0;0;19;1;14;1;1;0;0;17;1;14;1;1;0;0;17;0;12;4;1;1;1;19;0;12;4;1;0;1;18;0;12;4;1;0;1;18;1;26;6;3;1;1;38;1;26;5;2;0;1;35;1;26;5;2;0;1;35;2;6;10;22;13;15;16;17;2;2;0;0;103;6;10;22;13;14;16;17;1;1;0;0;100;6;10;20;12;14;16;17;1;1;0;0;97;3;11;17;13;12;8;14;4;1;1;1;85;3;10;15;13;12;7;14;4;1;0;1;80;3;10;15;13;12;7;14;4;1;0;1;80;9;21;39;26;27;24;31;6;3;1;1;188;9;20;37;26;26;23;31;5;2;0;1;180;9;20;35;25;26;23;31;5;2;0;1;177;7;40 OTOMI V FAM OTO-MANGUE ;0;0;0;1;1;1;1;1;2;0;7;0;1;7;0;1;9;30/06/2012 08:53:57 p.m.
22DPB0082H;GUADALUPE VICTORIA;1;QUERETARO;001;AMEALCO DE BONFIL;0065;LA PINI;CONOCIDO NUM. 0;;IN;104;22;74;24;30;;;;;;2011;;;;X;0;2;0;0;0;0;0;0;0;0;0;2;0;2;0;0;0;0;0;0;0;0;0;2;0;2;0;0;0;0;0;0;0;0;0;2;0;2;0;0;0;0;0;0;0;0;0;2;0;2;0;0;0;0;0;0;0;0;0;2;0;2;0;0;0;0;0;0;0;0;0;2;0;4;0;0;0;0;0;0;0;0;0;4;0;4;0;0;0;0;0;0;0;0;0;4;0;4;0;0;0;0;0;0;0;0;0;4;4;0;5;0;0;0;0;0;0;0;0;5;0;5;0;0;0;0;0;0;0;0;5;0;3;0;0;0;0;0;0;0;0;3;0;2;0;0;0;0;0;0;0;0;2;0;2;0;0;0;0;0;0;0;0;2;0;2;0;0;0;0;0;0;0;0;2;0;7;0;0;0;0;0;0;0;0;7;0;7;0;0;0;0;0;0;0;0;7;0;5;0;0;0;0;0;0;0;0;5;7;0;3;0;0;0;0;0;0;0;3;0;3;0;0;0;0;0;0;0;3;0;3;0;0;0;0;0;0;0;3;0;5;0;0;0;0;0;0;0;5;0;5;0;0;0;0;0;0;0;5;0;5;0;0;0;0;0;0;0;5;0;8;0;0;0;0;0;0;0;8;0;8;0;0;0;0;0;0;0;8;0;8;0;0;0;0;0;0;0;8;8;0;5;0;0;0;0;0;0;5;0;5;0;0;0;0;0;0;5;0;5;0;0;0;0;0;0;5;0;2;1;0;0;0;0;0;3;0;2;1;0;0;0;0;0;3;0;2;1;0;0;0;0;0;3;0;7;1;0;0;0;0;0;8;0;7;1;0;0;0;0;0;8;0;7;1;0;0;0;0;0;8;8;0;1;0;0;0;0;0;1;0;1;0;0;0;0;0;1;0;1;0;0;0;0;0;1;0;2;1;0;0;0;0;3;0;2;1;0;0;0;0;3;0;2;1;0;0;0;0;3;0;3;1;0;0;0;0;4;0;3;1;0;0;0;0;4;0;3;1;0;0;0;0;4;4;0;4;0;0;0;0;4;0;4;0;0;0;0;4;0;4;0;0;0;0;4;0;7;0;0;0;0;7;0;7;0;0;0;0;7;0;7;0;0;0;0;7;0;11;0;0;0;0;11;0;11;0;0;0;0;11;0;11;0;0;0;0;11;11;0;2;5;3;5;1;4;0;0;0;0;20;0;2;5;3;5;1;4;0;0;0;0;20;0;2;3;3;5;1;4;0;0;0;0;18;0;2;2;5;2;3;8;0;0;0;0;22;0;2;2;5;2;3;8;0;0;0;0;22;0;2;2;5;2;3;8;0;0;0;0;22;0;4;7;8;7;4;12;0;0;0;0;42;0;4;7;8;7;4;12;0;0;0;0;42;0;4;5;8;7;4;12;0;0;0;0;40;42;40 OTOMI V FAM OTO-MANGUE ;0;2;2;0;0;0;0;0;0;2;2;1;0;1;0;0;2;25/06/2012 02:57:42 p.m.
22DPB0083G;JOSEFA ORTIZ DE DOMINGUEZ;1;QUERETARO;001;AMEALCO DE BONFIL;0070;YOSPHI;CONOCIDO NUM. 0;;IN;102;22;74;24;30;;;;;;2011;;;;X;1;15;2;2;1;0;0;0;0;0;0;21;1;15;2;2;1;0;0;0;0;0;0;21;1;15;2;2;0;0;0;0;0;0;0;20;5;14;3;0;0;0;0;0;0;0;0;22;5;14;3;0;0;0;0;0;0;0;0;22;5;14;1;0;0;0;0;0;0;0;0;20;6;29;5;2;1;0;0;0;0;0;0;43;6;29;5;2;1;0;0;0;0;0;0;43;6;29;3;2;0;0;0;0;0;0;0;40;2;4;16;8;3;0;0;0;0;0;0;31;4;15;8;3;0;0;0;0;0;0;30;4;15;8;3;0;0;0;0;0;0;30;2;16;5;2;0;0;0;0;0;0;25;2;16;5;2;0;0;0;0;0;0;25;2;16;5;2;0;0;0;0;0;0;25;6;32;13;5;0;0;0;0;0;0;56;6;31;13;5;0;0;0;0;0;0;55;6;31;13;5;0;0;0;0;0;0;55;2;4;13;10;0;2;0;0;0;0;29;4;13;10;0;2;0;0;0;0;29;4;12;9;0;0;0;0;0;0;25;0;12;6;0;1;0;0;0;0;19;0;12;6;0;1;0;0;0;0;19;0;12;6;0;1;0;0;0;0;19;4;25;16;0;3;0;0;0;0;48;4;25;16;0;3;0;0;0;0;48;4;24;15;0;1;0;0;0;0;44;2;5;14;2;0;0;0;0;0;21;5;13;2;0;0;0;0;0;20;5;12;2;0;0;0;0;0;19;3;12;3;0;0;0;0;0;18;3;12;3;0;0;0;0;0;18;3;11;3;0;0;0;0;0;17;8;26;5;0;0;0;0;0;39;8;25;5;0;0;0;0;0;38;8;23;5;0;0;0;0;0;36;1;0;16;11;0;0;0;0;27;0;16;11;0;0;0;0;27;0;16;11;0;0;0;0;27;0;15;7;1;0;0;0;23;0;15;7;1;0;0;0;23;0;15;7;1;0;0;0;23;0;31;18;1;0;0;0;50;0;31;18;1;0;0;0;50;0;31;18;1;0;0;0;50;2;0;9;13;1;1;0;24;0;9;13;1;1;0;24;0;9;13;1;1;0;24;0;10;8;1;0;0;19;0;10;8;1;0;0;19;0;10;8;1;0;0;19;0;19;21;2;1;0;43;0;19;21;2;1;0;43;0;19;21;2;1;0;43;1;1;19;22;28;28;18;22;13;1;1;0;153;1;19;21;28;27;18;22;13;1;1;0;151;1;19;21;27;24;18;20;13;1;1;0;145;5;16;19;20;20;18;18;9;1;0;0;126;5;16;19;20;20;18;18;9;1;0;0;126;5;16;17;20;19;18;18;9;1;0;0;123;6;35;41;48;48;36;40;22;2;1;0;279;6;35;40;48;47;36;40;22;2;1;0;277;6;35;38;47;43;36;38;22;2;1;0;268;10;40 OTOMI V FAM OTO-MANGUE ;3;0;3;2;2;2;1;2;1;0;10;0;1;10;0;1;12;01/07/2012 03:33:21 p.m.
22DPB0087C;5 DE MAYO;1;QUERETARO;018;TOLIMAN;0030;MESA DE RAMIREZ;CONOCIDO NUM. 0;;IN;201;97;76;24;30;;;;;;2011;;;;X;0;12;0;0;0;0;0;0;0;0;0;12;0;12;0;0;0;0;0;0;0;0;0;12;0;12;0;0;0;0;0;0;0;0;0;12;3;7;0;0;0;0;0;0;0;0;0;10;3;6;0;0;0;0;0;0;0;0;0;9;3;6;0;0;0;0;0;0;0;0;0;9;3;19;0;0;0;0;0;0;0;0;0;22;3;18;0;0;0;0;0;0;0;0;0;21;3;18;0;0;0;0;0;0;0;0;0;21;1;7;9;1;0;0;0;0;0;0;0;17;7;9;1;0;0;0;0;0;0;0;17;7;9;1;0;0;0;0;0;0;0;17;2;7;0;0;0;0;0;0;0;0;9;1;7;0;0;0;0;0;0;0;0;8;1;7;0;0;0;0;0;0;0;0;8;9;16;1;0;0;0;0;0;0;0;26;8;16;1;0;0;0;0;0;0;0;25;8;16;1;0;0;0;0;0;0;0;25;1;4;4;3;0;0;0;0;0;0;11;4;4;3;0;0;0;0;0;0;11;4;4;2;0;0;0;0;0;0;10;4;11;0;1;0;0;0;0;0;16;4;11;0;1;0;0;0;0;0;16;4;10;0;1;0;0;0;0;0;15;8;15;3;1;0;0;0;0;0;27;8;15;3;1;0;0;0;0;0;27;8;14;2;1;0;0;0;0;0;25;1;5;11;7;1;0;0;0;0;24;5;10;7;1;0;0;0;0;23;5;10;6;1;0;0;0;0;22;3;8;3;0;1;0;0;0;15;2;8;3;0;1;0;0;0;14;2;8;3;0;1;0;0;0;14;8;19;10;1;1;0;0;0;39;7;18;10;1;1;0;0;0;37;7;18;9;1;1;0;0;0;36;2;5;7;0;1;0;0;0;13;5;6;0;1;0;0;0;12;5;6;0;1;0;0;0;12;1;4;3;1;0;0;0;9;1;4;3;1;0;0;0;9;1;4;3;1;0;0;0;9;6;11;3;2;0;0;0;22;6;10;3;2;0;0;0;21;6;10;3;2;0;0;0;21;1;0;5;2;1;0;0;8;0;5;2;1;0;0;8;0;5;2;1;0;0;8;0;9;1;0;0;0;10;0;9;1;0;0;0;10;0;9;1;0;0;0;10;0;14;3;1;0;0;18;0;14;3;1;0;0;18;0;14;3;1;0;0;18;1;0;19;13;10;19;14;6;3;1;0;0;85;0;19;13;10;18;13;6;3;1;0;0;83;0;19;13;10;17;12;6;3;1;0;0;81;3;9;11;14;9;8;12;3;0;0;0;69;3;7;11;13;9;8;12;3;0;0;0;66;3;7;11;12;9;8;12;3;0;0;0;65;3;28;24;24;28;22;18;6;1;0;0;154;3;26;24;23;27;21;18;6;1;0;0;149;3;26;24;22;26;20;18;6;1;0;0;146;7;40 OTOMI V FAM OTO-MANGUE ;3;2;5;1;1;0;2;0;0;1;5;0;1;5;0;1;7;26/06/2012 07:41:00 p.m.
22DPB0088B;BENITO JUAREZ;1;QUERETARO;001;AMEALCO DE BONFIL;0025;MESILLAS;CONOCIDO NUM. 0;;IN;104;22;74;24;30;;;;;;2011;;;;X;1;6;1;0;0;0;0;0;0;0;0;8;1;5;1;0;0;0;0;0;0;0;0;7;1;5;1;0;0;0;0;0;0;0;0;7;0;12;0;1;0;0;0;0;0;0;0;13;0;12;0;1;0;0;0;0;0;0;0;13;0;12;0;1;0;0;0;0;0;0;0;13;1;18;1;1;0;0;0;0;0;0;0;21;1;17;1;1;0;0;0;0;0;0;0;20;1;17;1;1;0;0;0;0;0;0;0;20;1;2;6;2;0;0;0;0;0;0;0;10;2;6;2;0;0;0;0;0;0;0;10;2;6;2;0;0;0;0;0;0;0;10;3;3;3;0;1;0;0;0;0;0;10;3;3;3;0;1;0;0;0;0;0;10;3;3;3;0;1;0;0;0;0;0;10;5;9;5;0;1;0;0;0;0;0;20;5;9;5;0;1;0;0;0;0;0;20;5;9;5;0;1;0;0;0;0;0;20;1;1;11;1;0;0;0;0;0;0;13;1;11;1;0;0;0;0;0;0;13;1;10;1;0;0;0;0;0;0;12;3;12;1;0;0;0;0;0;0;16;3;12;1;0;0;0;0;0;0;16;3;11;1;0;0;0;0;0;0;15;4;23;2;0;0;0;0;0;0;29;4;23;2;0;0;0;0;0;0;29;4;21;2;0;0;0;0;0;0;27;1;2;4;4;0;1;0;0;0;11;2;4;4;0;1;0;0;0;11;2;4;4;0;1;0;0;0;11;3;11;3;0;0;0;0;0;17;3;11;3;0;0;0;0;0;17;3;11;3;0;0;0;0;0;17;5;15;7;0;1;0;0;0;28;5;15;7;0;1;0;0;0;28;5;15;7;0;1;0;0;0;28;1;2;14;3;1;0;0;0;20;2;14;3;1;0;0;0;20;2;14;3;1;0;0;0;20;1;9;4;0;0;0;0;14;1;9;4;0;0;0;0;14;1;9;4;0;0;0;0;14;3;23;7;1;0;0;0;34;3;23;7;1;0;0;0;34;3;23;7;1;0;0;0;34;1;0;10;6;0;0;0;16;0;10;6;0;0;0;16;0;10;6;0;0;0;16;0;9;1;0;0;0;10;0;9;1;0;0;0;10;0;9;1;0;0;0;10;0;19;7;0;0;0;26;0;19;7;0;0;0;26;0;19;7;0;0;0;26;1;1;8;8;15;7;18;13;8;0;0;0;78;1;7;8;15;7;18;13;8;0;0;0;77;1;7;8;14;7;18;13;8;0;0;0;76;0;15;6;19;13;13;13;1;0;0;0;80;0;15;6;19;13;13;13;1;0;0;0;80;0;15;6;18;13;13;13;1;0;0;0;79;1;23;14;34;20;31;26;9;0;0;0;158;1;22;14;34;20;31;26;9;0;0;0;157;1;22;14;32;20;31;26;9;0;0;0;155;6;40 OTOMI V FAM OTO-MANGUE ;0;0;0;1;1;1;1;1;1;0;6;0;1;6;0;0;7;26/06/2012 06:08:00 p.m.
22DPB0089A;RICARDO POZAS ARCINIEGA;2;QUERETARO;001;AMEALCO DE BONFIL;0039;SAN ILDEFONSO TULTEPEC (CENTRO);CONOCIDO NUM. 0;;IN;102;22;74;24;30;;;;;;2011;;;;X;3;26;3;1;0;0;0;0;0;0;0;33;3;26;3;1;0;0;0;0;0;0;0;33;3;26;3;1;0;0;0;0;0;0;0;33;3;22;3;2;0;0;0;0;0;0;0;30;3;22;3;2;0;0;0;0;0;0;0;30;3;22;3;2;0;0;0;0;0;0;0;30;6;48;6;3;0;0;0;0;0;0;0;63;6;48;6;3;0;0;0;0;0;0;0;63;6;48;6;3;0;0;0;0;0;0;0;63;2;1;19;7;2;0;0;0;0;0;0;29;1;19;7;2;0;0;0;0;0;0;29;1;19;7;2;0;0;0;0;0;0;29;3;12;5;0;0;1;0;1;0;0;22;3;12;5;0;0;1;0;0;0;0;21;3;12;5;0;0;1;0;0;0;0;21;4;31;12;2;0;1;0;1;0;0;51;4;31;12;2;0;1;0;0;0;0;50;4;31;12;2;0;1;0;0;0;0;50;2;5;13;1;0;0;1;0;0;0;20;5;13;1;0;0;1;0;0;0;20;5;13;1;0;0;1;0;0;0;20;3;16;1;0;0;0;0;0;0;20;3;16;1;0;0;0;0;0;0;20;3;16;1;0;0;0;0;0;0;20;8;29;2;0;0;1;0;0;0;40;8;29;2;0;0;1;0;0;0;40;8;29;2;0;0;1;0;0;0;40;1;5;20;3;0;0;0;0;0;28;5;20;3;0;0;0;0;0;28;5;20;3;0;0;0;0;0;28;8;16;1;0;1;1;0;0;27;8;16;1;0;1;1;0;0;27;8;15;1;0;1;1;0;0;26;13;36;4;0;1;1;0;0;55;13;36;4;0;1;1;0;0;55;13;35;4;0;1;1;0;0;54;2;3;16;13;0;2;1;0;35;3;15;13;0;2;1;0;34;3;15;13;0;2;1;0;34;4;24;9;0;0;0;1;38;4;24;9;0;0;0;0;37;4;24;8;0;0;0;0;36;7;40;22;0;2;1;1;73;7;39;22;0;2;1;0;71;7;39;21;0;2;1;0;70;3;0;24;4;3;4;0;35;0;23;4;3;3;0;33;0;23;4;3;3;0;33;0;20;1;0;0;1;22;0;20;1;0;0;1;22;0;20;1;0;0;1;22;0;44;5;3;4;1;57;0;43;5;3;3;1;55;0;43;5;3;3;1;55;2;3;27;27;26;26;19;37;5;5;5;0;180;3;27;27;26;26;18;36;5;5;4;0;177;3;27;27;26;26;18;36;5;5;4;0;177;3;25;18;31;21;25;30;2;2;0;2;159;3;25;18;31;21;25;30;2;1;0;1;157;3;25;18;31;20;25;29;2;1;0;1;155;6;52;45;57;47;44;67;7;7;5;2;339;6;52;45;57;47;43;66;7;6;4;1;334;6;52;45;57;46;43;65;7;6;4;1;332;12;40 OTOMI V FAM OTO-MANGUE ;0;0;0;2;2;1;2;3;2;0;12;0;1;12;0;1;14;01/07/2012 02:34:02 a.m.
22DPB0090Q;CUAUHTEMOC;1;QUERETARO;001;AMEALCO DE BONFIL;0047;SANTIAGO MEXQUITITLAN BARRIO 3O.;CONOCIDO, LLANO DE LAS LIEBRES NUM. 0;;IN;101;22;74;24;30;;;;;;2011;;;;X;0;4;10;0;0;0;0;0;0;0;0;14;0;4;10;0;0;0;0;0;0;0;0;14;0;4;9;0;0;0;0;0;0;0;0;13;0;3;5;1;1;0;0;0;0;0;0;10;0;3;5;1;1;0;0;0;0;0;0;10;0;3;5;0;0;0;0;0;0;0;0;8;0;7;15;1;1;0;0;0;0;0;0;24;0;7;15;1;1;0;0;0;0;0;0;24;0;7;14;0;0;0;0;0;0;0;0;21;1;0;4;5;0;0;1;0;0;0;0;10;0;4;5;0;0;1;0;0;0;0;10;0;4;4;0;0;1;0;0;0;0;9;0;8;2;3;0;1;1;0;0;0;15;0;8;2;3;0;1;1;0;0;0;15;0;8;2;2;0;0;1;0;0;0;13;0;12;7;3;0;2;1;0;0;0;25;0;12;7;3;0;2;1;0;0;0;25;0;12;6;2;0;1;1;0;0;0;22;1;0;2;6;0;0;0;0;0;1;9;0;2;6;0;0;0;0;0;1;9;0;2;6;0;0;0;0;0;1;9;0;3;3;0;0;0;0;0;0;6;0;3;3;0;0;0;0;0;0;6;0;3;3;0;0;0;0;0;0;6;0;5;9;0;0;0;0;0;1;15;0;5;9;0;0;0;0;0;1;15;0;5;9;0;0;0;0;0;1;15;1;0;4;3;1;1;0;0;0;9;0;4;3;1;1;0;0;0;9;0;4;3;1;1;0;0;0;9;0;3;1;1;0;0;0;0;5;0;3;1;1;0;0;0;0;5;0;3;1;1;0;0;0;0;5;0;7;4;2;1;0;0;0;14;0;7;4;2;1;0;0;0;14;0;7;4;2;1;0;0;0;14;1;0;7;5;3;2;0;0;17;0;7;5;3;2;0;0;17;0;7;4;2;1;0;0;14;0;2;8;0;0;0;0;10;0;2;8;0;0;0;0;10;0;2;8;0;0;0;0;10;0;9;13;3;2;0;0;27;0;9;13;3;2;0;0;27;0;9;12;2;1;0;0;24;1;0;1;4;1;2;0;8;0;1;4;1;2;0;8;0;1;4;1;2;0;8;0;2;6;1;0;0;9;0;2;6;1;0;0;9;0;2;6;1;0;0;9;0;3;10;2;2;0;17;0;3;10;2;2;0;17;0;3;10;2;2;0;17;1;0;4;14;7;10;10;8;8;3;2;1;67;0;4;14;7;10;10;8;8;3;2;1;67;0;4;13;6;10;10;7;7;2;2;1;62;0;3;13;6;10;3;12;7;1;0;0;55;0;3;13;6;10;3;12;7;1;0;0;55;0;3;13;5;8;3;11;7;1;0;0;51;0;7;27;13;20;13;20;15;4;2;1;122;0;7;27;13;20;13;20;15;4;2;1;122;0;7;26;11;18;13;18;14;3;2;1;113;6;40 OTOMI V FAM OTO-MANGUE ;1;2;3;1;1;0;0;1;1;1;5;0;1;5;0;0;6;27/06/2012 11:42:26 a.m.
22DPB0091P;JUAN DE LA BARRERA;2;QUERETARO;001;AMEALCO DE BONFIL;0038;SAN FELIPE (SANTIAGO MEXQUITITLAN BARRIO 6O.);CONOCIDO NUM. 0;;IN;103;22;74;24;30;;;;;;2011;;;;X;3;12;2;0;0;0;0;0;0;0;0;17;3;10;2;0;0;0;0;0;0;0;0;15;2;10;2;0;0;0;0;0;0;0;0;14;5;13;1;0;1;0;0;0;0;0;0;20;4;13;1;0;1;0;0;0;0;0;0;19;4;12;1;0;1;0;0;0;0;0;0;18;8;25;3;0;1;0;0;0;0;0;0;37;7;23;3;0;1;0;0;0;0;0;0;34;6;22;3;0;1;0;0;0;0;0;0;32;1;4;12;4;1;1;0;0;0;0;0;22;4;12;4;1;1;0;0;0;0;0;22;4;8;3;1;0;0;0;0;0;0;16;3;7;1;1;0;0;0;0;0;0;12;2;7;1;1;0;0;0;0;0;0;11;2;7;1;1;0;0;0;0;0;0;11;7;19;5;2;1;0;0;0;0;0;34;6;19;5;2;1;0;0;0;0;0;33;6;15;4;2;0;0;0;0;0;0;27;1;1;3;1;1;1;0;0;0;0;7;1;3;1;1;1;0;0;0;0;7;1;2;1;1;1;0;0;0;0;6;6;4;2;1;0;0;0;0;0;13;6;4;2;0;0;0;0;0;0;12;6;4;2;0;0;0;0;0;0;12;7;7;3;2;1;0;0;0;0;20;7;7;3;1;1;0;0;0;0;19;7;6;3;1;1;0;0;0;0;18;1;3;4;5;2;1;0;0;0;15;3;4;5;2;1;0;0;0;15;3;4;4;2;1;0;0;0;14;2;8;0;1;0;0;0;0;11;2;7;0;1;0;0;0;0;10;2;7;0;1;0;0;0;0;10;5;12;5;3;1;0;0;0;26;5;11;5;3;1;0;0;0;25;5;11;4;3;1;0;0;0;24;1;2;5;2;1;0;0;0;10;2;4;2;1;0;0;0;9;2;4;2;1;0;0;0;9;1;9;3;1;0;0;0;14;1;9;2;1;0;0;0;13;1;9;1;0;0;0;0;11;3;14;5;2;0;0;0;24;3;13;4;2;0;0;0;22;3;13;3;1;0;0;0;20;1;0;12;0;1;1;0;14;0;12;0;1;1;0;14;0;12;0;1;1;0;14;0;5;1;1;0;0;7;0;5;1;1;0;0;7;0;5;1;1;0;0;7;0;17;1;2;1;0;21;0;17;1;2;1;0;21;0;17;1;2;1;0;21;1;3;16;15;10;8;12;17;2;1;1;0;85;3;14;15;10;8;11;17;2;1;1;0;82;2;14;11;8;8;9;17;2;1;1;0;73;5;16;14;7;13;10;9;2;1;0;0;77;4;15;14;7;12;9;8;2;1;0;0;72;4;14;14;7;12;9;7;1;1;0;0;69;8;32;29;17;21;22;26;4;2;1;0;162;7;29;29;17;20;20;25;4;2;1;0;154;6;28;25;15;20;18;24;3;2;1;0;142;6;40 OTOMI V FAM OTO-MANGUE ;2;3;5;1;1;1;1;1;1;0;6;0;1;6;0;1;8;26/06/2012 03:24:16 p.m.
