30ETH0893U;TELEBACHILLERATO RANCHO ABAJO;2;VERACRUZ DE IGNACIO DE LA LLAVE;154;TANTIMA;0009;RANCHO ABAJO;CALLE S/N NUM. 0;;NE;000;00;62;21;62;;;;;;2011;;;0;7;6;6;0;8;8;8;0;7;6;6;0;8;7;7;0;3;3;3;0;8;8;8;0;0;0;0;0;0;0;0;0;41;38;38;0;HUMANIDADES Y CIENCIAS SOCIALE;3;8;11;;0;0;0;;0;0;0;;0;0;0;;0;0;0;;0;0;0;11;0;0;0;0;0;0;0;0;0;0;0;0;0;0;0;0;0;0;0;0;0;0;0;0;0;1;1;1;0;3;0;3;4;0;0;0;0;0;0;0;0;0;7;0;2;4;0;0;0;0;0;0;0;0;0;6;0;2;4;0;0;0;0;0;0;0;0;0;6;0;6;1;1;0;0;0;0;0;0;0;0;8;0;6;1;1;0;0;0;0;0;0;0;0;8;0;6;1;1;0;0;0;0;0;0;0;0;8;0;6;0;1;0;0;0;0;0;0;0;7;0;5;0;1;0;0;0;0;0;0;0;6;0;5;0;1;0;0;0;0;0;0;0;6;0;5;2;0;1;0;0;0;0;0;0;8;0;4;2;0;1;0;0;0;0;0;0;7;0;4;2;0;1;0;0;0;0;0;0;7;0;2;0;1;0;0;0;0;0;0;3;0;2;0;1;0;0;0;0;0;0;3;0;2;0;1;0;0;0;0;0;0;3;0;7;1;0;0;0;0;0;0;0;8;0;7;1;0;0;0;0;0;0;0;8;0;7;1;0;0;0;0;0;0;0;8;0;0;0;0;0;0;0;0;0;0;0;0;0;0;0;0;0;0;0;0;0;0;0;0;0;0;0;0;0;0;0;0;0;0;0;0;0;0;0;0;0;0;0;0;0;0;0;0;0;0;0;0;0;0;0;0;0;0;0;0;0;3;10;2;1;1;0;0;0;0;0;0;17;0;2;9;2;1;1;0;0;0;0;0;0;15;0;2;9;2;1;1;0;0;0;0;0;0;15;0;6;6;10;1;1;0;0;0;0;0;0;24;0;6;5;10;1;1;0;0;0;0;0;0;23;0;6;5;10;1;1;0;0;0;0;0;0;23;1;0;2;0;0;0;0;0;3;0;3;0;0;3;0;0;0;0;0;0;0;0;0;0;0;0;0;0;0;0;0;0;0;0;0;0;0;0;0;0;0;0;0;0;0;0;0;0;0;0;0;0;0;0;0;0;0;0;02/07/2012 06:14:42 p.m.
30ETH0910U;TELEBACHILLERATO ARROYO SECO;2;VERACRUZ DE IGNACIO DE LA LLAVE;130;PLAYA VICENTE;0015;ARROYO SECO;CALLE S/N NUM. 0;;NE;004;00;52;21;62;;;;;;2011;;;0;6;6;6;0;13;13;13;0;3;3;3;0;7;7;7;0;14;14;14;0;11;11;11;0;0;0;0;0;0;0;0;0;54;54;54;0;ECONOMICO SDMINISTRATIVO;1;0;1;HUMANIDADES ARTE;13;9;22;FISICO MATEMATICO;0;2;2;;0;0;0;;0;0;0;;0;0;0;25;0;0;0;0;0;0;0;0;0;0;0;0;0;0;0;0;0;0;0;0;0;0;0;0;0;1;1;1;0;3;0;1;3;1;1;0;0;0;0;0;0;0;6;0;1;3;1;1;0;0;0;0;0;0;0;6;0;1;3;1;1;0;0;0;0;0;0;0;6;0;6;3;1;3;0;0;0;0;0;0;0;13;0;6;3;1;3;0;0;0;0;0;0;0;13;0;6;3;1;3;0;0;0;0;0;0;0;13;0;0;3;0;0;0;0;0;0;0;0;3;0;0;3;0;0;0;0;0;0;0;0;3;0;0;3;0;0;0;0;0;0;0;0;3;0;3;1;2;1;0;0;0;0;0;0;7;0;3;1;2;1;0;0;0;0;0;0;7;0;3;1;2;1;0;0;0;0;0;0;7;0;6;4;2;2;0;0;0;0;0;14;0;6;4;2;2;0;0;0;0;0;14;0;6;4;2;2;0;0;0;0;0;14;0;7;2;1;1;0;0;0;0;0;11;0;7;2;1;1;0;0;0;0;0;11;0;7;2;1;1;0;0;0;0;0;11;0;0;0;0;0;0;0;0;0;0;0;0;0;0;0;0;0;0;0;0;0;0;0;0;0;0;0;0;0;0;0;0;0;0;0;0;0;0;0;0;0;0;0;0;0;0;0;0;0;0;0;0;0;0;0;0;0;0;0;0;0;1;3;10;5;2;2;0;0;0;0;0;23;0;1;3;10;5;2;2;0;0;0;0;0;23;0;1;3;10;5;2;2;0;0;0;0;0;23;0;6;6;9;7;2;1;0;0;0;0;0;31;0;6;6;9;7;2;1;0;0;0;0;0;31;0;6;6;9;7;2;1;0;0;0;0;0;31;1;0;2;0;0;0;0;0;3;0;3;0;0;3;0;0;0;0;0;0;0;0;0;0;0;0;0;0;0;0;0;0;0;0;0;0;0;0;0;0;0;0;0;0;0;0;0;0;0;0;0;0;0;0;0;0;0;0;30/06/2012 10:49:02 p.m.
30ETH0936B;TELEBACHILLERATO OTATITLAN;2;VERACRUZ DE IGNACIO DE LA LLAVE;180;TLACHICHILCO;0013;OTATITLAN;CALLE PRINCIPAL S/N NUM. 0;;NE;016;00;62;21;62;;;;;;2011;;;0;5;5;5;0;11;11;11;0;3;3;3;0;7;7;7;0;8;8;8;0;10;10;10;0;0;0;0;0;0;0;0;0;44;44;44;0;HUMANIDADES;8;10;18;;0;0;0;;0;0;0;;0;0;0;;0;0;0;;0;0;0;18;0;0;0;0;0;0;0;0;0;0;0;0;0;0;0;0;0;0;0;0;0;0;0;0;0;1;1;1;0;3;0;1;2;2;0;0;0;0;0;0;0;0;5;0;1;2;2;0;0;0;0;0;0;0;0;5;0;1;2;2;0;0;0;0;0;0;0;0;5;0;0;7;3;1;0;0;0;0;0;0;0;11;0;0;7;3;1;0;0;0;0;0;0;0;11;0;0;7;3;1;0;0;0;0;0;0;0;11;0;0;3;0;0;0;0;0;0;0;0;3;0;0;3;0;0;0;0;0;0;0;0;3;0;0;3;0;0;0;0;0;0;0;0;3;0;0;6;0;1;0;0;0;0;0;0;7;0;0;6;0;1;0;0;0;0;0;0;7;0;0;6;0;1;0;0;0;0;0;0;7;0;0;6;1;1;0;0;0;0;0;8;0;0;6;1;1;0;0;0;0;0;8;0;0;6;1;1;0;0;0;0;0;8;0;2;7;1;0;0;0;0;0;0;10;0;2;7;1;0;0;0;0;0;0;10;0;2;7;1;0;0;0;0;0;0;10;0;0;0;0;0;0;0;0;0;0;0;0;0;0;0;0;0;0;0;0;0;0;0;0;0;0;0;0;0;0;0;0;0;0;0;0;0;0;0;0;0;0;0;0;0;0;0;0;0;0;0;0;0;0;0;0;0;0;0;0;0;1;2;5;6;1;1;0;0;0;0;0;16;0;1;2;5;6;1;1;0;0;0;0;0;16;0;1;2;5;6;1;1;0;0;0;0;0;16;0;0;7;11;8;2;0;0;0;0;0;0;28;0;0;7;11;8;2;0;0;0;0;0;0;28;0;0;7;11;8;2;0;0;0;0;0;0;28;1;0;1;0;0;0;0;0;2;2;0;0;0;2;0;0;0;0;0;0;0;0;0;0;0;0;0;0;0;0;0;0;0;0;0;0;0;0;0;0;0;0;0;0;0;0;0;0;0;0;0;0;0;0;0;0;0;0;02/07/2012 10:13:24 a.m.
30ETH0987I;TELEBACHILLERATO LA LLAVE;2;VERACRUZ DE IGNACIO DE LA LLAVE;180;TLACHICHILCO;0009;LA LLAVE;CALLE PRINCIPAL S/N NUM. 0;;NE;000;00;62;21;62;;;;;;2011;;;0;8;8;8;0;9;5;5;0;3;3;3;0;8;5;5;0;13;13;12;1;7;7;7;0;0;0;0;0;0;0;0;0;48;41;40;1;ECONOMICO ADMINISTRATIVO;13;7;20;;0;0;0;;0;0;0;;0;0;0;;0;0;0;;0;0;0;20;0;0;0;0;0;0;0;0;0;0;0;0;0;0;0;0;0;0;0;0;0;0;0;0;0;1;1;1;0;3;0;4;1;1;0;1;0;0;1;0;0;0;8;0;4;1;1;0;1;0;0;1;0;0;0;8;0;4;1;1;0;1;0;0;1;0;0;0;8;0;7;2;0;0;0;0;0;0;0;0;0;9;0;4;1;0;0;0;0;0;0;0;0;0;5;0;4;1;0;0;0;0;0;0;0;0;0;5;0;2;0;1;0;0;0;0;0;0;0;3;0;2;0;1;0;0;0;0;0;0;0;3;0;2;0;1;0;0;0;0;0;0;0;3;0;7;0;0;1;0;0;0;0;0;0;8;0;5;0;0;0;0;0;0;0;0;0;5;0;5;0;0;0;0;0;0;0;0;0;5;0;5;6;1;0;0;0;1;0;0;13;0;5;6;1;0;0;0;1;0;0;13;0;4;6;1;0;0;0;1;0;0;12;1;3;1;1;0;1;0;0;0;0;7;1;3;1;1;0;1;0;0;0;0;7;1;3;1;1;0;1;0;0;0;0;7;0;0;0;0;0;0;0;0;0;0;0;0;0;0;0;0;0;0;0;0;0;0;0;0;0;0;0;0;0;0;0;0;0;0;0;0;0;0;0;0;0;0;0;0;0;0;0;0;0;0;0;0;0;0;0;0;0;0;0;0;0;4;3;6;7;2;0;0;1;1;0;0;24;0;4;3;6;7;2;0;0;1;1;0;0;24;0;4;3;5;7;2;0;0;1;1;0;0;23;0;7;10;3;1;2;0;1;0;0;0;0;24;0;4;7;3;1;1;0;1;0;0;0;0;17;0;4;7;3;1;1;0;1;0;0;0;0;17;1;0;1;0;0;0;0;0;2;0;2;0;0;2;0;0;0;0;0;0;0;0;0;0;0;0;0;0;0;0;0;0;0;0;0;0;0;0;0;0;0;0;0;0;0;0;0;0;0;0;0;0;0;0;0;0;0;0;01/07/2012 06:46:58 p.m.
30ETH1002A;TELEBACHILLERATO ZAPOTE BRAVO;2;VERACRUZ DE IGNACIO DE LA LLAVE;083;IXHUATLAN DE MADERO;0083;ZAPOTE BRAVO;CONOCIDO NUM. 0;;NE;016;00;62;21;62;;;;;;2011;;;0;4;4;4;0;11;11;11;0;7;7;7;0;7;7;7;0;0;0;0;0;0;0;0;0;0;0;0;0;0;0;0;0;29;29;29;0;;0;0;0;;0;0;0;;0;0;0;;0;0;0;;0;0;0;;0;0;0;0;0;0;0;0;0;0;0;0;0;0;0;0;0;0;0;0;0;0;0;0;0;0;0;0;0;1;1;0;0;2;0;2;2;0;0;0;0;0;0;0;0;0;4;0;2;2;0;0;0;0;0;0;0;0;0;4;0;2;2;0;0;0;0;0;0;0;0;0;4;0;6;3;1;0;1;0;0;0;0;0;0;11;0;6;3;1;0;1;0;0;0;0;0;0;11;0;6;3;1;0;1;0;0;0;0;0;0;11;0;2;5;0;0;0;0;0;0;0;0;7;0;2;5;0;0;0;0;0;0;0;0;7;0;2;5;0;0;0;0;0;0;0;0;7;0;2;5;0;0;0;0;0;0;0;0;7;0;2;5;0;0;0;0;0;0;0;0;7;0;2;5;0;0;0;0;0;0;0;0;7;0;0;0;0;0;0;0;0;0;0;0;0;0;0;0;0;0;0;0;0;0;0;0;0;0;0;0;0;0;0;0;0;0;0;0;0;0;0;0;0;0;0;0;0;0;0;0;0;0;0;0;0;0;0;0;0;0;0;0;0;0;0;0;0;0;0;0;0;0;0;0;0;0;0;0;0;0;0;0;0;0;0;0;0;0;0;0;0;0;0;0;0;0;0;0;0;0;0;0;0;0;0;0;0;0;0;0;0;0;0;0;0;0;0;0;0;0;0;0;0;0;0;0;0;0;0;0;2;4;5;0;0;0;0;0;0;0;0;11;0;2;4;5;0;0;0;0;0;0;0;0;11;0;2;4;5;0;0;0;0;0;0;0;0;11;0;6;5;6;0;1;0;0;0;0;0;0;18;0;6;5;6;0;1;0;0;0;0;0;0;18;0;6;5;6;0;1;0;0;0;0;0;0;18;1;0;0;0;0;0;0;0;1;0;1;0;0;1;0;0;0;0;0;0;0;0;0;0;0;0;0;0;0;0;0;0;0;0;0;0;0;0;0;0;0;0;0;0;0;0;0;0;0;0;0;0;0;0;0;0;0;0;28/06/2012 01:21:36 p.m.
30ETH1033U;TELEBACHILLERATO LA MAJAHUA;2;VERACRUZ DE IGNACIO DE LA LLAVE;152;TAMPICO ALTO;0099;LA MAJAHUA;CONOCIDO NUM. 0;;NE;000;00;70;21;62;;;;;;2011;;;0;13;10;10;0;12;12;12;0;15;15;15;0;11;10;10;0;0;0;0;0;0;0;0;0;0;0;0;0;0;0;0;0;51;47;47;0;;0;0;0;;0;0;0;;0;0;0;;0;0;0;;0;0;0;;0;0;0;0;0;0;0;0;0;0;0;0;0;0;0;0;0;0;0;0;0;0;0;0;0;0;0;0;0;1;1;0;0;2;1;6;4;2;0;0;0;0;0;0;0;0;13;1;5;2;2;0;0;0;0;0;0;0;0;10;1;5;2;2;0;0;0;0;0;0;0;0;10;0;8;4;0;0;0;0;0;0;0;0;0;12;0;8;4;0;0;0;0;0;0;0;0;0;12;0;8;4;0;0;0;0;0;0;0;0;0;12;0;3;3;1;0;1;2;1;1;2;1;15;0;3;3;1;0;1;2;1;1;2;1;15;0;3;3;1;0;1;2;1;1;2;1;15;2;2;1;4;2;0;0;0;0;0;0;11;2;2;1;3;2;0;0;0;0;0;0;10;2;2;1;3;2;0;0;0;0;0;0;10;0;0;0;0;0;0;0;0;0;0;0;0;0;0;0;0;0;0;0;0;0;0;0;0;0;0;0;0;0;0;0;0;0;0;0;0;0;0;0;0;0;0;0;0;0;0;0;0;0;0;0;0;0;0;0;0;0;0;0;0;0;0;0;0;0;0;0;0;0;0;0;0;0;0;0;0;0;0;0;0;0;0;0;0;0;0;0;0;0;0;0;0;0;0;0;0;0;0;0;0;0;0;0;0;0;0;0;0;0;0;0;0;0;0;0;0;0;0;0;0;0;0;0;0;0;0;1;6;7;5;1;0;1;2;1;1;2;1;28;1;5;5;5;1;0;1;2;1;1;2;1;25;1;5;5;5;1;0;1;2;1;1;2;1;25;0;10;6;1;4;2;0;0;0;0;0;0;23;0;10;6;1;3;2;0;0;0;0;0;0;22;0;10;6;1;3;2;0;0;0;0;0;0;22;1;0;0;0;0;0;0;0;1;0;1;0;0;1;0;0;0;0;0;0;0;0;0;0;0;0;0;0;0;0;0;0;0;0;0;0;0;0;0;0;0;0;0;0;0;0;0;0;0;0;0;0;0;0;0;0;0;0;02/07/2012 10:05:35 a.m.
30PBH0330D;BENITO JUAREZ;1;VERACRUZ DE IGNACIO DE LA LLAVE;155;TANTOYUCA;0001;TANTOYUCA;MIGUEL HIDALGO NUM. 19 NUM. 0;;NE;000;00;70;61;62;;;;;;2011;;;0;16;16;5;11;14;14;11;3;17;17;9;8;11;11;8;3;8;8;8;0;12;12;11;1;0;0;0;0;0;0;0;0;78;78;52;26;H. CIENCIAS SOCIALES;5;9;14;QUIMICO-BIOLOGICAS;3;3;6;;0;0;0;;0;0;0;;0;0;0;;0;0;0;20;0;0;0;0;0;0;0;0;0;0;0;0;0;0;0;0;0;0;0;0;0;0;0;0;0;1;1;2;0;4;0;3;5;8;0;0;0;0;0;0;0;0;16;0;3;5;8;0;0;0;0;0;0;0;0;16;0;3;1;1;0;0;0;0;0;0;0;0;5;0;5;7;2;0;0;0;0;0;0;0;0;14;0;5;7;2;0;0;0;0;0;0;0;0;14;0;3;7;1;0;0;0;0;0;0;0;0;11;0;6;9;1;1;0;0;0;0;0;0;17;0;6;9;1;1;0;0;0;0;0;0;17;0;4;5;0;0;0;0;0;0;0;0;9;0;4;7;0;0;0;0;0;0;0;0;11;0;4;7;0;0;0;0;0;0;0;0;11;0;2;6;0;0;0;0;0;0;0;0;8;0;5;2;1;0;0;0;0;0;0;8;0;5;2;1;0;0;0;0;0;0;8;0;5;2;1;0;0;0;0;0;0;8;0;7;3;1;0;1;0;0;0;0;12;0;7;3;1;0;1;0;0;0;0;12;0;6;3;1;0;1;0;0;0;0;11;0;0;0;0;0;0;0;0;0;0;0;0;0;0;0;0;0;0;0;0;0;0;0;0;0;0;0;0;0;0;0;0;0;0;0;0;0;0;0;0;0;0;0;0;0;0;0;0;0;0;0;0;0;0;0;0;0;0;0;0;0;3;11;22;3;2;0;0;0;0;0;0;41;0;3;11;22;3;2;0;0;0;0;0;0;41;0;3;5;11;2;1;0;0;0;0;0;0;22;0;5;11;16;3;1;0;1;0;0;0;0;37;0;5;11;16;3;1;0;1;0;0;0;0;37;0;3;9;13;3;1;0;1;0;0;0;0;30;0;1;9;0;0;2;1;14;27;0;0;0;12;12;0;0;0;0;0;0;0;0;0;0;0;0;0;0;0;0;0;0;0;0;0;0;0;0;0;0;0;0;0;0;0;0;0;0;0;0;0;0;0;0;0;0;0;0;02/07/2012 10:50:30 a.m.
30PBH0330D;BENITO JUAREZ;3;VERACRUZ DE IGNACIO DE LA LLAVE;155;TANTOYUCA;0001;TANTOYUCA;MIGUEL HIDALGO NUM. 19 NUM. 0;;NE;000;00;70;61;62;;;;;;2011;;;0;16;16;12;4;2;2;2;0;7;7;5;2;13;13;11;2;5;5;5;0;7;7;7;0;0;0;0;0;0;0;0;0;50;50;42;8;HUM CIENCIAS SOCIALES;5;7;12;;0;0;0;;0;0;0;;0;0;0;;0;0;0;;0;0;0;12;0;0;0;0;0;0;0;0;0;0;0;0;0;0;0;0;0;0;0;0;0;0;0;0;0;1;1;1;0;3;0;1;3;5;3;4;0;0;0;0;0;0;16;0;1;3;5;3;4;0;0;0;0;0;0;16;0;0;2;4;2;4;0;0;0;0;0;0;12;0;0;1;0;0;0;0;1;0;0;0;0;2;0;0;1;0;0;0;0;1;0;0;0;0;2;0;0;1;0;0;0;0;1;0;0;0;0;2;0;2;0;3;2;0;0;0;0;0;0;7;0;2;0;3;2;0;0;0;0;0;0;7;0;2;0;2;1;0;0;0;0;0;0;5;0;4;5;0;3;1;0;0;0;0;0;13;0;4;5;0;3;1;0;0;0;0;0;13;0;4;3;0;3;1;0;0;0;0;0;11;0;0;1;3;0;1;0;0;0;0;5;0;0;1;3;0;1;0;0;0;0;5;0;0;1;3;0;1;0;0;0;0;5;0;3;3;1;0;0;0;0;0;0;7;0;3;3;1;0;0;0;0;0;0;7;0;3;3;1;0;0;0;0;0;0;7;0;0;0;0;0;0;0;0;0;0;0;0;0;0;0;0;0;0;0;0;0;0;0;0;0;0;0;0;0;0;0;0;0;0;0;0;0;0;0;0;0;0;0;0;0;0;0;0;0;0;0;0;0;0;0;0;0;0;0;0;0;1;5;5;7;9;0;1;0;0;0;0;28;0;1;5;5;7;9;0;1;0;0;0;0;28;0;0;4;4;5;8;0;1;0;0;0;0;22;0;0;5;8;3;4;1;1;0;0;0;0;22;0;0;5;8;3;4;1;1;0;0;0;0;22;0;0;5;6;3;4;1;1;0;0;0;0;20;0;1;9;0;0;2;1;14;27;0;0;0;12;12;0;0;0;0;0;0;0;0;0;0;0;0;0;0;0;0;0;0;0;0;0;0;0;0;0;0;0;0;0;0;0;0;0;0;0;0;0;0;0;0;0;0;0;0;02/07/2012 11:45:43 a.m.
30PBH0393P;CONSTITUCION MEXICANA;4;VERACRUZ DE IGNACIO DE LA LLAVE;131;POZA RICA DE HIDALGO;0001;POZA RICA DE HIDALGO;5 DE MAYO NUM. 202 NUM. 0;;NE;000;00;63;61;62;;;;;;2011;;;0;16;8;7;1;10;9;9;0;16;13;10;3;14;10;8;2;21;17;17;0;18;18;16;2;0;0;0;0;0;0;0;0;95;75;67;8;HUMANIDADES Y CIENCIAS SOCIALE;5;14;19;FISICO-MATEMATICA;12;4;16;;0;0;0;;0;0;0;;0;0;0;;0;0;0;35;0;0;0;0;0;0;0;0;0;0;0;0;0;0;0;0;0;0;0;0;0;0;0;0;0;1;1;2;0;4;0;5;2;4;2;1;1;0;0;0;0;1;16;0;3;0;3;0;1;0;0;0;0;0;1;8;0;3;0;2;0;1;0;0;0;0;0;1;7;0;4;2;1;1;1;0;0;1;0;0;0;10;0;4;2;1;1;0;0;0;1;0;0;0;9;0;4;2;1;1;0;0;0;1;0;0;0;9;0;2;1;3;5;4;0;1;0;0;0;16;0;2;1;3;4;2;0;1;0;0;0;13;0;1;1;2;3;2;0;1;0;0;0;10;0;4;3;2;2;1;0;0;0;1;1;14;0;3;3;1;2;0;0;0;0;1;0;10;0;3;1;1;2;0;0;0;0;1;0;8;0;10;5;4;1;0;0;0;0;1;21;0;8;4;4;1;0;0;0;0;0;17;0;8;4;4;1;0;0;0;0;0;17;0;8;5;0;1;0;0;0;0;4;18;0;8;5;0;1;0;0;0;0;4;18;0;7;4;0;1;0;0;0;0;4;16;0;0;0;0;0;0;0;0;0;0;0;0;0;0;0;0;0;0;0;0;0;0;0;0;0;0;0;0;0;0;0;0;0;0;0;0;0;0;0;0;0;0;0;0;0;0;0;0;0;0;0;0;0;0;0;0;0;0;0;0;0;5;4;15;10;10;6;0;1;0;0;2;53;0;3;2;12;7;9;3;0;1;0;0;1;38;0;3;1;11;6;8;3;0;1;0;0;1;34;0;4;6;12;8;3;2;0;1;0;1;5;42;0;4;5;12;7;2;1;0;1;0;1;4;37;0;4;5;9;6;2;1;0;1;0;1;4;33;0;2;12;0;0;0;0;3;17;0;0;0;12;12;0;0;0;0;0;0;0;0;0;0;0;0;0;0;0;0;0;0;0;0;0;0;0;0;0;0;0;0;0;0;0;0;0;0;0;0;0;0;0;0;0;0;0;0;02/07/2012 05:58:22 p.m.
30PBH0456K;ANTON SEMIONOVICH MAKARENKO;4;VERACRUZ DE IGNACIO DE LA LLAVE;131;POZA RICA DE HIDALGO;0001;POZA RICA DE HIDALGO;PERU NUM. 108 NUM. 0;;NE;000;00;63;61;62;;;;;;2011;;;0;1;0;0;0;2;1;1;0;5;4;4;0;4;3;3;0;4;3;3;0;3;2;2;0;0;0;0;0;0;0;0;0;19;13;13;0;ECONOMICO-ADMINISTRATIVO;1;0;1;FISICO-MATEMATICO;1;2;3;HUMANIDADES;1;1;2;;0;0;0;;0;0;0;;0;0;0;6;0;0;0;0;0;0;0;0;0;0;0;0;0;0;0;0;0;0;0;0;0;0;0;0;0;1;1;3;0;5;0;0;0;1;0;0;0;0;0;0;0;0;1;0;0;0;0;0;0;0;0;0;0;0;0;0;0;0;0;0;0;0;0;0;0;0;0;0;0;0;0;0;0;0;0;1;1;0;0;0;0;2;0;0;0;0;0;0;0;1;0;0;0;0;1;0;0;0;0;0;0;0;1;0;0;0;0;1;0;2;1;2;0;0;0;0;0;0;0;5;0;2;1;1;0;0;0;0;0;0;0;4;0;2;1;1;0;0;0;0;0;0;0;4;0;0;2;1;0;0;0;0;1;0;0;4;0;0;2;0;0;0;0;0;1;0;0;3;0;0;2;0;0;0;0;0;1;0;0;3;0;1;1;0;0;1;0;0;0;1;4;0;1;0;0;0;1;0;0;0;1;3;0;1;0;0;0;1;0;0;0;1;3;0;1;0;0;1;0;0;0;0;1;3;0;1;0;0;1;0;0;0;0;0;2;0;1;0;0;1;0;0;0;0;0;2;0;0;0;0;0;0;0;0;0;0;0;0;0;0;0;0;0;0;0;0;0;0;0;0;0;0;0;0;0;0;0;0;0;0;0;0;0;0;0;0;0;0;0;0;0;0;0;0;0;0;0;0;0;0;0;0;0;0;0;0;0;0;2;3;3;0;0;1;0;0;0;1;10;0;0;2;2;1;0;0;1;0;0;0;1;7;0;0;2;2;1;0;0;1;0;0;0;1;7;0;0;0;3;1;0;2;1;0;1;0;1;9;0;0;0;3;0;0;1;1;0;1;0;0;6;0;0;0;3;0;0;1;1;0;1;0;0;6;0;2;9;0;0;0;1;6;18;0;0;0;10;10;0;0;0;0;0;0;0;0;0;0;0;0;0;0;0;0;0;0;0;0;0;0;0;0;0;0;0;0;0;0;0;0;0;0;0;0;0;0;0;0;0;0;0;0;29/06/2012 08:38:02 p.m.
30PBH0601F;INSTITUTO MINERVA;1;VERACRUZ DE IGNACIO DE LA LLAVE;128;PEROTE;0001;PEROTE;TLATELOLCO ESQUINA ANAHUAC NUM. 0;;NE;000;00;56;61;62;;;;;;2011;;;0;4;3;3;0;2;1;1;0;3;3;3;0;2;1;1;0;3;3;3;0;2;2;2;0;0;0;0;0;0;0;0;0;16;13;13;0;FISICO MATEMATICA;2;1;3;HUMANIDADES Y CIENCIAS S.;0;1;1;;0;0;0;;0;0;0;;0;0;0;;0;0;0;4;0;0;0;0;0;0;0;0;0;0;0;0;0;0;0;0;0;0;0;0;0;0;0;0;0;1;1;1;0;3;0;0;4;0;0;0;0;0;0;0;0;0;4;0;0;3;0;0;0;0;0;0;0;0;0;3;0;0;3;0;0;0;0;0;0;0;0;0;3;0;0;2;0;0;0;0;0;0;0;0;0;2;0;0;1;0;0;0;0;0;0;0;0;0;1;0;0;1;0;0;0;0;0;0;0;0;0;1;0;0;3;0;0;0;0;0;0;0;0;3;0;0;3;0;0;0;0;0;0;0;0;3;0;0;3;0;0;0;0;0;0;0;0;3;0;0;2;0;0;0;0;0;0;0;0;2;0;0;1;0;0;0;0;0;0;0;0;1;0;0;1;0;0;0;0;0;0;0;0;1;0;0;3;0;0;0;0;0;0;0;3;0;0;3;0;0;0;0;0;0;0;3;0;0;3;0;0;0;0;0;0;0;3;0;0;2;0;0;0;0;0;0;0;2;0;0;2;0;0;0;0;0;0;0;2;0;0;2;0;0;0;0;0;0;0;2;0;0;0;0;0;0;0;0;0;0;0;0;0;0;0;0;0;0;0;0;0;0;0;0;0;0;0;0;0;0;0;0;0;0;0;0;0;0;0;0;0;0;0;0;0;0;0;0;0;0;0;0;0;0;0;0;0;0;0;0;0;0;4;3;3;0;0;0;0;0;0;0;10;0;0;3;3;3;0;0;0;0;0;0;0;9;0;0;3;3;3;0;0;0;0;0;0;0;9;0;0;2;2;2;0;0;0;0;0;0;0;6;0;0;1;1;2;0;0;0;0;0;0;0;4;0;0;1;1;2;0;0;0;0;0;0;0;4;0;1;6;0;0;1;1;0;9;6;0;0;2;8;0;0;0;0;0;0;0;0;0;0;0;0;0;0;0;0;0;0;0;0;0;0;0;0;0;0;0;0;0;0;0;0;0;0;0;0;0;0;0;0;0;0;0;0;02/07/2012 11:05:53 a.m.
30PBH3193L;MIGUEL DE CERVANTES SAAVEDRA;1;VERACRUZ DE IGNACIO DE LA LLAVE;131;POZA RICA DE HIDALGO;0001;POZA RICA DE HIDALGO;ESQUINA UNION CON AGRICULTURA NUM. 0;;MS;000;00;63;61;62;;;;;;2011;;;0;17;16;16;0;13;10;10;0;18;17;17;0;12;8;8;0;16;16;15;1;15;15;14;1;0;0;0;0;0;0;0;0;91;82;80;2;BACHILLERATO GENERAL;16;15;31;;0;0;0;;0;0;0;;0;0;0;;0;0;0;;0;0;0;31;0;0;0;0;0;0;0;0;0;0;0;0;0;0;0;0;0;0;0;0;0;0;0;0;0;1;1;1;0;3;0;5;10;1;1;0;0;0;0;0;0;0;17;0;4;10;1;1;0;0;0;0;0;0;0;16;0;4;10;1;1;0;0;0;0;0;0;0;16;1;1;9;1;1;0;0;0;0;0;0;0;13;0;1;8;1;0;0;0;0;0;0;0;0;10;0;1;8;1;0;0;0;0;0;0;0;0;10;0;1;12;5;0;0;0;0;0;0;0;18;0;1;12;4;0;0;0;0;0;0;0;17;0;1;12;4;0;0;0;0;0;0;0;17;0;1;10;1;0;0;0;0;0;0;0;12;0;1;6;1;0;0;0;0;0;0;0;8;0;1;6;1;0;0;0;0;0;0;0;8;0;1;10;5;0;0;0;0;0;0;16;0;1;10;5;0;0;0;0;0;0;16;0;1;10;4;0;0;0;0;0;0;15;0;3;11;1;0;0;0;0;0;0;15;0;3;11;1;0;0;0;0;0;0;15;0;3;11;0;0;0;0;0;0;0;14;0;0;0;0;0;0;0;0;0;0;0;0;0;0;0;0;0;0;0;0;0;0;0;0;0;0;0;0;0;0;0;0;0;0;0;0;0;0;0;0;0;0;0;0;0;0;0;0;0;0;0;0;0;0;0;0;0;0;0;0;0;5;11;14;16;5;0;0;0;0;0;0;51;0;4;11;14;15;5;0;0;0;0;0;0;49;0;4;11;14;15;4;0;0;0;0;0;0;48;1;1;10;14;13;1;0;0;0;0;0;0;40;0;1;9;10;12;1;0;0;0;0;0;0;33;0;1;9;10;12;0;0;0;0;0;0;0;32;1;0;10;1;1;1;1;2;17;5;0;0;10;15;0;0;0;0;0;0;0;0;0;0;0;0;0;0;0;0;0;0;0;0;0;0;0;0;0;0;0;0;0;0;0;0;0;0;0;0;0;0;0;0;0;0;0;0;27/06/2012 12:17:30 a.m.
30PBH3701Z;PREPARATORIA IBERO VERACRUZ;1;VERACRUZ DE IGNACIO DE LA LLAVE;028;BOCA DEL RIO;0001;BOCA DEL RIO;ALMACIGO NUM. 87 NUM. 0;;MS;000;00;61;61;62;;;;;;2011;;;0;8;8;7;1;13;13;13;0;10;10;9;1;9;9;9;0;10;10;10;0;19;19;19;0;0;0;0;0;0;0;0;0;69;69;67;2;FISICO MATEMATICOS;6;2;8;QUIMICO BIOLOGICOS;1;2;3;ECONOMICO ADMINISTRATIVO;7;5;12;HUMANIDADES;5;1;6;;0;0;0;;0;0;0;29;0;0;0;0;0;0;0;0;0;0;0;0;0;0;0;0;0;0;0;0;0;0;0;0;0;1;1;1;0;3;0;7;1;0;0;0;0;0;0;0;0;0;8;0;7;1;0;0;0;0;0;0;0;0;0;8;0;6;1;0;0;0;0;0;0;0;0;0;7;0;10;3;0;0;0;0;0;0;0;0;0;13;0;10;3;0;0;0;0;0;0;0;0;0;13;0;10;3;0;0;0;0;0;0;0;0;0;13;0;0;10;0;0;0;0;0;0;0;0;10;0;0;10;0;0;0;0;0;0;0;0;10;0;0;9;0;0;0;0;0;0;0;0;9;0;0;8;1;0;0;0;0;0;0;0;9;0;0;8;1;0;0;0;0;0;0;0;9;0;0;8;1;0;0;0;0;0;0;0;9;0;0;9;1;0;0;0;0;0;0;10;0;0;9;1;0;0;0;0;0;0;10;0;0;9;1;0;0;0;0;0;0;10;0;1;18;0;0;0;0;0;0;0;19;0;1;18;0;0;0;0;0;0;0;19;0;1;18;0;0;0;0;0;0;0;19;0;0;0;0;0;0;0;0;0;0;0;0;0;0;0;0;0;0;0;0;0;0;0;0;0;0;0;0;0;0;0;0;0;0;0;0;0;0;0;0;0;0;0;0;0;0;0;0;0;0;0;0;0;0;0;0;0;0;0;0;0;7;1;10;9;1;0;0;0;0;0;0;28;0;7;1;10;9;1;0;0;0;0;0;0;28;0;6;1;9;9;1;0;0;0;0;0;0;26;0;10;3;9;19;0;0;0;0;0;0;0;41;0;10;3;9;19;0;0;0;0;0;0;0;41;0;10;3;9;19;0;0;0;0;0;0;0;41;2;2;14;5;3;1;4;5;36;2;0;0;27;29;0;0;0;0;0;0;0;0;0;0;0;0;0;0;0;0;0;0;0;0;0;0;0;0;0;0;0;0;0;0;0;0;0;0;0;0;0;0;0;0;0;0;0;0;02/07/2012 06:14:13 p.m.
30ETH0023G;TELEBACHILLERATO OJITAL CUAYO;1;VERACRUZ DE IGNACIO DE LA LLAVE;083;IXHUATLAN DE MADERO;0046;OJITAL CUAYO;AVENIDA LAZARO CARDENAS Y MIGUEL HIDALGO S/N NUM. 0;;NE;016;00;62;21;62;;;;;;2011;;;0;13;13;13;0;11;11;11;0;5;5;5;0;4;4;4;0;7;7;7;0;7;7;7;0;0;0;0;0;0;0;0;0;47;47;47;0;QUIM. BIOLOGICO;3;2;5;HUMANIDADES Y C. SOCIALES;4;5;9;;0;0;0;;0;0;0;;0;0;0;;0;0;0;14;0;0;0;0;0;0;0;0;0;0;0;0;0;0;0;0;0;0;0;0;0;0;0;0;0;1;1;1;0;3;0;6;5;2;0;0;0;0;0;0;0;0;13;0;6;5;2;0;0;0;0;0;0;0;0;13;0;6;5;2;0;0;0;0;0;0;0;0;13;0;4;7;0;0;0;0;0;0;0;0;0;11;0;4;7;0;0;0;0;0;0;0;0;0;11;0;4;7;0;0;0;0;0;0;0;0;0;11;0;0;4;1;0;0;0;0;0;0;0;5;0;0;4;1;0;0;0;0;0;0;0;5;0;0;4;1;0;0;0;0;0;0;0;5;0;2;2;0;0;0;0;0;0;0;0;4;0;2;2;0;0;0;0;0;0;0;0;4;0;2;2;0;0;0;0;0;0;0;0;4;0;0;7;0;0;0;0;0;0;0;7;0;0;7;0;0;0;0;0;0;0;7;0;0;7;0;0;0;0;0;0;0;7;0;2;4;1;0;0;0;0;0;0;7;0;2;4;1;0;0;0;0;0;0;7;0;2;4;1;0;0;0;0;0;0;7;0;0;0;0;0;0;0;0;0;0;0;0;0;0;0;0;0;0;0;0;0;0;0;0;0;0;0;0;0;0;0;0;0;0;0;0;0;0;0;0;0;0;0;0;0;0;0;0;0;0;0;0;0;0;0;0;0;0;0;0;0;6;5;6;8;0;0;0;0;0;0;0;25;0;6;5;6;8;0;0;0;0;0;0;0;25;0;6;5;6;8;0;0;0;0;0;0;0;25;0;4;9;4;4;1;0;0;0;0;0;0;22;0;4;9;4;4;1;0;0;0;0;0;0;22;0;4;9;4;4;1;0;0;0;0;0;0;22;1;0;2;0;0;0;0;0;3;0;3;0;0;3;0;0;0;0;0;0;0;0;0;0;0;0;0;0;0;0;0;0;0;0;0;0;0;0;0;0;0;0;0;0;0;0;0;0;0;0;0;0;0;0;0;0;0;0;30/06/2012 11:06:39 a.m.
30ETH0030Q;TELEBACHILLERATO PLATON SANCHEZ;2;VERACRUZ DE IGNACIO DE LA LLAVE;129;PLATON SANCHEZ;0001;PLATON SANCHEZ;CALLE HIDALGO NUM. NUM. 0;;NE;012;00;70;21;62;;;;;;2011;;;0;49;46;22;24;70;70;50;20;60;58;45;13;45;43;38;5;50;50;37;13;63;63;60;3;0;0;0;0;0;0;0;0;337;330;252;78;QUIMICO BIOLOGICO;5;18;23;ECONOMICO ADMINISTRATIVO;7;5;12;HUMANIDADES Y C. SOCIALES;23;32;55;FISICO MATEMATICO;15;8;23;;0;0;0;;0;0;0;113;0;0;0;0;0;0;0;0;0;0;0;0;0;0;0;0;0;0;0;0;0;0;0;0;0;4;4;4;0;12;1;32;11;3;2;0;0;0;0;0;0;0;49;1;30;11;2;2;0;0;0;0;0;0;0;46;0;16;4;2;0;0;0;0;0;0;0;0;22;2;56;10;2;0;0;0;0;0;0;0;0;70;2;56;10;2;0;0;0;0;0;0;0;0;70;2;39;7;2;0;0;0;0;0;0;0;0;50;1;46;10;1;2;0;0;0;0;0;0;60;1;44;10;1;2;0;0;0;0;0;0;58;1;39;3;0;2;0;0;0;0;0;0;45;2;39;3;1;0;0;0;0;0;0;0;45;2;38;3;0;0;0;0;0;0;0;0;43;1;34;3;0;0;0;0;0;0;0;0;38;0;37;9;2;2;0;0;0;0;0;50;0;37;9;2;2;0;0;0;0;0;50;0;27;6;2;2;0;0;0;0;0;37;2;50;8;3;0;0;0;0;0;0;63;2;50;8;3;0;0;0;0;0;0;63;2;47;8;3;0;0;0;0;0;0;60;0;0;0;0;0;0;0;0;0;0;0;0;0;0;0;0;0;0;0;0;0;0;0;0;0;0;0;0;0;0;0;0;0;0;0;0;0;0;0;0;0;0;0;0;0;0;0;0;0;0;0;0;0;0;0;0;0;0;0;0;1;33;57;50;12;4;2;0;0;0;0;0;159;1;31;55;49;12;4;2;0;0;0;0;0;154;0;17;43;32;6;4;2;0;0;0;0;0;104;2;58;51;55;9;3;0;0;0;0;0;0;178;2;58;50;55;8;3;0;0;0;0;0;0;176;2;40;43;52;8;3;0;0;0;0;0;0;148;0;1;12;0;0;0;0;2;15;0;12;0;0;12;0;0;0;0;0;0;0;0;0;0;0;0;0;0;0;0;0;0;0;0;0;0;0;0;0;0;0;0;0;0;0;0;0;0;0;0;0;0;0;0;0;0;0;0;02/07/2012 11:57:49 a.m.
30ETH0031P;TELEBACHILLERATO TANCOCO;1;VERACRUZ DE IGNACIO DE LA LLAVE;153;TANCOCO;0001;TANCOCO;CARRETERA TANCOCO-TAMALIN NUM. 0;;NE;000;00;62;21;62;;;;;;2011;;;0;14;14;10;4;12;12;10;2;18;18;15;3;9;9;8;1;10;10;9;1;16;16;15;1;0;0;0;0;0;0;0;0;79;79;67;12;QUÍMICO BIOLÓGICO;2;7;9;HUMANIDADES Y CIENCIAS SOCIALE;8;9;17;;0;0;0;;0;0;0;;0;0;0;;0;0;0;26;0;0;0;0;0;0;0;0;0;0;0;0;0;0;0;0;0;0;0;0;0;0;0;0;0;1;1;1;0;3;3;10;1;0;0;0;0;0;0;0;0;0;14;3;10;1;0;0;0;0;0;0;0;0;0;14;3;7;0;0;0;0;0;0;0;0;0;0;10;2;8;2;0;0;0;0;0;0;0;0;0;12;2;8;2;0;0;0;0;0;0;0;0;0;12;2;7;1;0;0;0;0;0;0;0;0;0;10;1;14;2;1;0;0;0;0;0;0;0;18;1;14;2;1;0;0;0;0;0;0;0;18;1;12;1;1;0;0;0;0;0;0;0;15;0;8;1;0;0;0;0;0;0;0;0;9;0;8;1;0;0;0;0;0;0;0;0;9;0;8;0;0;0;0;0;0;0;0;0;8;1;6;3;0;0;0;0;0;0;0;10;1;6;3;0;0;0;0;0;0;0;10;1;6;2;0;0;0;0;0;0;0;9;0;11;5;0;0;0;0;0;0;0;16;0;11;5;0;0;0;0;0;0;0;16;0;10;5;0;0;0;0;0;0;0;15;0;0;0;0;0;0;0;0;0;0;0;0;0;0;0;0;0;0;0;0;0;0;0;0;0;0;0;0;0;0;0;0;0;0;0;0;0;0;0;0;0;0;0;0;0;0;0;0;0;0;0;0;0;0;0;0;0;0;0;0;3;11;16;8;4;0;0;0;0;0;0;0;42;3;11;16;8;4;0;0;0;0;0;0;0;42;3;8;13;7;3;0;0;0;0;0;0;0;34;2;8;10;12;5;0;0;0;0;0;0;0;37;2;8;10;12;5;0;0;0;0;0;0;0;37;2;7;9;10;5;0;0;0;0;0;0;0;33;1;0;2;0;0;0;0;0;3;0;3;0;0;3;0;0;0;0;0;0;0;0;0;0;0;0;0;0;0;0;0;0;0;0;0;0;0;0;0;0;0;0;0;0;0;0;0;0;0;0;0;0;0;0;0;0;0;0;28/06/2012 09:55:24 p.m.
30ETH0047Q;TELEBACHILLERATO TLACHICHILCO;1;VERACRUZ DE IGNACIO DE LA LLAVE;180;TLACHICHILCO;0001;TLACHICHILCO;MIGUEL HIDALGO S/N NUM. 0;;NE;016;00;62;21;62;;;;;;2011;;;0;40;28;22;6;36;28;27;1;24;23;22;1;30;26;26;0;24;24;24;0;21;21;21;0;0;0;0;0;0;0;0;0;175;150;142;8;QUIMICO-BIOLOGICO;3;8;11;ECONOMICO-ADMINISTRATIVO;7;2;9;HUMANIDADES Y C. SOCIALES;11;10;21;FISICO-MATEMATICO;3;1;4;;0;0;0;;0;0;0;45;0;0;0;0;0;0;0;0;0;0;0;0;0;0;0;0;0;0;0;0;0;0;0;0;0;2;2;2;0;6;0;23;14;1;2;0;0;0;0;0;0;0;40;0;20;6;0;2;0;0;0;0;0;0;0;28;0;17;4;0;1;0;0;0;0;0;0;0;22;0;23;8;3;2;0;0;0;0;0;0;0;36;0;20;5;2;1;0;0;0;0;0;0;0;28;0;20;4;2;1;0;0;0;0;0;0;0;27;0;8;8;3;4;1;0;0;0;0;0;24;0;8;8;3;4;0;0;0;0;0;0;23;0;8;8;3;3;0;0;0;0;0;0;22;1;9;14;4;1;1;0;0;0;0;0;30;1;9;12;3;1;0;0;0;0;0;0;26;1;9;12;3;1;0;0;0;0;0;0;26;0;11;9;4;0;0;0;0;0;0;24;0;11;9;4;0;0;0;0;0;0;24;0;11;9;4;0;0;0;0;0;0;24;0;13;6;1;1;0;0;0;0;0;21;0;13;6;1;1;0;0;0;0;0;21;0;13;6;1;1;0;0;0;0;0;21;0;0;0;0;0;0;0;0;0;0;0;0;0;0;0;0;0;0;0;0;0;0;0;0;0;0;0;0;0;0;0;0;0;0;0;0;0;0;0;0;0;0;0;0;0;0;0;0;0;0;0;0;0;0;0;0;0;0;0;0;0;23;22;20;14;8;1;0;0;0;0;0;88;0;20;14;19;14;8;0;0;0;0;0;0;75;0;17;12;19;13;7;0;0;0;0;0;0;68;0;24;17;30;12;2;2;0;0;0;0;0;87;0;21;14;27;10;2;1;0;0;0;0;0;75;0;21;13;27;10;2;1;0;0;0;0;0;74;1;0;4;0;0;0;0;1;6;0;5;0;0;5;0;0;0;0;0;0;0;0;0;0;0;0;0;0;0;0;0;0;0;0;0;0;0;0;0;0;0;0;0;0;0;0;0;0;0;0;0;0;0;0;0;0;0;0;29/06/2012 02:35:20 p.m.
30ETH0050D;TELEBACHILLERATO SAN MARTIN;1;VERACRUZ DE IGNACIO DE LA LLAVE;083;IXHUATLAN DE MADERO;0067;SAN MARTIN;ARMIN MONTES DE HONOR (CALLE PRINCIPAL) NUM. 0;;NE;016;00;62;21;62;;;;;;2011;;;0;9;9;8;1;7;7;7;0;4;4;4;0;7;7;7;0;4;4;4;0;8;8;8;0;0;0;0;0;0;0;0;0;39;39;38;1;ECONOMICO-ADMISNIST.;2;1;3;HUMANIDADES Y C.S.;2;7;9;;0;0;0;;0;0;0;;0;0;0;;0;0;0;12;0;0;0;0;0;0;0;0;0;0;0;0;0;0;0;0;0;0;0;0;0;0;0;0;0;1;1;1;0;3;0;4;1;1;2;1;0;0;0;0;0;0;9;0;4;1;1;2;1;0;0;0;0;0;0;9;0;4;1;1;2;0;0;0;0;0;0;0;8;0;2;3;2;0;0;0;0;0;0;0;0;7;0;2;3;2;0;0;0;0;0;0;0;0;7;0;2;3;2;0;0;0;0;0;0;0;0;7;0;1;1;1;1;0;0;0;0;0;0;4;0;1;1;1;1;0;0;0;0;0;0;4;0;1;1;1;1;0;0;0;0;0;0;4;0;5;2;0;0;0;0;0;0;0;0;7;0;5;2;0;0;0;0;0;0;0;0;7;0;5;2;0;0;0;0;0;0;0;0;7;0;4;0;0;0;0;0;0;0;0;4;0;4;0;0;0;0;0;0;0;0;4;0;4;0;0;0;0;0;0;0;0;4;0;3;4;1;0;0;0;0;0;0;8;0;3;4;1;0;0;0;0;0;0;8;0;3;4;1;0;0;0;0;0;0;8;0;0;0;0;0;0;0;0;0;0;0;0;0;0;0;0;0;0;0;0;0;0;0;0;0;0;0;0;0;0;0;0;0;0;0;0;0;0;0;0;0;0;0;0;0;0;0;0;0;0;0;0;0;0;0;0;0;0;0;0;0;4;2;6;3;2;0;0;0;0;0;0;17;0;4;2;6;3;2;0;0;0;0;0;0;17;0;4;2;6;3;1;0;0;0;0;0;0;16;0;2;8;7;4;1;0;0;0;0;0;0;22;0;2;8;7;4;1;0;0;0;0;0;0;22;0;2;8;7;4;1;0;0;0;0;0;0;22;1;0;2;0;0;0;0;0;3;0;3;0;0;3;0;0;0;0;0;0;0;0;0;0;0;0;0;0;0;0;0;0;0;0;0;0;0;0;0;0;0;0;0;0;0;0;0;0;0;0;0;0;0;0;0;0;0;0;28/06/2012 04:20:50 p.m.
30ETH0482S;TELEBACHILLERATO CRUZ DEL MILAGRO;1;VERACRUZ DE IGNACIO DE LA LLAVE;144;SAYULA DE ALEMAN;0013;CRUZ DEL MILAGRO;CONOCIDO NUM. 0;;NE;013;00;73;21;62;;;;;;2011;;;0;9;8;8;0;7;7;7;0;15;15;15;0;7;7;7;0;7;7;7;0;7;7;7;0;0;0;0;0;0;0;0;0;52;51;51;0;HUMANIDADES Y C.S.;7;7;14;;0;0;0;;0;0;0;;0;0;0;;0;0;0;;0;0;0;14;0;0;0;0;0;0;0;0;0;0;0;0;0;0;0;0;0;0;0;0;0;0;0;0;0;1;1;1;0;3;0;3;4;1;1;0;0;0;0;0;0;0;9;0;2;4;1;1;0;0;0;0;0;0;0;8;0;2;4;1;1;0;0;0;0;0;0;0;8;0;1;6;0;0;0;0;0;0;0;0;0;7;0;1;6;0;0;0;0;0;0;0;0;0;7;0;1;6;0;0;0;0;0;0;0;0;0;7;0;4;7;3;1;0;0;0;0;0;0;15;0;4;7;3;1;0;0;0;0;0;0;15;0;4;7;3;1;0;0;0;0;0;0;15;0;2;4;1;0;0;0;0;0;0;0;7;0;2;4;1;0;0;0;0;0;0;0;7;0;2;4;1;0;0;0;0;0;0;0;7;0;3;1;2;1;0;0;0;0;0;7;0;3;1;2;1;0;0;0;0;0;7;0;3;1;2;1;0;0;0;0;0;7;0;5;0;2;0;0;0;0;0;0;7;0;5;0;2;0;0;0;0;0;0;7;0;5;0;2;0;0;0;0;0;0;7;0;0;0;0;0;0;0;0;0;0;0;0;0;0;0;0;0;0;0;0;0;0;0;0;0;0;0;0;0;0;0;0;0;0;0;0;0;0;0;0;0;0;0;0;0;0;0;0;0;0;0;0;0;0;0;0;0;0;0;0;0;3;8;11;5;3;1;0;0;0;0;0;31;0;2;8;11;5;3;1;0;0;0;0;0;30;0;2;8;11;5;3;1;0;0;0;0;0;30;0;1;8;9;1;2;0;0;0;0;0;0;21;0;1;8;9;1;2;0;0;0;0;0;0;21;0;1;8;9;1;2;0;0;0;0;0;0;21;1;0;4;0;0;0;0;0;5;0;5;0;0;5;0;0;0;0;0;0;0;0;0;0;0;0;0;0;0;0;0;0;0;0;0;0;0;0;0;0;0;0;0;0;0;0;0;0;0;0;0;0;0;0;0;0;0;0;01/07/2012 01:31:15 p.m.
30ETH0483R;TELEBACHILLERATO COLONIA LEALTAD;1;VERACRUZ DE IGNACIO DE LA LLAVE;145;SOCONUSCO;0025;COLONIA LEALTAD;ZACATECAS S/N NUM. 0;;NE;001;00;73;21;62;;;;;;2011;;;0;17;17;17;0;13;11;11;0;15;12;12;0;13;12;12;0;9;7;7;0;13;13;13;0;0;0;0;0;0;0;0;0;80;72;72;0;HUMANIDADES Y C. SOCIALES;7;13;20;;0;0;0;;0;0;0;;0;0;0;;0;0;0;;0;0;0;20;0;0;0;0;0;0;0;0;0;0;0;0;0;0;0;0;0;0;0;0;0;0;0;0;0;1;1;1;0;3;1;10;5;0;0;1;0;0;0;0;0;0;17;1;10;5;0;0;1;0;0;0;0;0;0;17;1;10;5;0;0;1;0;0;0;0;0;0;17;0;7;4;2;0;0;0;0;0;0;0;0;13;0;5;4;2;0;0;0;0;0;0;0;0;11;0;5;4;2;0;0;0;0;0;0;0;0;11;0;6;5;3;1;0;0;0;0;0;0;15;0;5;4;2;1;0;0;0;0;0;0;12;0;5;4;2;1;0;0;0;0;0;0;12;0;8;5;0;0;0;0;0;0;0;0;13;0;7;5;0;0;0;0;0;0;0;0;12;0;7;5;0;0;0;0;0;0;0;0;12;0;4;3;1;1;0;0;0;0;0;9;0;4;1;1;1;0;0;0;0;0;7;0;4;1;1;1;0;0;0;0;0;7;0;7;5;0;0;1;0;0;0;0;13;0;7;5;0;0;1;0;0;0;0;13;0;7;5;0;0;1;0;0;0;0;13;0;0;0;0;0;0;0;0;0;0;0;0;0;0;0;0;0;0;0;0;0;0;0;0;0;0;0;0;0;0;0;0;0;0;0;0;0;0;0;0;0;0;0;0;0;0;0;0;0;0;0;0;0;0;0;0;0;0;0;0;1;10;11;9;6;3;1;0;0;0;0;0;41;1;10;10;8;3;3;1;0;0;0;0;0;36;1;10;10;8;3;3;1;0;0;0;0;0;36;0;7;12;14;5;0;0;1;0;0;0;0;39;0;5;11;14;5;0;0;1;0;0;0;0;36;0;5;11;14;5;0;0;1;0;0;0;0;36;1;0;2;0;0;0;0;0;3;0;3;0;0;3;0;0;0;0;0;0;0;0;0;0;0;0;0;0;0;0;0;0;0;0;0;0;0;0;0;0;0;0;0;0;0;0;0;0;0;0;0;0;0;0;0;0;0;0;02/07/2012 05:39:28 p.m.
30SBC2156C;LAZARO CARDENAS DEL RIO;1;VERACRUZ DE IGNACIO DE LA LLAVE;108;MINATITLAN;0001;MINATITLAN;MONTEVIDEO NUM. 7 NUM. 0;;MS;000;00;49;41;62;;;;;;2011;;;0;44;44;36;8;40;40;37;3;23;23;16;7;26;26;18;8;34;34;30;4;43;43;43;0;0;0;0;0;0;0;0;0;210;210;180;30;CS. SOC-HUM/ECO-ADMVAS;8;18;26;CS. QUIMICO-BIOLOGICAS;6;19;25;CS. FISICO-MATEMATICAS;20;6;26;;0;0;0;;0;0;0;;0;0;0;77;0;0;0;0;0;0;0;0;0;0;0;0;0;0;0;0;0;0;0;0;0;0;0;0;0;3;2;3;0;8;0;6;30;6;2;0;0;0;0;0;0;0;44;0;6;30;6;2;0;0;0;0;0;0;0;44;0;6;24;5;1;0;0;0;0;0;0;0;36;0;7;26;7;0;0;0;0;0;0;0;0;40;0;7;26;7;0;0;0;0;0;0;0;0;40;0;6;24;7;0;0;0;0;0;0;0;0;37;0;3;12;6;2;0;0;0;0;0;0;23;0;3;12;6;2;0;0;0;0;0;0;23;0;3;9;3;1;0;0;0;0;0;0;16;0;3;21;1;0;1;0;0;0;0;0;26;0;3;21;1;0;1;0;0;0;0;0;26;0;2;14;1;0;1;0;0;0;0;0;18;0;6;19;6;3;0;0;0;0;0;34;0;6;19;6;3;0;0;0;0;0;34;0;6;17;5;2;0;0;0;0;0;30;0;13;23;6;1;0;0;0;0;0;43;0;13;23;6;1;0;0;0;0;0;43;0;13;23;6;1;0;0;0;0;0;43;0;0;0;0;0;0;0;0;0;0;0;0;0;0;0;0;0;0;0;0;0;0;0;0;0;0;0;0;0;0;0;0;0;0;0;0;0;0;0;0;0;0;0;0;0;0;0;0;0;0;0;0;0;0;0;0;0;0;0;0;0;6;33;24;27;8;3;0;0;0;0;0;101;0;6;33;24;27;8;3;0;0;0;0;0;101;0;6;27;20;21;6;2;0;0;0;0;0;82;0;7;29;41;24;6;2;0;0;0;0;0;109;0;7;29;41;24;6;2;0;0;0;0;0;109;0;6;26;34;24;6;2;0;0;0;0;0;98;1;1;16;2;1;0;2;3;26;5;0;0;17;22;0;0;0;0;0;0;0;0;0;0;0;0;0;0;0;0;0;0;0;0;0;0;0;0;0;0;0;0;0;0;0;0;0;0;0;0;0;0;0;0;0;0;0;0;29/06/2012 09:51:32 a.m.
30SBC2156C;LAZARO CARDENAS DEL RIO;2;VERACRUZ DE IGNACIO DE LA LLAVE;108;MINATITLAN;0001;MINATITLAN;MONTEVIDEO NUM. 7 NUM. 0;;MS;000;00;49;41;62;;;;;;2011;8;;0;;;;;;;;;;;;;;;;;;;;;;;;;;;;;;;;;;;;;;;;;;;;;;;;;;;;;;;;;;;;;;;;;;;;;;;;;;;;;;;;;;;;;;;;;;;;;;;;;;;;;;;;;;;;;;;;;;;;;;;;;;;;;;;;;;;;;;;;;;;;;;;;;;;;;;;;;;;;;;;;;;;;;;;;;;;;;;;;;;;;;;;;;;;;;;;;;;;;;;;;;;;;;;;;;;;;;;;;;;;;;;;;;;;;;;;;;;;;;;;;;;;;;;;;;;;;;;;;;;;;;;;;;;;;;;;;;;;;;;;;;;;;;;;;;;;;;;;;;;;;;;;;;;;;;;;;;;;;;;;;;;;;;;;;;;;;;;;;;;;;;;;;;;;;;;;;;;;;;;;;;;;;;;;;;;;;;;;;;;;;;;;;;;;;;;;;;;;;;;;;;;;;;;;;;;;;;;;;;;;;;;;;;;;;;;;;;;;;;;;;;;;;;;;;;;;;;;;;;;;;;;;;;;;;;;;;;;;;;;;;;;;;;;;;;;;;;;;;;;;;;;;;29/06/2012 08:24:10 a.m.
30ETH0087R;TELEBACHILLERATO PALMA SOLA;1;VERACRUZ DE IGNACIO DE LA LLAVE;009;ALTO LUCERO DE GUTIERREZ BARRIOS;0046;PALMA SOLA;AVENIDA CRISTO REY S/N NUM. 0;;NE;000;00;61;21;62;;;;;;2011;;;0;21;21;21;0;25;25;25;0;26;26;26;0;15;15;15;0;22;22;22;0;15;15;15;0;0;0;0;0;0;0;0;0;124;124;124;0;QUIMICO-BIOLOGICO;5;6;11;ECONOMICO-ADMINISTRATIVO;2;5;7;HUMANIDADES Y CIENCIAS SOCIALE;6;3;9;FISICO-MATEMATICO;9;1;10;;0;0;0;;0;0;0;37;0;0;0;0;0;0;0;0;0;0;0;0;0;0;0;0;0;0;0;0;0;0;0;0;0;3;3;3;0;9;0;6;9;5;1;0;0;0;0;0;0;0;21;0;6;9;5;1;0;0;0;0;0;0;0;21;0;6;9;5;1;0;0;0;0;0;0;0;21;0;8;12;2;2;1;0;0;0;0;0;0;25;0;8;12;2;2;1;0;0;0;0;0;0;25;0;8;12;2;2;1;0;0;0;0;0;0;25;0;15;7;3;0;0;1;0;0;0;0;26;0;15;7;3;0;0;1;0;0;0;0;26;0;15;7;3;0;0;1;0;0;0;0;26;0;6;6;3;0;0;0;0;0;0;0;15;0;6;6;3;0;0;0;0;0;0;0;15;0;6;6;3;0;0;0;0;0;0;0;15;0;5;11;2;2;1;1;0;0;0;22;0;5;11;2;2;1;1;0;0;0;22;0;5;11;2;2;1;1;0;0;0;22;0;11;4;0;0;0;0;0;0;0;15;0;11;4;0;0;0;0;0;0;0;15;0;11;4;0;0;0;0;0;0;0;15;0;0;0;0;0;0;0;0;0;0;0;0;0;0;0;0;0;0;0;0;0;0;0;0;0;0;0;0;0;0;0;0;0;0;0;0;0;0;0;0;0;0;0;0;0;0;0;0;0;0;0;0;0;0;0;0;0;0;0;0;0;6;24;17;15;2;2;2;1;0;0;0;69;0;6;24;17;15;2;2;2;1;0;0;0;69;0;6;24;17;15;2;2;2;1;0;0;0;69;0;8;18;19;9;1;0;0;0;0;0;0;55;0;8;18;19;9;1;0;0;0;0;0;0;55;0;8;18;19;9;1;0;0;0;0;0;0;55;1;0;7;0;0;0;0;1;9;0;8;0;0;8;0;0;0;0;0;0;0;0;0;0;0;0;0;0;0;0;0;0;0;0;0;0;0;0;0;0;0;0;0;0;0;0;0;0;0;0;0;0;0;0;0;0;0;0;28/06/2012 11:59:56 a.m.
30ETH0556T;TELEBACHILLERATO PIEDRA LABRADA;1;VERACRUZ DE IGNACIO DE LA LLAVE;209;TATAHUICAPAN DE JUAREZ;0026;PIEDRA LABRADA;CALLE S/N NUM. 0;;NE;001;00;49;21;62;;;;;;2011;;;0;35;32;32;0;31;29;29;0;49;37;37;0;33;29;29;0;22;21;21;0;28;28;28;0;0;0;0;0;0;0;0;0;198;176;176;0;HUMANIDADES Y CIENCIAS SOCIALE;10;17;27;ECONIMICO ADMINISTRATIVO;11;11;22;;0;0;0;;0;0;0;;0;0;0;;0;0;0;49;0;0;0;0;0;0;0;0;0;0;0;0;0;0;0;0;0;0;0;0;0;0;0;0;0;2;2;2;0;6;0;10;18;5;1;0;1;0;0;0;0;0;35;0;9;18;3;1;0;1;0;0;0;0;0;32;0;9;18;3;1;0;1;0;0;0;0;0;32;0;20;7;4;0;0;0;0;0;0;0;0;31;0;18;7;4;0;0;0;0;0;0;0;0;29;0;18;7;4;0;0;0;0;0;0;0;0;29;0;17;20;8;3;1;0;0;0;0;0;49;0;11;18;6;1;1;0;0;0;0;0;37;0;11;18;6;1;1;0;0;0;0;0;37;0;14;16;3;0;0;0;0;0;0;0;33;0;11;15;3;0;0;0;0;0;0;0;29;0;11;15;3;0;0;0;0;0;0;0;29;0;9;6;4;3;0;0;0;0;0;22;0;9;6;3;3;0;0;0;0;0;21;0;9;6;3;3;0;0;0;0;0;21;0;13;11;4;0;0;0;0;0;0;28;0;13;11;4;0;0;0;0;0;0;28;0;13;11;4;0;0;0;0;0;0;28;0;0;0;0;0;0;0;0;0;0;0;0;0;0;0;0;0;0;0;0;0;0;0;0;0;0;0;0;0;0;0;0;0;0;0;0;0;0;0;0;0;0;0;0;0;0;0;0;0;0;0;0;0;0;0;0;0;0;0;0;0;10;35;34;15;7;5;0;0;0;0;0;106;0;9;29;30;13;4;5;0;0;0;0;0;90;0;9;29;30;13;4;5;0;0;0;0;0;90;0;20;21;33;14;4;0;0;0;0;0;0;92;0;18;18;32;14;4;0;0;0;0;0;0;86;0;18;18;32;14;4;0;0;0;0;0;0;86;1;0;4;0;0;0;0;0;5;1;4;0;0;5;0;0;0;0;0;0;0;0;0;0;0;0;0;0;0;0;0;0;0;0;0;0;0;0;0;0;0;0;0;0;0;0;0;0;0;0;0;0;0;0;0;0;0;0;26/06/2012 11:54:58 p.m.
30ETH0563C;TELEBACHILLERATO CHINTIPAN;1;VERACRUZ DE IGNACIO DE LA LLAVE;180;TLACHICHILCO;0004;CHINTIPAN;CALLE PRINCIPAL S/N NUM. 0;;NE;016;00;62;21;62;;;;;;2011;;;0;26;24;21;3;23;16;15;1;14;13;13;0;14;14;14;0;9;8;8;0;9;9;9;0;0;0;0;0;0;0;0;0;95;84;80;4;ECONOMICO ADMINISTRATIVO;8;9;17;;0;0;0;;0;0;0;;0;0;0;;0;0;0;;0;0;0;17;0;0;0;0;0;0;0;0;0;0;0;0;0;0;0;0;0;0;0;0;0;0;0;0;0;1;1;1;0;3;0;14;4;7;1;0;0;0;0;0;0;0;26;0;14;4;6;0;0;0;0;0;0;0;0;24;0;14;4;3;0;0;0;0;0;0;0;0;21;0;20;2;1;0;0;0;0;0;0;0;0;23;0;15;1;0;0;0;0;0;0;0;0;0;16;0;14;1;0;0;0;0;0;0;0;0;0;15;0;4;5;2;3;0;0;0;0;0;0;14;0;4;4;2;3;0;0;0;0;0;0;13;0;4;4;2;3;0;0;0;0;0;0;13;0;10;2;2;0;0;0;0;0;0;0;14;0;10;2;2;0;0;0;0;0;0;0;14;0;10;2;2;0;0;0;0;0;0;0;14;0;6;3;0;0;0;0;0;0;0;9;0;5;3;0;0;0;0;0;0;0;8;0;5;3;0;0;0;0;0;0;0;8;0;8;0;1;0;0;0;0;0;0;9;0;8;0;1;0;0;0;0;0;0;9;0;8;0;1;0;0;0;0;0;0;9;0;0;0;0;0;0;0;0;0;0;0;0;0;0;0;0;0;0;0;0;0;0;0;0;0;0;0;0;0;0;0;0;0;0;0;0;0;0;0;0;0;0;0;0;0;0;0;0;0;0;0;0;0;0;0;0;0;0;0;0;0;14;8;18;6;3;0;0;0;0;0;0;49;0;14;8;15;5;3;0;0;0;0;0;0;45;0;14;8;12;5;3;0;0;0;0;0;0;42;0;20;12;11;2;1;0;0;0;0;0;0;46;0;15;11;10;2;1;0;0;0;0;0;0;39;0;14;11;10;2;1;0;0;0;0;0;0;38;1;0;2;0;0;0;0;0;3;0;3;0;0;3;0;0;0;0;0;0;0;0;0;0;0;0;0;0;0;0;0;0;0;0;0;0;0;0;0;0;0;0;0;0;0;0;0;0;0;0;0;0;0;0;0;0;0;0;29/06/2012 05:02:09 p.m.
30ETH0607J;TELEBACHILLERATO VILLA ALTA;1;VERACRUZ DE IGNACIO DE LA LLAVE;142;SAN JUAN EVANGELISTA;0068;COLONIA VILLA ALTA;MIGUEL HIDALGO S/N NUM. 0;;NE;013;00;73;21;62;;;;;;2011;;;0;7;7;7;0;13;13;13;0;11;10;10;0;8;8;8;0;16;16;16;0;14;14;14;0;0;0;0;0;0;0;0;0;69;68;68;0;HUMANIDADES Y ARTE;16;14;30;;0;0;0;;0;0;0;;0;0;0;;0;0;0;;0;0;0;30;0;0;0;0;0;0;0;0;0;0;0;0;0;0;0;0;0;0;0;0;0;0;0;0;0;1;1;1;0;3;0;3;2;2;0;0;0;0;0;0;0;0;7;0;3;2;2;0;0;0;0;0;0;0;0;7;0;3;2;2;0;0;0;0;0;0;0;0;7;0;2;8;3;0;0;0;0;0;0;0;0;13;0;2;8;3;0;0;0;0;0;0;0;0;13;0;2;8;3;0;0;0;0;0;0;0;0;13;0;2;6;3;0;0;0;0;0;0;0;11;0;2;6;2;0;0;0;0;0;0;0;10;0;2;6;2;0;0;0;0;0;0;0;10;0;1;5;2;0;0;0;0;0;0;0;8;0;1;5;2;0;0;0;0;0;0;0;8;0;1;5;2;0;0;0;0;0;0;0;8;0;2;10;3;1;0;0;0;0;0;16;0;2;10;3;1;0;0;0;0;0;16;0;2;10;3;1;0;0;0;0;0;16;0;3;7;3;1;0;0;0;0;0;14;0;3;7;3;1;0;0;0;0;0;14;0;3;7;3;1;0;0;0;0;0;14;0;0;0;0;0;0;0;0;0;0;0;0;0;0;0;0;0;0;0;0;0;0;0;0;0;0;0;0;0;0;0;0;0;0;0;0;0;0;0;0;0;0;0;0;0;0;0;0;0;0;0;0;0;0;0;0;0;0;0;0;0;3;4;10;13;3;1;0;0;0;0;0;34;0;3;4;10;12;3;1;0;0;0;0;0;33;0;3;4;10;12;3;1;0;0;0;0;0;33;0;2;9;11;9;3;1;0;0;0;0;0;35;0;2;9;11;9;3;1;0;0;0;0;0;35;0;2;9;11;9;3;1;0;0;0;0;0;35;1;0;2;0;0;0;0;0;3;0;3;0;0;3;0;0;0;0;0;0;0;0;0;0;0;0;0;0;0;0;0;0;0;0;0;0;0;0;0;0;0;0;0;0;0;0;0;0;0;0;0;0;0;0;0;0;0;0;26/06/2012 03:49:44 p.m.
30ETH0642P;TELEBACHILLERATO TEOPANCAHUATL;1;VERACRUZ DE IGNACIO DE LA LLAVE;083;IXHUATLAN DE MADERO;0073;TEOPANCAHUAC;CALLE PRINCIPAL S/N NUM. 0;;NE;016;00;62;21;62;;;;;;2011;;;0;16;16;15;1;18;18;17;1;14;14;14;0;16;16;16;0;11;11;11;0;15;15;15;0;0;0;0;0;0;0;0;0;90;90;88;2;QUIMICO-BIOLOGICO;2;7;9;ECONOMICO-ADMINISTRATIVO;0;5;5;HUMANIDADES Y CIENCIAS SOCIALE;9;3;12;;0;0;0;;0;0;0;;0;0;0;26;0;0;0;0;0;0;0;0;0;0;0;0;0;0;0;0;0;0;0;0;0;0;0;0;0;1;1;1;0;3;0;5;8;1;1;1;0;0;0;0;0;0;16;0;5;8;1;1;1;0;0;0;0;0;0;16;0;5;8;1;1;0;0;0;0;0;0;0;15;0;8;7;3;0;0;0;0;0;0;0;0;18;0;8;7;3;0;0;0;0;0;0;0;0;18;0;7;7;3;0;0;0;0;0;0;0;0;17;0;6;4;2;2;0;0;0;0;0;0;14;0;6;4;2;2;0;0;0;0;0;0;14;0;6;4;2;2;0;0;0;0;0;0;14;0;6;9;1;0;0;0;0;0;0;0;16;0;6;9;1;0;0;0;0;0;0;0;16;0;6;9;1;0;0;0;0;0;0;0;16;0;3;1;4;3;0;0;0;0;0;11;0;3;1;4;3;0;0;0;0;0;11;0;3;1;4;3;0;0;0;0;0;11;0;5;6;4;0;0;0;0;0;0;15;0;5;6;4;0;0;0;0;0;0;15;0;5;6;4;0;0;0;0;0;0;15;0;0;0;0;0;0;0;0;0;0;0;0;0;0;0;0;0;0;0;0;0;0;0;0;0;0;0;0;0;0;0;0;0;0;0;0;0;0;0;0;0;0;0;0;0;0;0;0;0;0;0;0;0;0;0;0;0;0;0;0;0;5;14;8;4;7;3;0;0;0;0;0;41;0;5;14;8;4;7;3;0;0;0;0;0;41;0;5;14;8;4;6;3;0;0;0;0;0;40;0;8;13;17;7;4;0;0;0;0;0;0;49;0;8;13;17;7;4;0;0;0;0;0;0;49;0;7;13;17;7;4;0;0;0;0;0;0;48;1;0;3;0;0;0;0;0;4;4;0;0;0;4;0;0;0;0;0;0;0;0;0;0;0;0;0;0;0;0;0;0;0;0;0;0;0;0;0;0;0;0;0;0;0;0;0;0;0;0;0;0;0;0;0;0;0;0;29/06/2012 11:44:49 a.m.
30ETH0643O;TELEBACHILLERATO SAN PEDRO TZILTZACUAPAN;1;VERACRUZ DE IGNACIO DE LA LLAVE;083;IXHUATLAN DE MADERO;0079;TZILTZACUAPAN;CALLE PRINCIPAL S/N NUM. 0;;NE;016;00;62;21;62;;;;;;2011;;;0;16;16;16;0;17;17;17;0;10;10;10;0;8;8;8;0;6;6;6;0;6;6;6;0;0;0;0;0;0;0;0;0;63;63;63;0;QUIMICO-BIOLOGICO;2;2;4;HUMANIDADES Y CIENCIAS SOCIALE;4;4;8;;0;0;0;;0;0;0;;0;0;0;;0;0;0;12;0;0;0;0;0;0;0;0;0;0;0;0;0;0;0;0;0;0;0;0;0;0;0;0;0;1;1;1;0;3;0;9;4;2;1;0;0;0;0;0;0;0;16;0;9;4;2;1;0;0;0;0;0;0;0;16;0;9;4;2;1;0;0;0;0;0;0;0;16;0;7;8;2;0;0;0;0;0;0;0;0;17;0;7;8;2;0;0;0;0;0;0;0;0;17;0;7;8;2;0;0;0;0;0;0;0;0;17;0;3;3;4;0;0;0;0;0;0;0;10;0;3;3;4;0;0;0;0;0;0;0;10;0;3;3;4;0;0;0;0;0;0;0;10;0;3;3;2;0;0;0;0;0;0;0;8;0;3;3;2;0;0;0;0;0;0;0;8;0;3;3;2;0;0;0;0;0;0;0;8;0;3;3;0;0;0;0;0;0;0;6;0;3;3;0;0;0;0;0;0;0;6;0;3;3;0;0;0;0;0;0;0;6;0;3;2;1;0;0;0;0;0;0;6;0;3;2;1;0;0;0;0;0;0;6;0;3;2;1;0;0;0;0;0;0;6;0;0;0;0;0;0;0;0;0;0;0;0;0;0;0;0;0;0;0;0;0;0;0;0;0;0;0;0;0;0;0;0;0;0;0;0;0;0;0;0;0;0;0;0;0;0;0;0;0;0;0;0;0;0;0;0;0;0;0;0;0;9;7;8;8;0;0;0;0;0;0;0;32;0;9;7;8;8;0;0;0;0;0;0;0;32;0;9;7;8;8;0;0;0;0;0;0;0;32;0;7;11;8;4;1;0;0;0;0;0;0;31;0;7;11;8;4;1;0;0;0;0;0;0;31;0;7;11;8;4;1;0;0;0;0;0;0;31;1;0;2;0;0;0;0;0;3;0;3;0;0;3;0;0;0;0;0;0;0;0;0;0;0;0;0;0;0;0;0;0;0;0;0;0;0;0;0;0;0;0;0;0;0;0;0;0;0;0;0;0;0;0;0;0;0;0;28/06/2012 10:49:08 a.m.
30ETH0659P;TELEBACHILLERATO CHALCHIJAPAN;1;VERACRUZ DE IGNACIO DE LA LLAVE;091;JESUS CARRANZA;0015;CHALCHIJAPAN (ANEXO EL PARAISO);CONOCIDO NUM. 0;;NE;013;00;73;21;62;;;;;;2011;;;0;18;18;18;0;8;8;8;0;8;8;8;0;1;1;1;0;4;4;4;0;8;7;7;0;0;0;0;0;0;0;0;0;47;46;46;0;HUMANIDADES Y CIENCIAS SOCIALE;4;7;11;;0;0;0;;0;0;0;;0;0;0;;0;0;0;;0;0;0;11;0;0;0;0;0;0;0;0;0;0;0;0;0;0;0;0;0;0;0;0;0;0;0;0;0;1;1;1;0;3;0;10;7;0;0;1;0;0;0;0;0;0;18;0;10;7;0;0;1;0;0;0;0;0;0;18;0;10;7;0;0;1;0;0;0;0;0;0;18;0;5;2;1;0;0;0;0;0;0;0;0;8;0;5;2;1;0;0;0;0;0;0;0;0;8;0;5;2;1;0;0;0;0;0;0;0;0;8;0;3;3;2;0;0;0;0;0;0;0;8;0;3;3;2;0;0;0;0;0;0;0;8;0;3;3;2;0;0;0;0;0;0;0;8;0;0;0;1;0;0;0;0;0;0;0;1;0;0;0;1;0;0;0;0;0;0;0;1;0;0;0;1;0;0;0;0;0;0;0;1;0;2;1;1;0;0;0;0;0;0;4;0;2;1;1;0;0;0;0;0;0;4;0;2;1;1;0;0;0;0;0;0;4;0;3;4;1;0;0;0;0;0;0;8;0;3;3;1;0;0;0;0;0;0;7;0;3;3;1;0;0;0;0;0;0;7;0;0;0;0;0;0;0;0;0;0;0;0;0;0;0;0;0;0;0;0;0;0;0;0;0;0;0;0;0;0;0;0;0;0;0;0;0;0;0;0;0;0;0;0;0;0;0;0;0;0;0;0;0;0;0;0;0;0;0;0;0;10;10;5;3;2;0;0;0;0;0;0;30;0;10;10;5;3;2;0;0;0;0;0;0;30;0;10;10;5;3;2;0;0;0;0;0;0;30;0;5;2;4;5;1;0;0;0;0;0;0;17;0;5;2;4;4;1;0;0;0;0;0;0;16;0;5;2;4;4;1;0;0;0;0;0;0;16;1;0;1;0;0;0;0;0;2;0;2;0;0;2;0;0;0;0;0;0;0;0;0;0;0;0;0;0;0;0;0;0;0;0;0;0;0;0;0;0;0;0;0;0;0;0;0;0;0;0;0;0;0;0;0;0;0;0;28/06/2012 07:57:38 p.m.
30ETH0715R;TELEBACHILLERATO MONTE ALTO;2;VERACRUZ DE IGNACIO DE LA LLAVE;048;COSOLEACAQUE;0018;MONTE ALTO;CARRETERA COSOLEACAQUE-LIMONTA S.N. NUM. 0;;NE;002;00;49;21;62;;;;;;2011;;;0;14;11;11;0;14;11;11;0;12;12;12;0;5;5;5;0;5;5;5;0;10;10;10;0;0;0;0;0;0;0;0;0;60;54;54;0;HUMANIDADES Y CIENCIAS SOCIAL;3;7;10;FISICO MATEMATICO;3;2;5;;0;0;0;;0;0;0;;0;0;0;;0;0;0;15;0;0;0;0;0;0;0;0;0;0;0;0;0;0;0;0;0;0;0;0;0;0;0;0;0;1;1;1;0;3;0;7;4;2;1;0;0;0;0;0;0;0;14;0;6;3;2;0;0;0;0;0;0;0;0;11;0;6;3;2;0;0;0;0;0;0;0;0;11;0;11;2;1;0;0;0;0;0;0;0;0;14;0;10;0;1;0;0;0;0;0;0;0;0;11;0;10;0;1;0;0;0;0;0;0;0;0;11;0;9;1;1;0;1;0;0;0;0;0;12;0;9;1;1;0;1;0;0;0;0;0;12;0;9;1;1;0;1;0;0;0;0;0;12;0;2;1;1;0;1;0;0;0;0;0;5;0;2;1;1;0;1;0;0;0;0;0;5;0;2;1;1;0;1;0;0;0;0;0;5;0;2;3;0;0;0;0;0;0;0;5;0;2;3;0;0;0;0;0;0;0;5;0;2;3;0;0;0;0;0;0;0;5;0;9;1;0;0;0;0;0;0;0;10;0;9;1;0;0;0;0;0;0;0;10;0;9;1;0;0;0;0;0;0;0;10;0;0;0;0;0;0;0;0;0;0;0;0;0;0;0;0;0;0;0;0;0;0;0;0;0;0;0;0;0;0;0;0;0;0;0;0;0;0;0;0;0;0;0;0;0;0;0;0;0;0;0;0;0;0;0;0;0;0;0;0;0;7;13;5;5;0;1;0;0;0;0;0;31;0;6;12;5;4;0;1;0;0;0;0;0;28;0;6;12;5;4;0;1;0;0;0;0;0;28;0;11;4;11;2;0;1;0;0;0;0;0;29;0;10;2;11;2;0;1;0;0;0;0;0;26;0;10;2;11;2;0;1;0;0;0;0;0;26;1;0;2;0;0;0;0;0;3;0;3;0;0;3;0;0;0;0;0;0;0;0;0;0;0;0;0;0;0;0;0;0;0;0;0;0;0;0;0;0;0;0;0;0;0;0;0;0;0;0;0;0;0;0;0;0;0;0;29/06/2012 11:20:42 a.m.
30ETH0727W;TELEBACHILLERATO NI¥OS HEROES DE CHAPULTEPEC;2;VERACRUZ DE IGNACIO DE LA LLAVE;091;JESUS CARRANZA;0035;NI¥OS HEROES DE CHAPULTEPEC (ZETINA);CONOCIDO NUM. 0;;NE;013;00;73;21;62;;;;;;2011;;;0;22;17;17;0;8;8;8;0;13;13;13;0;9;9;9;0;12;12;12;0;13;13;13;0;0;0;0;0;0;0;0;0;77;72;72;0;ECONOMICO-ADMINISTRATIVO;6;2;8;HUMANIDADES Y C. SOCIALES;6;11;17;;0;0;0;;0;0;0;;0;0;0;;0;0;0;25;0;0;0;0;0;0;0;0;0;0;0;0;0;0;0;0;0;0;0;0;0;0;0;0;0;1;1;1;0;3;0;13;4;3;1;0;0;1;0;0;0;0;22;0;11;2;3;1;0;0;0;0;0;0;0;17;0;11;2;3;1;0;0;0;0;0;0;0;17;0;6;2;0;0;0;0;0;0;0;0;0;8;0;6;2;0;0;0;0;0;0;0;0;0;8;0;6;2;0;0;0;0;0;0;0;0;0;8;0;9;1;2;0;0;1;0;0;0;0;13;0;9;1;2;0;0;1;0;0;0;0;13;0;9;1;2;0;0;1;0;0;0;0;13;1;3;3;0;2;0;0;0;0;0;0;9;1;3;3;0;2;0;0;0;0;0;0;9;1;3;3;0;2;0;0;0;0;0;0;9;0;7;3;2;0;0;0;0;0;0;12;0;7;3;2;0;0;0;0;0;0;12;0;7;3;2;0;0;0;0;0;0;12;1;9;3;0;0;0;0;0;0;0;13;1;9;3;0;0;0;0;0;0;0;13;1;9;3;0;0;0;0;0;0;0;13;0;0;0;0;0;0;0;0;0;0;0;0;0;0;0;0;0;0;0;0;0;0;0;0;0;0;0;0;0;0;0;0;0;0;0;0;0;0;0;0;0;0;0;0;0;0;0;0;0;0;0;0;0;0;0;0;0;0;0;0;0;13;13;11;6;2;0;2;0;0;0;0;47;0;11;11;11;6;2;0;1;0;0;0;0;42;0;11;11;11;6;2;0;1;0;0;0;0;42;0;7;6;12;3;2;0;0;0;0;0;0;30;0;7;6;12;3;2;0;0;0;0;0;0;30;0;7;6;12;3;2;0;0;0;0;0;0;30;1;0;2;0;0;0;0;0;3;0;3;0;0;3;0;0;0;0;0;0;0;0;0;0;0;0;0;0;0;0;0;0;0;0;0;0;0;0;0;0;0;0;0;0;0;0;0;0;0;0;0;0;0;0;0;0;0;0;27/06/2012 05:37:28 p.m.
30ETH0868V;TELEBACHILLERATO LOS COCOS;2;VERACRUZ DE IGNACIO DE LA LLAVE;133;PUEBLO VIEJO;0002;ANAHUAC;CALLE S/N NUM. 0;;NE;000;00;70;21;62;;;;;;2011;;;0;38;31;14;17;47;34;20;14;27;24;13;11;23;18;13;5;21;21;21;0;15;14;14;0;0;0;0;0;0;0;0;0;171;142;95;47;ECONOMICO-ADMINISTRATIVO;11;6;17;HUMANIDADES Y CIENCIAS SOCIALE;10;8;18;;0;0;0;;0;0;0;;0;0;0;;0;0;0;35;0;0;0;0;0;0;0;0;0;0;0;0;0;0;0;0;0;0;0;0;0;0;0;0;0;2;2;2;0;6;2;20;12;1;3;0;0;0;0;0;0;0;38;1;16;11;0;3;0;0;0;0;0;0;0;31;0;5;6;0;3;0;0;0;0;0;0;0;14;3;27;11;5;0;0;0;0;0;0;0;1;47;3;22;7;2;0;0;0;0;0;0;0;0;34;2;12;5;1;0;0;0;0;0;0;0;0;20;1;12;8;3;1;0;1;1;0;0;0;27;1;10;7;3;1;0;1;1;0;0;0;24;0;6;3;2;0;0;1;1;0;0;0;13;2;14;1;4;1;1;0;0;0;0;0;23;2;12;1;2;0;1;0;0;0;0;0;18;2;9;0;1;0;1;0;0;0;0;0;13;0;12;7;2;0;0;0;0;0;0;21;0;12;7;2;0;0;0;0;0;0;21;0;12;7;2;0;0;0;0;0;0;21;1;10;2;1;1;0;0;0;0;0;15;1;10;1;1;1;0;0;0;0;0;14;1;10;1;1;1;0;0;0;0;0;14;0;0;0;0;0;0;0;0;0;0;0;0;0;0;0;0;0;0;0;0;0;0;0;0;0;0;0;0;0;0;0;0;0;0;0;0;0;0;0;0;0;0;0;0;0;0;0;0;0;0;0;0;0;0;0;0;0;0;0;0;2;21;24;21;13;3;0;1;1;0;0;0;86;1;17;21;19;13;3;0;1;1;0;0;0;76;0;5;12;15;12;2;0;1;1;0;0;0;48;3;29;26;16;6;2;2;0;0;0;0;1;85;3;24;20;13;3;1;2;0;0;0;0;0;66;2;14;15;11;2;1;2;0;0;0;0;0;47;1;0;4;0;0;0;0;0;5;0;5;0;0;5;0;0;0;0;0;0;0;0;0;0;0;0;0;0;0;0;0;0;0;0;0;0;0;0;0;0;0;0;0;0;0;0;0;0;0;0;0;0;0;0;0;0;0;0;29/06/2012 04:33:07 p.m.
30PBH0135A;PROFR. CARLOS A. CARRILLO;1;VERACRUZ DE IGNACIO DE LA LLAVE;108;MINATITLAN;0001;MINATITLAN;18 DE OCTUBRE DNUM. 146 NUM. 0;;NE;000;00;49;61;62;;;;;;2011;;;0;59;56;32;24;61;59;47;12;48;44;18;26;50;50;39;11;53;51;25;26;49;47;33;14;0;0;0;0;0;0;0;0;320;307;194;113;HUMANIDADES Y CIENCIAS SOCIALE;26;21;47;ECONOMICO ADMINISTRATIVA;3;8;11;QUIMICO BIOLOGICA;8;9;17;FISICO MATEMATICA;14;9;23;;0;0;0;;0;0;0;98;0;0;0;0;0;0;0;0;0;0;0;0;0;0;0;0;0;0;0;0;0;0;0;0;0;4;3;8;0;15;0;20;27;7;5;0;0;0;0;0;0;0;59;0;20;24;7;5;0;0;0;0;0;0;0;56;0;10;15;4;3;0;0;0;0;0;0;0;32;0;43;14;3;1;0;0;0;0;0;0;0;61;0;42;14;3;0;0;0;0;0;0;0;0;59;0;33;12;2;0;0;0;0;0;0;0;0;47;0;20;13;11;2;1;1;0;0;0;0;48;0;19;11;10;2;1;1;0;0;0;0;44;0;7;5;5;0;1;0;0;0;0;0;18;0;20;23;7;0;0;0;0;0;0;0;50;0;20;23;7;0;0;0;0;0;0;0;50;0;17;17;5;0;0;0;0;0;0;0;39;1;20;18;8;3;1;1;0;1;0;53;1;20;18;8;2;1;1;0;0;0;51;0;11;9;4;0;1;0;0;0;0;25;0;25;19;4;0;1;0;0;0;0;49;0;24;18;4;0;1;0;0;0;0;47;0;17;12;3;0;1;0;0;0;0;33;0;0;0;0;0;0;0;0;0;0;0;0;0;0;0;0;0;0;0;0;0;0;0;0;0;0;0;0;0;0;0;0;0;0;0;0;0;0;0;0;0;0;0;0;0;0;0;0;0;0;0;0;0;0;0;0;0;0;0;0;0;20;48;40;34;10;4;2;1;0;1;0;160;0;20;44;38;33;10;3;2;1;0;0;0;151;0;10;22;20;17;4;1;1;0;0;0;0;75;0;43;34;51;27;4;0;1;0;0;0;0;160;0;42;34;50;25;4;0;1;0;0;0;0;156;0;33;29;36;17;3;0;1;0;0;0;0;119;0;2;13;1;0;3;1;10;30;2;8;2;6;18;0;0;0;0;0;0;0;0;0;0;0;0;0;0;0;0;0;0;0;0;0;0;0;0;0;0;0;0;0;0;0;0;0;0;0;0;0;0;0;0;0;0;0;0;29/06/2012 11:49:57 a.m.
30PBH0181M;ANTON SEMIONOVICH MAKARENKO;2;VERACRUZ DE IGNACIO DE LA LLAVE;131;POZA RICA DE HIDALGO;0001;POZA RICA DE HIDALGO;PERU NUM. 108 NUM. 0;;NE;000;00;63;61;62;;;;;;2011;;;0;3;2;2;0;6;6;6;0;8;6;6;0;9;7;7;0;9;8;8;0;9;8;8;0;0;0;0;0;0;0;0;0;44;37;37;0;ECONOMICO-ADMINISTRATIVO;1;1;2;QUIMICO-BIOLOGICO;3;5;8;FISICO-MATEMATICO;4;2;6;;0;0;0;;0;0;0;;0;0;0;16;0;0;0;0;0;0;0;0;0;0;0;0;0;0;0;0;0;0;0;0;0;0;0;0;0;1;1;1;0;3;0;3;0;0;0;0;0;0;0;0;0;0;3;0;2;0;0;0;0;0;0;0;0;0;0;2;0;2;0;0;0;0;0;0;0;0;0;0;2;0;3;2;1;0;0;0;0;0;0;0;0;6;0;3;2;1;0;0;0;0;0;0;0;0;6;0;3;2;1;0;0;0;0;0;0;0;0;6;0;4;2;1;1;0;0;0;0;0;0;8;0;2;2;1;1;0;0;0;0;0;0;6;0;2;2;1;1;0;0;0;0;0;0;6;0;7;2;0;0;0;0;0;0;0;0;9;0;5;2;0;0;0;0;0;0;0;0;7;0;5;2;0;0;0;0;0;0;0;0;7;0;3;3;2;1;0;0;0;0;0;9;0;3;2;2;1;0;0;0;0;0;8;0;3;2;2;1;0;0;0;0;0;8;0;6;2;1;0;0;0;0;0;0;9;0;6;1;1;0;0;0;0;0;0;8;0;6;1;1;0;0;0;0;0;0;8;0;0;0;0;0;0;0;0;0;0;0;0;0;0;0;0;0;0;0;0;0;0;0;0;0;0;0;0;0;0;0;0;0;0;0;0;0;0;0;0;0;0;0;0;0;0;0;0;0;0;0;0;0;0;0;0;0;0;0;0;0;3;4;5;4;3;1;0;0;0;0;0;20;0;2;2;5;3;3;1;0;0;0;0;0;16;0;2;2;5;3;3;1;0;0;0;0;0;16;0;3;9;9;2;1;0;0;0;0;0;0;24;0;3;7;9;1;1;0;0;0;0;0;0;21;0;3;7;9;1;1;0;0;0;0;0;0;21;0;2;9;0;0;0;1;6;18;0;0;10;0;10;0;0;0;0;0;0;0;0;0;0;0;0;0;0;0;0;0;0;0;0;0;0;0;0;0;0;0;0;0;0;0;0;0;0;0;0;0;0;0;0;0;0;0;0;29/06/2012 08:15:14 p.m.
30ETH0535G;TELEBACHILLERATO DOBLADERO;2;VERACRUZ DE IGNACIO DE LA LLAVE;169;JOSE AZUETA;0025;ESTACION DOBLADERO;FRANCISCO MADERO ESQUINA LEONA VICARIO NUM. 0;;NE;004;00;52;21;62;;;;;;2011;;;0;10;9;9;0;7;7;7;0;7;7;7;0;5;5;5;0;7;7;7;0;9;9;9;0;0;0;0;0;0;0;0;0;45;44;44;0;HUMANIDADES Y CIENCIAS SOCIAL;7;4;11;QUIMICO BIOLOGICAS;0;5;5;;0;0;0;;0;0;0;;0;0;0;;0;0;0;16;0;0;0;0;0;0;0;0;0;0;0;0;0;0;0;0;0;0;0;0;0;0;0;0;0;1;1;1;0;3;0;6;2;2;0;0;0;0;0;0;0;0;10;0;6;2;1;0;0;0;0;0;0;0;0;9;0;6;2;1;0;0;0;0;0;0;0;0;9;0;6;1;0;0;0;0;0;0;0;0;0;7;0;6;1;0;0;0;0;0;0;0;0;0;7;0;6;1;0;0;0;0;0;0;0;0;0;7;0;6;0;1;0;0;0;0;0;0;0;7;0;6;0;1;0;0;0;0;0;0;0;7;0;6;0;1;0;0;0;0;0;0;0;7;0;2;1;2;0;0;0;0;0;0;0;5;0;2;1;2;0;0;0;0;0;0;0;5;0;2;1;2;0;0;0;0;0;0;0;5;0;6;1;0;0;0;0;0;0;0;7;0;6;1;0;0;0;0;0;0;0;7;0;6;1;0;0;0;0;0;0;0;7;0;8;0;1;0;0;0;0;0;0;9;0;8;0;1;0;0;0;0;0;0;9;0;8;0;1;0;0;0;0;0;0;9;0;0;0;0;0;0;0;0;0;0;0;0;0;0;0;0;0;0;0;0;0;0;0;0;0;0;0;0;0;0;0;0;0;0;0;0;0;0;0;0;0;0;0;0;0;0;0;0;0;0;0;0;0;0;0;0;0;0;0;0;0;6;8;8;2;0;0;0;0;0;0;0;24;0;6;8;7;2;0;0;0;0;0;0;0;23;0;6;8;7;2;0;0;0;0;0;0;0;23;0;6;3;9;2;1;0;0;0;0;0;0;21;0;6;3;9;2;1;0;0;0;0;0;0;21;0;6;3;9;2;1;0;0;0;0;0;0;21;1;0;1;0;0;0;0;0;2;0;2;0;0;2;0;0;0;0;0;0;0;0;0;0;0;0;0;0;0;0;0;0;0;0;0;0;0;0;0;0;0;0;0;0;0;0;0;0;0;0;0;0;0;0;0;0;0;0;28/06/2012 06:53:00 p.m.
30ETH0545N;TELEBACHILLERATO OCELOTA;1;VERACRUZ DE IGNACIO DE LA LLAVE;141;SAN ANDRES TUXTLA;0059;OCELOTA;VENUSTIANO CARRANZA S/N NUM. 0;;NE;011;00;61;21;62;;;;;;2011;;;0;23;19;19;0;9;8;8;0;14;12;12;0;14;14;14;0;18;17;17;0;10;10;10;0;0;0;0;0;0;0;0;0;88;80;80;0;HUMANIDADES Y ARTE;17;10;27;;0;0;0;;0;0;0;;0;0;0;;0;0;0;;0;0;0;27;0;0;0;0;0;0;0;0;0;0;0;0;0;0;0;0;0;0;0;0;0;0;0;0;0;1;1;1;0;3;1;10;7;5;0;0;0;0;0;0;0;0;23;1;10;5;3;0;0;0;0;0;0;0;0;19;1;10;5;3;0;0;0;0;0;0;0;0;19;0;7;2;0;0;0;0;0;0;0;0;0;9;0;6;2;0;0;0;0;0;0;0;0;0;8;0;6;2;0;0;0;0;0;0;0;0;0;8;0;9;4;0;1;0;0;0;0;0;0;14;0;8;4;0;0;0;0;0;0;0;0;12;0;8;4;0;0;0;0;0;0;0;0;12;0;4;8;2;0;0;0;0;0;0;0;14;0;4;8;2;0;0;0;0;0;0;0;14;0;4;8;2;0;0;0;0;0;0;0;14;0;13;4;1;0;0;0;0;0;0;18;0;13;3;1;0;0;0;0;0;0;17;0;13;3;1;0;0;0;0;0;0;17;0;7;2;0;1;0;0;0;0;0;10;0;7;2;0;1;0;0;0;0;0;10;0;7;2;0;1;0;0;0;0;0;10;0;0;0;0;0;0;0;0;0;0;0;0;0;0;0;0;0;0;0;0;0;0;0;0;0;0;0;0;0;0;0;0;0;0;0;0;0;0;0;0;0;0;0;0;0;0;0;0;0;0;0;0;0;0;0;0;0;0;0;0;1;10;16;22;4;2;0;0;0;0;0;0;55;1;10;13;20;3;1;0;0;0;0;0;0;48;1;10;13;20;3;1;0;0;0;0;0;0;48;0;7;6;15;4;0;1;0;0;0;0;0;33;0;6;6;15;4;0;1;0;0;0;0;0;32;0;6;6;15;4;0;1;0;0;0;0;0;32;1;0;3;0;0;0;0;0;4;0;4;0;0;4;0;0;0;0;0;0;0;0;0;0;0;0;0;0;0;0;0;0;0;0;0;0;0;0;0;0;0;0;0;0;0;0;0;0;0;0;0;0;0;0;0;0;0;0;02/07/2012 05:16:04 p.m.
30ETH0220H;TELEBACHILLERATO MESA DE GUADALUPE;1;VERACRUZ DE IGNACIO DE LA LLAVE;009;ALTO LUCERO DE GUTIERREZ BARRIOS;0037;MESA DE GUADALUPE;CONOCIDO NUM. 0;;NE;000;00;61;21;62;;;;;;2011;;;0;7;7;7;0;7;7;7;0;8;8;8;0;14;14;14;0;8;8;8;0;9;8;8;0;0;0;0;0;0;0;0;0;53;52;52;0;ECONOMICO-ADMINISTRATIVO;5;5;10;HUMANIDADES Y CIENCIAS SOCIALE;3;3;6;;0;0;0;;0;0;0;;0;0;0;;0;0;0;16;0;0;0;0;0;0;0;0;0;0;0;0;0;0;0;0;0;0;0;0;0;0;0;0;0;1;1;1;0;3;0;5;2;0;0;0;0;0;0;0;0;0;7;0;5;2;0;0;0;0;0;0;0;0;0;7;0;5;2;0;0;0;0;0;0;0;0;0;7;1;5;1;0;0;0;0;0;0;0;0;0;7;1;5;1;0;0;0;0;0;0;0;0;0;7;1;5;1;0;0;0;0;0;0;0;0;0;7;0;6;2;0;0;0;0;0;0;0;0;8;0;6;2;0;0;0;0;0;0;0;0;8;0;6;2;0;0;0;0;0;0;0;0;8;0;11;3;0;0;0;0;0;0;0;0;14;0;11;3;0;0;0;0;0;0;0;0;14;0;11;3;0;0;0;0;0;0;0;0;14;1;4;1;1;1;0;0;0;0;0;8;1;4;1;1;1;0;0;0;0;0;8;1;4;1;1;1;0;0;0;0;0;8;0;8;0;0;1;0;0;0;0;0;9;0;7;0;0;1;0;0;0;0;0;8;0;7;0;0;1;0;0;0;0;0;8;0;0;0;0;0;0;0;0;0;0;0;0;0;0;0;0;0;0;0;0;0;0;0;0;0;0;0;0;0;0;0;0;0;0;0;0;0;0;0;0;0;0;0;0;0;0;0;0;0;0;0;0;0;0;0;0;0;0;0;0;0;5;9;6;1;1;1;0;0;0;0;0;23;0;5;9;6;1;1;1;0;0;0;0;0;23;0;5;9;6;1;1;1;0;0;0;0;0;23;1;5;12;11;0;0;1;0;0;0;0;0;30;1;5;12;10;0;0;1;0;0;0;0;0;29;1;5;12;10;0;0;1;0;0;0;0;0;29;0;0;5;0;0;0;0;0;5;0;5;0;0;5;0;0;0;0;0;0;0;0;0;0;0;0;0;0;0;0;0;0;0;0;0;0;0;0;0;0;0;0;0;0;0;0;0;0;0;0;0;0;0;0;0;0;0;0;01/07/2012 06:39:17 p.m.
30ETH0280W;TELEBACHILLERATO TECOLOTEPEC;2;VERACRUZ DE IGNACIO DE LA LLAVE;091;JESUS CARRANZA;0054;TECOLOTEPEC;CONOCIDO NUM. 0;;NE;013;00;73;21;62;;;;;;2011;;;0;11;11;11;0;12;12;12;0;10;10;10;0;10;10;10;0;8;8;8;0;15;15;15;0;0;0;0;0;0;0;0;0;66;66;66;0;HUMANIDADES Y C. SOCIALES;8;15;23;;0;0;0;;0;0;0;;0;0;0;;0;0;0;;0;0;0;23;0;0;0;0;0;0;0;0;0;0;0;0;0;0;0;0;0;0;0;0;0;0;0;0;0;1;1;1;0;3;0;2;6;3;0;0;0;0;0;0;0;0;11;0;2;6;3;0;0;0;0;0;0;0;0;11;0;2;6;3;0;0;0;0;0;0;0;0;11;0;3;9;0;0;0;0;0;0;0;0;0;12;0;3;9;0;0;0;0;0;0;0;0;0;12;0;3;9;0;0;0;0;0;0;0;0;0;12;0;6;2;0;2;0;0;0;0;0;0;10;0;6;2;0;2;0;0;0;0;0;0;10;0;6;2;0;2;0;0;0;0;0;0;10;0;2;4;3;1;0;0;0;0;0;0;10;0;2;4;3;1;0;0;0;0;0;0;10;0;2;4;3;1;0;0;0;0;0;0;10;0;4;4;0;0;0;0;0;0;0;8;0;4;4;0;0;0;0;0;0;0;8;0;4;4;0;0;0;0;0;0;0;8;0;6;7;2;0;0;0;0;0;0;15;0;6;7;2;0;0;0;0;0;0;15;0;6;7;2;0;0;0;0;0;0;15;0;0;0;0;0;0;0;0;0;0;0;0;0;0;0;0;0;0;0;0;0;0;0;0;0;0;0;0;0;0;0;0;0;0;0;0;0;0;0;0;0;0;0;0;0;0;0;0;0;0;0;0;0;0;0;0;0;0;0;0;0;2;12;9;4;2;0;0;0;0;0;0;29;0;2;12;9;4;2;0;0;0;0;0;0;29;0;2;12;9;4;2;0;0;0;0;0;0;29;0;3;11;10;10;3;0;0;0;0;0;0;37;0;3;11;10;10;3;0;0;0;0;0;0;37;0;3;11;10;10;3;0;0;0;0;0;0;37;1;0;2;0;0;0;0;0;3;0;3;0;0;3;0;0;0;0;0;0;0;0;0;0;0;0;0;0;0;0;0;0;0;0;0;0;0;0;0;0;0;0;0;0;0;0;0;0;0;0;0;0;0;0;0;0;0;0;29/06/2012 12:26:45 a.m.
30ETH0286Q;TELEBACHILLERATO MESA DE CALCOTE;1;VERACRUZ DE IGNACIO DE LA LLAVE;058;CHICONTEPEC;0065;MESA DE CALCOTE;CAMINO A LA PROVIDENCIA NUM. 0;;NE;016;00;70;21;62;;;;;;2011;;;0;7;7;7;0;7;7;7;0;10;10;10;0;4;4;4;0;14;14;14;0;18;18;18;0;0;0;0;0;0;0;0;0;60;60;60;0;ECONOMICO-EDMINISTRATIVO;3;4;7;HUMANIDADES Y C. SOCIALES;11;14;25;;0;0;0;;0;0;0;;0;0;0;;0;0;0;32;0;0;0;0;0;0;0;0;0;0;0;0;0;0;0;0;0;0;0;0;0;0;0;0;0;1;1;1;0;3;0;4;2;0;1;0;0;0;0;0;0;0;7;0;4;2;0;1;0;0;0;0;0;0;0;7;0;4;2;0;1;0;0;0;0;0;0;0;7;0;6;1;0;0;0;0;0;0;0;0;0;7;0;6;1;0;0;0;0;0;0;0;0;0;7;0;6;1;0;0;0;0;0;0;0;0;0;7;0;8;1;0;0;1;0;0;0;0;0;10;0;8;1;0;0;1;0;0;0;0;0;10;0;8;1;0;0;1;0;0;0;0;0;10;0;2;2;0;0;0;0;0;0;0;0;4;0;2;2;0;0;0;0;0;0;0;0;4;0;2;2;0;0;0;0;0;0;0;0;4;0;9;4;0;1;0;0;0;0;0;14;0;9;4;0;1;0;0;0;0;0;14;0;9;4;0;1;0;0;0;0;0;14;1;13;3;1;0;0;0;0;0;0;18;1;13;3;1;0;0;0;0;0;0;18;1;13;3;1;0;0;0;0;0;0;18;0;0;0;0;0;0;0;0;0;0;0;0;0;0;0;0;0;0;0;0;0;0;0;0;0;0;0;0;0;0;0;0;0;0;0;0;0;0;0;0;0;0;0;0;0;0;0;0;0;0;0;0;0;0;0;0;0;0;0;0;0;4;10;10;5;0;2;0;0;0;0;0;31;0;4;10;10;5;0;2;0;0;0;0;0;31;0;4;10;10;5;0;2;0;0;0;0;0;31;0;6;4;15;3;1;0;0;0;0;0;0;29;0;6;4;15;3;1;0;0;0;0;0;0;29;0;6;4;15;3;1;0;0;0;0;0;0;29;1;0;2;0;0;0;0;0;3;0;3;0;0;3;0;0;0;0;0;0;0;0;0;0;0;0;0;0;0;0;0;0;0;0;0;0;0;0;0;0;0;0;0;0;0;0;0;0;0;0;0;0;0;0;0;0;0;0;29/06/2012 02:49:43 p.m.
30ETH0294Z;TELEBACHILLERATO EL TIZAL;1;VERACRUZ DE IGNACIO DE LA LLAVE;083;IXHUATLAN DE MADERO;0076;EL TIZAL;CALLE PRINCIPAL NUM. 5 NUM. 0;;NE;016;00;62;21;62;;;;;;2011;;;0;5;5;3;2;5;5;5;0;4;4;4;0;7;7;7;0;12;12;12;0;14;14;14;0;0;0;0;0;0;0;0;0;47;47;45;2;HUMANIDADES Y C. SOCIALES;12;14;26;;0;0;0;;0;0;0;;0;0;0;;0;0;0;;0;0;0;26;0;0;0;0;0;0;0;0;0;0;0;0;0;0;0;0;0;0;0;0;0;0;0;0;0;1;1;1;0;3;0;1;1;0;3;0;0;0;0;0;0;0;5;0;1;1;0;3;0;0;0;0;0;0;0;5;0;1;1;0;1;0;0;0;0;0;0;0;3;0;1;2;2;0;0;0;0;0;0;0;0;5;0;1;2;2;0;0;0;0;0;0;0;0;5;0;1;2;2;0;0;0;0;0;0;0;0;5;0;3;0;1;0;0;0;0;0;0;0;4;0;3;0;1;0;0;0;0;0;0;0;4;0;3;0;1;0;0;0;0;0;0;0;4;0;3;4;0;0;0;0;0;0;0;0;7;0;3;4;0;0;0;0;0;0;0;0;7;0;3;4;0;0;0;0;0;0;0;0;7;0;5;5;1;0;1;0;0;0;0;12;0;5;5;1;0;1;0;0;0;0;12;0;5;5;1;0;1;0;0;0;0;12;0;4;7;2;1;0;0;0;0;0;14;0;4;7;2;1;0;0;0;0;0;14;0;4;7;2;1;0;0;0;0;0;14;0;0;0;0;0;0;0;0;0;0;0;0;0;0;0;0;0;0;0;0;0;0;0;0;0;0;0;0;0;0;0;0;0;0;0;0;0;0;0;0;0;0;0;0;0;0;0;0;0;0;0;0;0;0;0;0;0;0;0;0;0;1;4;5;9;1;0;1;0;0;0;0;21;0;1;4;5;9;1;0;1;0;0;0;0;21;0;1;4;5;7;1;0;1;0;0;0;0;19;0;1;5;10;7;2;1;0;0;0;0;0;26;0;1;5;10;7;2;1;0;0;0;0;0;26;0;1;5;10;7;2;1;0;0;0;0;0;26;1;0;2;0;0;0;0;0;3;0;3;0;0;3;0;0;0;0;0;0;0;0;0;0;0;0;0;0;0;0;0;0;0;0;0;0;0;0;0;0;0;0;0;0;0;0;0;0;0;0;0;0;0;0;0;0;0;0;01/07/2012 08:27:45 p.m.
30ETH0333K;TELEBACHILLERATO EL LIMON;1;VERACRUZ DE IGNACIO DE LA LLAVE;083;IXHUATLAN DE MADERO;0031;EL LIMON;CALLE PRINCIPAL S/N NUM. 0;;NE;016;00;62;21;62;;;;;;2011;;;0;11;10;2;8;14;13;4;9;4;4;2;2;19;19;6;13;12;12;12;0;16;16;16;0;0;0;0;0;0;0;0;0;76;74;42;32;QUIMICOBIOLOGICO;3;9;12;ECONOMICO ADMINISTRATIVO;4;1;5;HUMANIDADES Y CIENCIAS SOCIALE;5;6;11;;0;0;0;;0;0;0;;0;0;0;28;0;0;0;0;0;0;0;0;0;0;0;0;0;0;0;0;0;0;0;0;0;0;0;0;0;1;1;1;0;3;0;3;4;3;1;0;0;0;0;0;0;0;11;0;3;4;2;1;0;0;0;0;0;0;0;10;0;0;2;0;0;0;0;0;0;0;0;0;2;0;6;7;1;0;0;0;0;0;0;0;0;14;0;5;7;1;0;0;0;0;0;0;0;0;13;0;1;3;0;0;0;0;0;0;0;0;0;4;0;0;3;1;0;0;0;0;0;0;0;4;0;0;3;1;0;0;0;0;0;0;0;4;0;0;2;0;0;0;0;0;0;0;0;2;0;14;5;0;0;0;0;0;0;0;0;19;0;14;5;0;0;0;0;0;0;0;0;19;0;4;2;0;0;0;0;0;0;0;0;6;0;2;6;3;1;0;0;0;0;0;12;0;2;6;3;1;0;0;0;0;0;12;0;2;6;3;1;0;0;0;0;0;12;0;6;7;3;0;0;0;0;0;0;16;0;6;7;3;0;0;0;0;0;0;16;0;6;7;3;0;0;0;0;0;0;16;0;0;0;0;0;0;0;0;0;0;0;0;0;0;0;0;0;0;0;0;0;0;0;0;0;0;0;0;0;0;0;0;0;0;0;0;0;0;0;0;0;0;0;0;0;0;0;0;0;0;0;0;0;0;0;0;0;0;0;0;0;3;4;8;8;3;1;0;0;0;0;0;27;0;3;4;7;8;3;1;0;0;0;0;0;26;0;0;2;4;6;3;1;0;0;0;0;0;16;0;6;21;12;7;3;0;0;0;0;0;0;49;0;5;21;12;7;3;0;0;0;0;0;0;48;0;1;7;8;7;3;0;0;0;0;0;0;26;1;0;2;0;0;0;0;0;3;3;0;0;0;3;0;0;0;0;0;0;0;0;0;0;0;0;0;0;0;0;0;0;0;0;0;0;0;0;0;0;0;0;0;0;0;0;0;0;0;0;0;0;0;0;0;0;0;0;29/06/2012 04:02:13 p.m.
30ETH0355W;TELEBACHILLERATO CACAHUATENGO;1;VERACRUZ DE IGNACIO DE LA LLAVE;083;IXHUATLAN DE MADERO;0010;CACAHUATENGO;CONOCIDO NUM. 0;;NE;016;00;62;21;62;;;;;;2011;;;0;19;19;15;4;32;32;32;0;31;31;27;4;20;20;15;5;20;20;20;0;16;16;16;0;0;0;0;0;0;0;0;0;138;138;125;13;QUIMICO BIOLOGICA;3;8;11;ECONOMICO ADMINISTRATIVA;2;0;2;HUMANIDADES;10;8;18;FISICO MATEMATICO;5;0;5;;0;0;0;;0;0;0;36;0;0;0;0;0;0;0;0;0;0;0;0;0;0;0;0;0;0;0;0;0;0;0;0;0;2;2;1;0;5;0;12;5;1;1;0;0;0;0;0;0;0;19;0;12;5;1;1;0;0;0;0;0;0;0;19;0;8;5;1;1;0;0;0;0;0;0;0;15;0;24;5;1;1;1;0;0;0;0;0;0;32;0;24;5;1;1;1;0;0;0;0;0;0;32;0;24;5;1;1;1;0;0;0;0;0;0;32;0;18;8;4;1;0;0;0;0;0;0;31;0;18;8;4;1;0;0;0;0;0;0;31;0;14;8;4;1;0;0;0;0;0;0;27;0;12;3;4;1;0;0;0;0;0;0;20;0;12;3;4;1;0;0;0;0;0;0;20;0;7;3;4;1;0;0;0;0;0;0;15;0;10;6;3;1;0;0;0;0;0;20;0;10;6;3;1;0;0;0;0;0;20;0;10;6;3;1;0;0;0;0;0;20;0;6;6;2;2;0;0;0;0;0;16;0;6;6;2;2;0;0;0;0;0;16;0;6;6;2;2;0;0;0;0;0;16;0;0;0;0;0;0;0;0;0;0;0;0;0;0;0;0;0;0;0;0;0;0;0;0;0;0;0;0;0;0;0;0;0;0;0;0;0;0;0;0;0;0;0;0;0;0;0;0;0;0;0;0;0;0;0;0;0;0;0;0;0;12;23;19;11;4;1;0;0;0;0;0;70;0;12;23;19;11;4;1;0;0;0;0;0;70;0;8;19;19;11;4;1;0;0;0;0;0;62;0;24;17;10;11;4;2;0;0;0;0;0;68;0;24;17;10;11;4;2;0;0;0;0;0;68;0;24;12;10;11;4;2;0;0;0;0;0;63;1;0;4;0;0;0;0;0;5;0;5;0;0;5;0;0;0;0;0;0;0;0;0;0;0;0;0;0;0;0;0;0;0;0;0;0;0;0;0;0;0;0;0;0;0;0;0;0;0;0;0;0;0;0;0;0;0;0;30/06/2012 05:10:44 p.m.
30ETH0381U;TELEBACHILLERATO ACALA;1;VERACRUZ DE IGNACIO DE LA LLAVE;151;TAMIAHUA;0002;ACALA;CONOCIDO NUM. 0;;NE;000;00;62;21;62;;;;;;2011;;;0;14;11;9;2;11;11;10;1;9;9;9;0;8;8;8;0;5;5;5;0;7;7;7;0;0;0;0;0;0;0;0;0;54;51;48;3;ECONOMICO-ADMINISTRATIVO;0;2;2;HUMANIDADES Y CIENCIAS SOC.;5;5;10;;0;0;0;;0;0;0;;0;0;0;;0;0;0;12;0;0;0;0;0;0;0;0;0;0;0;0;0;0;0;0;0;0;0;0;0;0;0;0;0;1;1;1;0;3;1;6;6;1;0;0;0;0;0;0;0;0;14;1;5;4;1;0;0;0;0;0;0;0;0;11;1;4;4;0;0;0;0;0;0;0;0;0;9;0;9;1;1;0;0;0;0;0;0;0;0;11;0;9;1;1;0;0;0;0;0;0;0;0;11;0;9;1;0;0;0;0;0;0;0;0;0;10;0;9;0;0;0;0;0;0;0;0;0;9;0;9;0;0;0;0;0;0;0;0;0;9;0;9;0;0;0;0;0;0;0;0;0;9;0;8;0;0;0;0;0;0;0;0;0;8;0;8;0;0;0;0;0;0;0;0;0;8;0;8;0;0;0;0;0;0;0;0;0;8;0;5;0;0;0;0;0;0;0;0;5;0;5;0;0;0;0;0;0;0;0;5;0;5;0;0;0;0;0;0;0;0;5;0;7;0;0;0;0;0;0;0;0;7;0;7;0;0;0;0;0;0;0;0;7;0;7;0;0;0;0;0;0;0;0;7;0;0;0;0;0;0;0;0;0;0;0;0;0;0;0;0;0;0;0;0;0;0;0;0;0;0;0;0;0;0;0;0;0;0;0;0;0;0;0;0;0;0;0;0;0;0;0;0;0;0;0;0;0;0;0;0;0;0;0;0;1;6;15;6;0;0;0;0;0;0;0;0;28;1;5;13;6;0;0;0;0;0;0;0;0;25;1;4;13;5;0;0;0;0;0;0;0;0;23;0;9;9;8;0;0;0;0;0;0;0;0;26;0;9;9;8;0;0;0;0;0;0;0;0;26;0;9;9;7;0;0;0;0;0;0;0;0;25;1;0;2;0;0;0;0;0;3;0;3;0;0;3;0;0;0;0;0;0;0;0;0;0;0;0;0;0;0;0;0;0;0;0;0;0;0;0;0;0;0;0;0;0;0;0;0;0;0;0;0;0;0;0;0;0;0;0;02/07/2012 06:19:04 p.m.
30ETH0383S;TELEBACHILLERATO LA PIMIENTA;1;VERACRUZ DE IGNACIO DE LA LLAVE;060;CHINAMPA DE GOROSTIZA;0018;LA PIMIENTA;INDEPENDENCIA S/N NUM. 0;;NE;000;00;62;21;62;;;;;;2011;;;0;22;22;12;10;9;9;6;3;17;14;3;11;15;15;8;7;25;25;17;8;14;14;12;2;0;0;0;0;0;0;0;0;102;99;58;41;ECONOMICO-ADMINISTRATIVO;13;4;17;HUMANIDADES Y ARTE;12;10;22;;0;0;0;;0;0;0;;0;0;0;;0;0;0;39;0;0;0;0;0;0;0;0;0;0;0;0;0;0;0;0;0;0;0;0;0;0;0;0;0;1;1;1;0;3;0;14;4;3;0;1;0;0;0;0;0;0;22;0;14;4;3;0;1;0;0;0;0;0;0;22;0;7;4;1;0;0;0;0;0;0;0;0;12;0;5;3;1;0;0;0;0;0;0;0;0;9;0;5;3;1;0;0;0;0;0;0;0;0;9;0;3;3;0;0;0;0;0;0;0;0;0;6;0;13;4;0;0;0;0;0;0;0;0;17;0;10;4;0;0;0;0;0;0;0;0;14;0;1;2;0;0;0;0;0;0;0;0;3;0;12;3;0;0;0;0;0;0;0;0;15;0;12;3;0;0;0;0;0;0;0;0;15;0;5;3;0;0;0;0;0;0;0;0;8;0;14;5;4;0;1;1;0;0;0;25;0;14;5;4;0;1;1;0;0;0;25;0;10;5;1;0;0;1;0;0;0;17;0;11;2;1;0;0;0;0;0;0;14;0;11;2;1;0;0;0;0;0;0;14;0;9;2;1;0;0;0;0;0;0;12;0;0;0;0;0;0;0;0;0;0;0;0;0;0;0;0;0;0;0;0;0;0;0;0;0;0;0;0;0;0;0;0;0;0;0;0;0;0;0;0;0;0;0;0;0;0;0;0;0;0;0;0;0;0;0;0;0;0;0;0;0;14;17;21;5;5;0;1;1;0;0;0;64;0;14;14;21;5;5;0;1;1;0;0;0;61;0;7;5;13;5;1;0;0;1;0;0;0;32;0;5;15;15;2;1;0;0;0;0;0;0;38;0;5;15;15;2;1;0;0;0;0;0;0;38;0;3;8;12;2;1;0;0;0;0;0;0;26;1;0;3;0;0;0;0;0;4;0;4;0;0;4;0;0;0;0;0;0;0;0;0;0;0;0;0;0;0;0;0;0;0;0;0;0;0;0;0;0;0;0;0;0;0;0;0;0;0;0;0;0;0;0;0;0;0;0;02/07/2012 04:47:02 p.m.
30ETH0837B;TELEBACHILLERATO CHUNIAPAN DE ARRIBA;1;VERACRUZ DE IGNACIO DE LA LLAVE;141;SAN ANDRES TUXTLA;0032;CHUNIAPAN DE ARRIBA;CALLE S/N NUM. 0;;NE;011;00;61;21;62;;;;;;2011;;;0;12;10;10;0;9;9;9;0;3;3;3;0;6;6;6;0;7;7;7;0;6;6;6;0;0;0;0;0;0;0;0;0;43;41;41;0;ECONOMICO-ADMINISTRATIVO;7;6;13;;0;0;0;;0;0;0;;0;0;0;;0;0;0;;0;0;0;13;0;0;0;0;0;0;0;0;0;0;0;0;0;0;0;0;0;0;0;0;0;0;0;0;0;1;1;1;0;3;0;6;4;0;2;0;0;0;0;0;0;0;12;0;5;4;0;1;0;0;0;0;0;0;0;10;0;5;4;0;1;0;0;0;0;0;0;0;10;0;5;4;0;0;0;0;0;0;0;0;0;9;0;5;4;0;0;0;0;0;0;0;0;0;9;0;5;4;0;0;0;0;0;0;0;0;0;9;0;2;1;0;0;0;0;0;0;0;0;3;0;2;1;0;0;0;0;0;0;0;0;3;0;2;1;0;0;0;0;0;0;0;0;3;0;5;1;0;0;0;0;0;0;0;0;6;0;5;1;0;0;0;0;0;0;0;0;6;0;5;1;0;0;0;0;0;0;0;0;6;0;7;0;0;0;0;0;0;0;0;7;0;7;0;0;0;0;0;0;0;0;7;0;7;0;0;0;0;0;0;0;0;7;0;4;2;0;0;0;0;0;0;0;6;0;4;2;0;0;0;0;0;0;0;6;0;4;2;0;0;0;0;0;0;0;6;0;0;0;0;0;0;0;0;0;0;0;0;0;0;0;0;0;0;0;0;0;0;0;0;0;0;0;0;0;0;0;0;0;0;0;0;0;0;0;0;0;0;0;0;0;0;0;0;0;0;0;0;0;0;0;0;0;0;0;0;0;6;6;8;2;0;0;0;0;0;0;0;22;0;5;6;8;1;0;0;0;0;0;0;0;20;0;5;6;8;1;0;0;0;0;0;0;0;20;0;5;9;5;2;0;0;0;0;0;0;0;21;0;5;9;5;2;0;0;0;0;0;0;0;21;0;5;9;5;2;0;0;0;0;0;0;0;21;1;0;2;0;0;0;0;0;3;0;3;0;0;3;0;0;0;0;0;0;0;0;0;0;0;0;0;0;0;0;0;0;0;0;0;0;0;0;0;0;0;0;0;0;0;0;0;0;0;0;0;0;0;0;0;0;0;0;29/06/2012 10:43:07 p.m.
30ETH0742O;TELEBACHILLERATO XOTEAPAN;1;VERACRUZ DE IGNACIO DE LA LLAVE;141;SAN ANDRES TUXTLA;0092;XOTEAPAN;IGNACIO ZARAGOZA S/N NUM. 0;;NE;011;00;61;21;62;;;;;;2011;;;0;28;26;26;0;17;16;16;0;11;11;11;0;8;8;8;0;12;12;12;0;5;5;5;0;0;0;0;0;0;0;0;0;81;78;78;0;HUMANIDADES Y CIENCIAS SOCIALE;10;2;12;FÍSICO-MATEMÁTICAS;2;3;5;;0;0;0;;0;0;0;;0;0;0;;0;0;0;17;0;0;0;0;0;0;0;0;0;0;0;0;0;0;0;0;0;0;0;0;0;0;0;0;0;2;1;1;0;4;0;20;6;2;0;0;0;0;0;0;0;0;28;0;19;5;2;0;0;0;0;0;0;0;0;26;0;19;5;2;0;0;0;0;0;0;0;0;26;0;12;5;0;0;0;0;0;0;0;0;0;17;0;12;4;0;0;0;0;0;0;0;0;0;16;0;12;4;0;0;0;0;0;0;0;0;0;16;0;8;2;1;0;0;0;0;0;0;0;11;0;8;2;1;0;0;0;0;0;0;0;11;0;8;2;1;0;0;0;0;0;0;0;11;0;5;0;1;2;0;0;0;0;0;0;8;0;5;0;1;2;0;0;0;0;0;0;8;0;5;0;1;2;0;0;0;0;0;0;8;0;6;2;4;0;0;0;0;0;0;12;0;6;2;4;0;0;0;0;0;0;12;0;6;2;4;0;0;0;0;0;0;12;1;3;0;1;0;0;0;0;0;0;5;1;3;0;1;0;0;0;0;0;0;5;1;3;0;1;0;0;0;0;0;0;5;0;0;0;0;0;0;0;0;0;0;0;0;0;0;0;0;0;0;0;0;0;0;0;0;0;0;0;0;0;0;0;0;0;0;0;0;0;0;0;0;0;0;0;0;0;0;0;0;0;0;0;0;0;0;0;0;0;0;0;0;0;20;14;10;3;4;0;0;0;0;0;0;51;0;19;13;10;3;4;0;0;0;0;0;0;49;0;19;13;10;3;4;0;0;0;0;0;0;49;0;12;11;3;1;3;0;0;0;0;0;0;30;0;12;10;3;1;3;0;0;0;0;0;0;29;0;12;10;3;1;3;0;0;0;0;0;0;29;1;0;3;0;0;0;0;0;4;0;4;0;0;4;0;0;0;0;0;0;0;0;0;0;0;0;0;0;0;0;0;0;0;0;0;0;0;0;0;0;0;0;0;0;0;0;0;0;0;0;0;0;0;0;0;0;0;0;28/06/2012 04:46:24 p.m.
30ETH0743N;TELEBACHILLERATO CAOBAL;1;VERACRUZ DE IGNACIO DE LA LLAVE;142;SAN JUAN EVANGELISTA;0009;CAOBAL;EDUCADORA S/N NUM. 0;;NE;013;00;73;21;62;;;;;;2011;;;0;6;6;6;0;12;11;11;0;13;9;9;0;5;5;5;0;8;8;8;0;11;11;11;0;0;0;0;0;0;0;0;0;55;50;50;0;QUIMICO - BIOLOGICAS;4;3;7;HUMANIDADES Y CIENCIAS SOCIAL;4;8;12;;0;0;0;;0;0;0;;0;0;0;;0;0;0;19;0;0;0;0;0;0;0;0;0;0;0;0;0;0;0;0;0;0;0;0;0;0;0;0;0;1;1;1;0;3;0;5;0;1;0;0;0;0;0;0;0;0;6;0;5;0;1;0;0;0;0;0;0;0;0;6;0;5;0;1;0;0;0;0;0;0;0;0;6;0;10;1;1;0;0;0;0;0;0;0;0;12;0;10;0;1;0;0;0;0;0;0;0;0;11;0;10;0;1;0;0;0;0;0;0;0;0;11;0;8;4;0;1;0;0;0;0;0;0;13;0;7;2;0;0;0;0;0;0;0;0;9;0;7;2;0;0;0;0;0;0;0;0;9;0;5;0;0;0;0;0;0;0;0;0;5;0;5;0;0;0;0;0;0;0;0;0;5;0;5;0;0;0;0;0;0;0;0;0;5;0;3;4;1;0;0;0;0;0;0;8;0;3;4;1;0;0;0;0;0;0;8;0;3;4;1;0;0;0;0;0;0;8;0;10;1;0;0;0;0;0;0;0;11;0;10;1;0;0;0;0;0;0;0;11;0;10;1;0;0;0;0;0;0;0;11;0;0;0;0;0;0;0;0;0;0;0;0;0;0;0;0;0;0;0;0;0;0;0;0;0;0;0;0;0;0;0;0;0;0;0;0;0;0;0;0;0;0;0;0;0;0;0;0;0;0;0;0;0;0;0;0;0;0;0;0;0;5;8;8;4;2;0;0;0;0;0;0;27;0;5;7;6;4;1;0;0;0;0;0;0;23;0;5;7;6;4;1;0;0;0;0;0;0;23;0;10;6;11;1;0;0;0;0;0;0;0;28;0;10;5;11;1;0;0;0;0;0;0;0;27;0;10;5;11;1;0;0;0;0;0;0;0;27;1;0;2;0;0;0;0;0;3;0;3;0;0;3;0;0;0;0;0;0;0;0;0;0;0;0;0;0;0;0;0;0;0;0;0;0;0;0;0;0;0;0;0;0;0;0;0;0;0;0;0;0;0;0;0;0;0;0;01/07/2012 03:16:32 p.m.
30ETH0752V;TELEBACHILLERATO CRUZ DE LOS ESTEROS;2;VERACRUZ DE IGNACIO DE LA LLAVE;158;TECOLUTLA;0009;CRUZ DE LOS ESTEROS;CONOCIDO FRENTE AL KINDER NUM. 0;;NE;000;00;63;21;62;;;;;;2011;;;0;9;9;9;0;7;7;7;0;7;7;7;0;6;6;6;0;5;5;5;0;3;3;3;0;0;0;0;0;0;0;0;0;37;37;37;0;ECONOMICO ADMINISTRATIVO;1;1;2;HUMANIDADES Y ARTES;4;2;6;;0;0;0;;0;0;0;;0;0;0;;0;0;0;8;0;0;0;0;0;0;0;0;0;0;0;0;0;0;0;0;0;0;0;0;0;0;0;0;0;1;1;1;0;3;0;3;5;0;0;1;0;0;0;0;0;0;9;0;3;5;0;0;1;0;0;0;0;0;0;9;0;3;5;0;0;1;0;0;0;0;0;0;9;0;4;2;1;0;0;0;0;0;0;0;0;7;0;4;2;1;0;0;0;0;0;0;0;0;7;0;4;2;1;0;0;0;0;0;0;0;0;7;0;3;3;1;0;0;0;0;0;0;0;7;0;3;3;1;0;0;0;0;0;0;0;7;0;3;3;1;0;0;0;0;0;0;0;7;0;2;1;3;0;0;0;0;0;0;0;6;0;2;1;3;0;0;0;0;0;0;0;6;0;2;1;3;0;0;0;0;0;0;0;6;0;4;1;0;0;0;0;0;0;0;5;0;4;1;0;0;0;0;0;0;0;5;0;4;1;0;0;0;0;0;0;0;5;0;0;3;0;0;0;0;0;0;0;3;0;0;3;0;0;0;0;0;0;0;3;0;0;3;0;0;0;0;0;0;0;3;0;0;0;0;0;0;0;0;0;0;0;0;0;0;0;0;0;0;0;0;0;0;0;0;0;0;0;0;0;0;0;0;0;0;0;0;0;0;0;0;0;0;0;0;0;0;0;0;0;0;0;0;0;0;0;0;0;0;0;0;0;3;8;7;2;1;0;0;0;0;0;0;21;0;3;8;7;2;1;0;0;0;0;0;0;21;0;3;8;7;2;1;0;0;0;0;0;0;21;0;4;4;2;6;0;0;0;0;0;0;0;16;0;4;4;2;6;0;0;0;0;0;0;0;16;0;4;4;2;6;0;0;0;0;0;0;0;16;1;0;2;0;0;0;0;0;3;0;3;0;0;3;0;0;0;0;0;0;0;0;0;0;0;0;0;0;0;0;0;0;0;0;0;0;0;0;0;0;0;0;0;0;0;0;0;0;0;0;0;0;0;0;0;0;0;0;27/06/2012 10:54:21 a.m.
30ETH0777D;TELEBACHILLERATO AHUACAPAN SEGUNDO;2;VERACRUZ DE IGNACIO DE LA LLAVE;083;IXHUATLAN DE MADERO;0100;AHUACAPA SEGUNDO;CONOCIDO AHUACAPA SEGUNDO NUM. 0;;NE;016;00;62;21;62;;;;;;2011;;;0;11;11;11;0;16;16;16;0;17;17;17;0;16;16;16;0;12;12;12;0;10;10;10;0;0;0;0;0;0;0;0;0;82;82;82;0;HUMANIDADES Y CIENCIAS SOC.;12;10;22;;0;0;0;;0;0;0;;0;0;0;;0;0;0;;0;0;0;22;0;0;0;0;0;0;0;0;0;0;0;0;0;0;0;0;0;0;0;0;0;0;0;0;0;1;1;1;0;3;0;5;5;0;1;0;0;0;0;0;0;0;11;0;5;5;0;1;0;0;0;0;0;0;0;11;0;5;5;0;1;0;0;0;0;0;0;0;11;0;4;9;1;2;0;0;0;0;0;0;0;16;0;4;9;1;2;0;0;0;0;0;0;0;16;0;4;9;1;2;0;0;0;0;0;0;0;16;0;7;5;3;2;0;0;0;0;0;0;17;0;7;5;3;2;0;0;0;0;0;0;17;0;7;5;3;2;0;0;0;0;0;0;17;0;7;7;2;0;0;0;0;0;0;0;16;0;7;7;2;0;0;0;0;0;0;0;16;0;7;7;2;0;0;0;0;0;0;0;16;0;2;8;2;0;0;0;0;0;0;12;0;2;8;2;0;0;0;0;0;0;12;0;2;8;2;0;0;0;0;0;0;12;0;3;4;3;0;0;0;0;0;0;10;0;3;4;3;0;0;0;0;0;0;10;0;3;4;3;0;0;0;0;0;0;10;0;0;0;0;0;0;0;0;0;0;0;0;0;0;0;0;0;0;0;0;0;0;0;0;0;0;0;0;0;0;0;0;0;0;0;0;0;0;0;0;0;0;0;0;0;0;0;0;0;0;0;0;0;0;0;0;0;0;0;0;0;5;12;7;12;4;0;0;0;0;0;0;40;0;5;12;7;12;4;0;0;0;0;0;0;40;0;5;12;7;12;4;0;0;0;0;0;0;40;0;4;16;11;8;3;0;0;0;0;0;0;42;0;4;16;11;8;3;0;0;0;0;0;0;42;0;4;16;11;8;3;0;0;0;0;0;0;42;1;0;3;0;0;0;0;0;4;0;4;0;0;4;0;0;0;0;0;0;0;0;0;0;0;0;0;0;0;0;0;0;0;0;0;0;0;0;0;0;0;0;0;0;0;0;0;0;0;0;0;0;0;0;0;0;0;0;01/07/2012 03:32:51 p.m.
30ETH0791X;TELEBACHILLERATO EJIDO LA VIRGEN;2;VERACRUZ DE IGNACIO DE LA LLAVE;145;SOCONUSCO;0013;EJIDO LA VIRGEN;ESCUELA TELESECUNDARIA NUM. 0;;NE;001;00;73;21;62;;;;;;2011;;;0;9;9;9;0;4;4;4;0;7;7;7;0;4;4;4;0;4;4;4;0;6;6;6;0;0;0;0;0;0;0;0;0;34;34;34;0;ECONOMICO ADMINISTRATIVO;4;0;4;FISICO MATEMATICO;0;6;6;;0;0;0;;0;0;0;;0;0;0;;0;0;0;10;0;0;0;0;0;0;0;0;0;0;0;0;0;0;0;0;0;0;0;0;0;0;0;0;0;1;1;1;0;3;0;5;4;0;0;0;0;0;0;0;0;0;9;0;5;4;0;0;0;0;0;0;0;0;0;9;0;5;4;0;0;0;0;0;0;0;0;0;9;0;4;0;0;0;0;0;0;0;0;0;0;4;0;4;0;0;0;0;0;0;0;0;0;0;4;0;4;0;0;0;0;0;0;0;0;0;0;4;0;2;2;3;0;0;0;0;0;0;0;7;0;2;2;3;0;0;0;0;0;0;0;7;0;2;2;3;0;0;0;0;0;0;0;7;0;0;2;2;0;0;0;0;0;0;0;4;0;0;2;2;0;0;0;0;0;0;0;4;0;0;2;2;0;0;0;0;0;0;0;4;0;2;1;1;0;0;0;0;0;0;4;0;2;1;1;0;0;0;0;0;0;4;0;2;1;1;0;0;0;0;0;0;4;0;3;3;0;0;0;0;0;0;0;6;0;3;3;0;0;0;0;0;0;0;6;0;3;3;0;0;0;0;0;0;0;6;0;0;0;0;0;0;0;0;0;0;0;0;0;0;0;0;0;0;0;0;0;0;0;0;0;0;0;0;0;0;0;0;0;0;0;0;0;0;0;0;0;0;0;0;0;0;0;0;0;0;0;0;0;0;0;0;0;0;0;0;0;5;6;4;4;1;0;0;0;0;0;0;20;0;5;6;4;4;1;0;0;0;0;0;0;20;0;5;6;4;4;1;0;0;0;0;0;0;20;0;4;0;5;5;0;0;0;0;0;0;0;14;0;4;0;5;5;0;0;0;0;0;0;0;14;0;4;0;5;5;0;0;0;0;0;0;0;14;1;0;2;0;0;0;0;0;3;0;0;3;0;3;0;0;0;0;0;0;0;0;0;0;0;0;0;0;0;0;0;0;0;0;0;0;0;0;0;0;0;0;0;0;0;0;0;0;0;0;0;0;0;0;0;0;0;0;30/06/2012 12:44:28 a.m.
