30PBT0422P;INSTITUTO DE ESPECIALIDADES PARA EL TRABAJO (IEPT);2;VERACRUZ DE IGNACIO DE LA LLAVE;087;XALAPA;0001;XALAPA-ENRIQUEZ;J. J. CORONADO NUM. 59 NUM. 0;;CC;000;00;56;61;68;;;;;;2011;;;1;1;0;0;0;0;0;0;0;0;0;0;0;0;0;0;0;0;0;0;0;0;0;0;0;0;0;0;0;0;0;1;0;2;1;0;0;4;0;0;1;0;2;1;0;0;4;0;0;1;0;2;1;0;0;4;0;0;0;0;0;0;0;0;0;0;0;0;0;0;0;0;0;0;0;0;0;0;0;0;0;0;0;0;0;0;0;1;0;0;0;0;0;0;0;0;0;0;0;0;0;0;0;0;0;0;0;0;0;0;0;0;0;0;0;0;0;0;0;0;0;0;0;0;0;0;0;0;0;0;0;0;0;0;0;0;0;2;0;0;1;2;0;0;0;0;0;0;0;0;0;0;0;0;0;0;0;0;0;0;0;0;0;0;0;0;;0;0;0;0;0;0;0;0;0;0;;0;0;0;0;0;0;0;0;0;0;;0;0;0;0;0;0;0;0;0;0;0;3;0;0;1;2;0;0;0;0;6;2;0;1;3;6;01/07/2012 02:33:28 p.m.
30PBT0479Q;COLEGIO BILINGŠE;1;VERACRUZ DE IGNACIO DE LA LLAVE;143;SANTIAGO TUXTLA;0001;SANTIAGO TUXTLA;16 DE SEPTIEMBRE NUM. 32 NUM. 0;;CC;000;00;61;61;68;;;;;;2011;;;1;1;0;2;0;0;0;0;0;0;2;0;2;0;0;0;0;0;0;2;0;2;0;0;0;0;0;0;2;0;4;0;0;0;0;0;0;4;0;4;0;0;0;0;0;0;4;0;4;0;0;0;0;0;0;4;0;0;0;0;0;0;0;0;0;0;0;0;0;0;0;0;0;0;0;0;0;0;0;0;0;0;0;0;0;0;0;0;0;0;0;0;0;0;0;0;0;0;0;0;0;0;0;0;0;0;0;0;0;0;0;0;0;0;0;0;0;0;0;0;0;0;0;0;0;0;0;0;0;0;0;0;0;0;0;0;0;1;0;0;0;0;0;0;0;0;0;0;0;0;0;0;0;0;0;0;0;0;0;0;0;0;0;0;0;0;;0;0;0;0;0;0;0;0;0;0;;0;0;0;0;0;0;0;0;0;0;;0;0;0;0;0;0;0;0;0;0;0;1;0;0;0;0;0;0;0;0;1;0;0;0;1;1;02/07/2012 11:58:56 a.m.
30PBT0479Q;COLEGIO BILINGŠE;2;VERACRUZ DE IGNACIO DE LA LLAVE;143;SANTIAGO TUXTLA;0001;SANTIAGO TUXTLA;16 DE SEPTIEMBRE NUM. 32 NUM. 0;;CC;000;00;61;61;68;;;;;;2011;1;;;;;;;;;;;;;;;;;;;;;;;;;;;;;;;;;;;;;;;;;;;;;;;;;;;;;;;;;;;;;;;;;;;;;;;;;;;;;;;;;;;;;;;;;;;;;;;;;;;;;;;;;;;;;;;;;;;;;;;;;;;;;;;;;;;;;;;;;;;;;;;;;;;;;;;;;;;;;;;;;;;;;;;;;;;;;;;;;;;;;;;;;;;;;;;;;;;;;;;;;;;;;;;;;;;;;;;;;02/07/2012 12:17:12 p.m.
30PBT0547X;AMERICAN ENGLISH CENTER;2;VERACRUZ DE IGNACIO DE LA LLAVE;131;POZA RICA DE HIDALGO;0001;POZA RICA DE HIDALGO;14 NORTE ESQUINA 4 ORIENTE LOCAL 2 NUM. 0;;CC;000;00;63;61;68;;;;;;2011;;;1;1;0;0;5;10;10;5;0;0;30;0;0;5;10;10;5;0;0;30;0;0;5;10;10;5;0;0;30;0;0;5;10;10;5;0;0;30;0;0;5;10;10;5;0;0;30;0;0;5;10;10;5;0;0;30;0;0;0;0;0;0;0;0;0;0;0;0;0;0;0;0;0;0;0;0;0;0;0;0;0;0;0;0;0;0;0;0;0;0;0;0;0;0;0;0;0;0;0;0;0;0;0;0;0;0;0;0;0;0;0;0;0;0;0;0;0;0;0;0;0;0;0;0;0;0;0;0;0;0;0;0;0;0;0;0;0;0;0;0;1;0;0;0;0;0;0;0;0;0;0;0;0;0;0;0;0;0;0;0;0;0;0;0;0;0;;0;0;0;0;0;0;0;0;0;0;;0;0;0;0;0;0;0;0;0;0;;0;0;0;0;0;0;0;0;0;0;0;0;0;0;1;0;0;0;0;0;1;0;0;0;1;1;29/06/2012 12:57:32 p.m.
30PBT0547X;AMERICAN ENGLISH CENTER;1;VERACRUZ DE IGNACIO DE LA LLAVE;131;POZA RICA DE HIDALGO;0001;POZA RICA DE HIDALGO;14 NORTE ESQUINA 4 ORIENTE LOCAL 2 NUM. 0;;CC;000;00;63;61;68;;;;;;2011;;;1;1;0;5;3;2;0;0;0;0;10;0;5;3;2;0;0;0;0;10;0;5;3;2;0;0;0;0;10;0;5;1;4;0;0;0;0;10;0;5;1;4;0;0;0;0;10;0;5;1;4;0;0;0;0;10;0;0;0;0;0;0;0;0;0;0;0;0;0;0;0;0;0;0;0;0;0;0;0;0;0;0;0;0;0;0;0;0;0;0;0;0;0;0;0;0;0;0;0;0;0;0;0;0;0;0;0;0;0;0;0;0;0;0;0;0;0;0;0;0;0;0;0;0;0;0;0;0;0;0;0;0;0;0;0;0;0;0;0;0;1;0;0;0;0;1;1;0;0;0;0;0;0;0;0;0;0;0;0;0;0;0;0;0;0;0;;0;0;0;0;0;0;0;0;0;0;;0;0;0;0;0;0;0;0;0;0;;0;0;0;0;0;0;0;0;0;0;1;0;0;0;1;0;0;0;0;1;3;1;0;0;1;2;29/06/2012 12:46:10 p.m.
30PBT0566L;INTERLINGUA COATZACOALCOS;2;VERACRUZ DE IGNACIO DE LA LLAVE;039;COATZACOALCOS;0001;COATZACOALCOS;MICHOACAN NUM. 201 ESQUINA NUEVO LEON NUM. 0;;CC;000;00;49;61;68;;;;;;2011;;;1;5;2;6;3;3;2;1;0;0;17;2;6;3;3;2;1;0;0;17;2;6;3;3;2;1;0;0;17;2;3;2;4;2;1;0;0;14;2;3;2;4;2;1;0;0;14;2;3;2;4;2;1;0;0;14;0;0;0;0;0;0;0;0;0;0;0;0;0;0;0;0;0;0;0;0;0;0;0;0;0;0;0;0;0;0;0;0;0;0;4;1;0;0;0;0;0;0;0;0;0;0;0;0;1;1;0;0;0;0;0;0;0;0;2;1;0;0;0;0;0;0;0;0;0;0;0;0;0;0;0;0;0;0;0;0;0;0;1;0;2;0;0;0;1;2;0;0;0;0;1;0;0;0;0;0;0;0;0;1;0;0;0;0;0;0;;0;0;0;0;0;0;0;0;0;0;;0;0;0;0;0;0;0;0;0;0;;0;0;0;0;0;0;0;0;0;0;0;0;1;1;7;1;0;0;4;4;18;1;0;0;7;8;29/06/2012 10:52:52 a.m.
30PBT0566L;INTERLINGUA COATZACOALCOS;3;VERACRUZ DE IGNACIO DE LA LLAVE;039;COATZACOALCOS;0001;COATZACOALCOS;MICHOACAN NUM. 201 ESQUINA NUEVO LEON NUM. 0;;CC;000;00;49;61;68;;;;;;2011;;;1;2;0;1;3;3;0;0;0;0;7;0;1;3;3;0;0;0;0;7;0;1;3;3;0;0;0;0;7;0;1;1;0;1;0;0;0;3;0;1;1;0;1;0;0;0;3;0;1;1;0;1;0;0;0;3;0;0;0;0;0;0;0;0;0;0;0;0;0;0;0;0;0;0;0;0;0;0;0;0;0;0;0;0;0;0;0;0;0;0;4;1;0;0;1;1;0;0;0;0;0;0;0;0;2;1;0;0;0;0;0;0;0;0;0;0;0;0;0;0;0;0;0;0;0;0;0;0;0;0;0;0;0;0;0;0;0;0;1;0;2;0;0;0;1;2;0;0;0;0;1;0;0;0;0;0;0;0;0;1;0;0;0;0;0;0;;0;0;0;0;0;0;0;0;0;0;;0;0;0;0;0;0;0;0;0;0;;0;0;0;0;0;0;0;0;0;0;0;0;1;1;7;1;0;0;4;4;18;1;0;0;7;8;29/06/2012 11:05:12 a.m.
30PBT0566L;INTERLINGUA COATZACOALCOS;1;VERACRUZ DE IGNACIO DE LA LLAVE;039;COATZACOALCOS;0001;COATZACOALCOS;MICHOACAN NUM. 201 ESQUINA NUEVO LEON NUM. 0;;CC;000;00;49;61;68;;;;;;2011;;;1;13;8;12;5;4;2;1;0;0;32;8;12;5;4;2;1;0;0;32;8;12;5;4;2;1;0;0;32;3;17;6;6;0;0;0;0;32;3;17;6;6;0;0;0;0;32;3;17;6;6;0;0;0;0;32;0;0;0;0;0;0;0;0;0;0;0;0;0;0;0;0;0;0;0;0;0;0;0;0;0;0;0;0;0;0;0;0;0;0;4;1;0;0;1;1;0;0;0;0;0;0;0;0;2;1;0;0;0;0;0;0;0;0;0;0;0;0;0;0;0;0;0;0;0;0;0;0;0;0;0;0;0;0;0;0;0;0;1;0;2;0;0;0;1;2;0;0;0;0;1;0;0;0;0;0;0;0;0;1;0;0;0;0;0;0;;0;0;0;0;0;0;0;0;0;0;;0;0;0;0;0;0;0;0;0;0;;0;0;0;0;0;0;0;0;0;0;0;0;1;1;7;1;0;0;4;4;18;1;0;0;7;8;29/06/2012 10:32:52 a.m.
30PBT0580E;INSTITUTO MAYA;1;VERACRUZ DE IGNACIO DE LA LLAVE;044;CORDOBA;0001;CORDOBA;CALLE 28-A NUM. 1908 NUM. 0;;CC;000;00;45;61;68;;;;;;2011;;;1;1;0;0;0;0;0;0;0;0;0;0;0;0;0;0;0;0;0;0;0;0;0;0;0;0;0;0;0;0;0;1;1;0;0;0;0;2;0;0;1;1;0;0;0;0;2;0;0;1;1;0;0;0;0;2;0;0;0;0;0;0;0;0;0;0;0;0;0;0;0;0;0;0;0;0;0;0;0;0;0;0;0;0;0;0;0;1;0;0;0;0;0;0;0;0;0;0;0;0;0;0;0;0;0;0;0;0;0;0;0;0;0;0;0;0;0;0;0;0;0;0;0;0;0;0;0;0;0;0;0;0;0;0;0;0;0;0;0;0;0;2;0;0;0;0;0;0;0;0;0;0;0;0;0;0;0;0;0;0;0;0;0;0;0;0;;0;0;0;0;0;0;0;0;0;0;;0;0;0;0;0;0;0;0;0;0;;0;0;0;0;0;0;0;0;0;0;0;1;0;0;0;2;0;0;0;0;3;3;0;0;0;3;28/06/2012 04:25:23 p.m.
30PBT0580E;INSTITUTO MAYA;2;VERACRUZ DE IGNACIO DE LA LLAVE;044;CORDOBA;0001;CORDOBA;CALLE 28-A NUM. 1908 NUM. 0;;CC;000;00;45;61;68;;;;;;2011;;;1;1;0;0;0;0;0;0;0;0;0;0;0;0;0;0;0;0;0;0;0;0;0;0;0;0;0;0;0;0;0;0;0;0;0;1;0;1;0;0;0;0;0;0;1;0;1;0;0;0;0;0;0;1;0;1;0;0;0;0;0;0;0;0;0;0;0;0;0;0;0;0;0;0;0;0;0;0;0;0;0;0;0;0;0;0;0;1;0;0;0;0;0;0;0;0;0;0;0;0;0;0;0;0;0;0;0;0;0;0;0;0;0;0;0;0;0;0;0;0;0;0;0;0;0;0;0;0;0;0;0;0;0;0;0;0;0;0;0;0;0;2;0;0;0;0;0;0;0;0;0;0;0;0;0;0;0;0;0;0;0;0;0;0;0;0;;0;0;0;0;0;0;0;0;0;0;;0;0;0;0;0;0;0;0;0;0;;0;0;0;0;0;0;0;0;0;0;0;1;0;0;0;2;0;0;0;0;3;3;0;0;0;3;28/06/2012 04:34:50 p.m.
30PBT0591K;CENTRO DE CAPACITACION VIGOSTKY;1;VERACRUZ DE IGNACIO DE LA LLAVE;039;COATZACOALCOS;0001;COATZACOALCOS;CALLE IGUANAS NUM. 100 LOTE 19 MANZANA 104 NUM. 0;;CC;000;00;49;61;68;;;;;;2011;;;4;5;0;2;1;2;3;0;0;0;8;0;2;1;2;3;0;0;0;8;0;2;1;2;3;0;0;0;8;0;6;0;3;3;0;0;0;12;0;6;0;3;3;0;0;0;12;0;6;0;3;3;0;0;0;12;0;0;0;0;0;0;0;0;0;0;0;0;0;0;0;0;0;0;0;0;0;0;0;0;0;0;0;0;0;0;0;0;0;0;0;0;0;0;0;0;0;0;0;0;0;0;0;0;0;0;0;0;0;0;0;0;0;0;0;0;0;0;0;0;0;0;0;0;0;0;0;0;0;0;0;0;0;0;0;0;0;0;0;0;0;4;0;0;0;1;0;0;0;0;0;0;0;0;0;0;0;0;0;0;0;0;0;0;0;0;;0;0;0;0;0;0;0;0;0;0;;0;0;0;0;0;0;0;0;0;0;;0;0;0;0;0;0;0;0;0;0;0;0;0;0;0;4;0;0;0;1;5;4;0;0;0;4;02/07/2012 05:57:24 p.m.
30PBT0591K;CENTRO DE CAPACITACION VIGOSTKY;3;VERACRUZ DE IGNACIO DE LA LLAVE;039;COATZACOALCOS;0001;COATZACOALCOS;CALLE IGUANAS NUM. 100 LOTE 19 MANZANA 104 NUM. 0;;CC;000;00;49;61;68;;;;;;2011;;;1;1;0;2;1;1;2;0;0;0;6;0;2;1;1;2;0;0;0;6;0;2;1;1;2;0;0;0;6;0;2;0;1;1;0;0;0;4;0;2;0;1;1;0;0;0;4;0;2;0;1;1;0;0;0;4;0;0;0;0;0;0;0;0;0;0;0;0;0;0;0;0;0;0;0;0;0;0;0;0;0;0;0;0;0;0;0;0;0;0;0;0;0;0;0;0;0;0;0;0;0;0;0;0;0;0;0;0;0;0;0;0;0;0;0;0;0;0;0;0;0;0;0;0;0;0;0;0;0;1;1;0;0;0;0;1;0;0;0;0;0;0;0;0;0;0;0;0;0;0;0;0;0;0;0;0;0;0;0;0;0;0;0;0;0;0;;0;0;0;0;0;0;0;0;0;0;;0;0;0;0;0;0;0;0;0;0;;0;0;0;0;0;0;0;0;0;0;0;0;0;1;1;0;0;0;0;1;3;1;0;0;0;1;02/07/2012 04:53:42 p.m.
30PBT0600B;INTERLINGUA PLANTEL VERACRUZ;1;VERACRUZ DE IGNACIO DE LA LLAVE;028;BOCA DEL RIO;0001;BOCA DEL RIO;BOULEVARD ADOLFO RUIZ CORTINES MANZANA 108 LOTE 1 NUM. 1228 LOC 16 NUM. 0;;CC;000;00;61;61;68;;;;;;2011;;;1;9;2;4;9;3;1;1;0;0;20;2;4;9;3;1;1;0;0;20;2;4;9;3;1;1;0;0;20;1;6;7;8;2;1;1;0;26;1;6;7;8;2;1;1;0;26;1;6;7;8;2;1;1;0;26;0;0;0;0;0;0;0;0;0;0;0;0;0;0;0;0;0;0;0;0;0;0;0;0;0;0;0;0;0;1;0;0;0;0;0;0;0;0;0;0;0;0;0;0;1;0;0;0;0;1;0;0;0;0;0;0;0;0;0;0;0;0;0;0;0;0;0;0;0;0;0;0;0;0;0;0;0;0;0;0;0;0;0;0;5;4;0;0;1;1;0;0;0;0;0;0;0;0;0;0;0;0;0;0;0;0;0;0;0;0;;0;0;0;0;0;0;0;0;0;0;;0;0;0;0;0;0;0;0;0;0;;0;0;0;0;0;0;0;0;0;0;0;0;0;0;6;4;0;0;1;3;14;0;0;0;10;10;28/06/2012 01:06:07 p.m.
30PBT0600B;INTERLINGUA PLANTEL VERACRUZ;2;VERACRUZ DE IGNACIO DE LA LLAVE;028;BOCA DEL RIO;0001;BOCA DEL RIO;BOULEVARD ADOLFO RUIZ CORTINES MANZANA 108 LOTE 1 NUM. 1228 LOC 16 NUM. 0;;CC;000;00;61;61;68;;;;;;2011;;;1;12;0;5;6;9;4;0;1;0;25;0;5;6;9;4;0;1;0;25;0;5;6;9;4;0;1;0;25;1;3;7;6;1;1;0;0;19;1;3;7;6;1;1;0;0;19;1;3;7;6;1;1;0;0;19;0;0;0;0;0;0;0;0;0;0;0;0;0;0;0;0;0;0;0;0;0;0;0;0;0;0;0;0;0;1;0;0;0;0;0;0;0;0;0;0;0;0;0;0;1;0;0;0;0;1;0;0;0;0;0;0;0;0;0;0;0;0;0;0;0;0;0;0;0;0;0;0;0;0;0;0;0;0;0;0;0;0;0;0;5;4;0;0;1;1;0;0;0;0;0;0;0;0;0;0;0;0;0;0;0;0;0;0;0;0;;0;0;0;0;0;0;0;0;0;0;;0;0;0;0;0;0;0;0;0;0;;0;0;0;0;0;0;0;0;0;0;0;0;0;0;6;4;0;0;1;3;14;0;0;0;10;10;28/06/2012 01:41:59 p.m.
30PBT0635R;CEM LATINOAMERICA;2;VERACRUZ DE IGNACIO DE LA LLAVE;039;COATZACOALCOS;0001;COATZACOALCOS;AVENIDA BENITO JAUREZ NUM. 310 DEPARTAMENTO 1 Y 2 NUM. 0;;CC;000;00;49;61;68;;;;;;2011;;;1;2;0;0;0;0;0;0;0;0;0;0;0;0;0;0;0;0;0;0;0;0;0;0;0;0;0;0;0;0;6;10;5;5;2;0;0;28;0;4;9;4;3;1;0;0;21;0;1;2;1;1;1;0;0;6;0;0;0;0;0;0;0;0;0;0;0;0;0;0;0;0;0;0;0;0;0;0;0;0;0;0;0;0;0;0;0;0;0;0;0;2;0;0;0;0;0;0;0;0;0;0;0;0;0;2;0;0;0;0;0;0;0;0;0;0;0;0;0;0;0;0;0;0;0;0;0;0;0;0;0;0;0;0;0;0;0;0;0;1;0;0;0;0;0;0;0;0;0;0;0;0;0;0;0;0;0;0;0;0;0;0;0;0;0;0;;0;0;0;0;0;0;0;0;0;0;;0;0;0;0;0;0;0;0;0;0;;0;0;0;0;0;0;0;0;0;0;0;0;0;1;0;2;0;0;0;2;5;0;0;0;2;2;02/07/2012 10:48:08 a.m.
30PBT0635R;CEM LATINOAMERICA;3;VERACRUZ DE IGNACIO DE LA LLAVE;039;COATZACOALCOS;0001;COATZACOALCOS;AVENIDA BENITO JAUREZ NUM. 310 DEPARTAMENTO 1 Y 2 NUM. 0;;CC;000;00;49;61;68;;;;;;2011;;;1;1;0;0;0;0;0;0;0;0;0;0;0;0;0;0;0;0;0;0;0;0;0;0;0;0;0;0;0;0;0;5;7;2;0;0;0;14;0;0;3;5;1;0;0;0;9;0;0;1;1;0;0;0;0;2;0;0;0;0;0;0;0;0;0;0;0;0;0;0;0;0;0;0;0;0;0;0;0;0;0;0;0;0;0;0;0;0;0;0;0;1;0;0;0;0;0;0;0;0;0;0;0;0;0;2;0;0;0;0;0;0;0;0;0;0;0;0;0;0;0;0;0;0;0;0;0;0;0;0;0;0;0;0;0;0;0;0;0;1;0;0;0;0;0;0;0;0;0;0;0;0;0;0;0;0;0;0;0;0;0;0;0;0;0;0;;0;0;0;0;0;0;0;0;0;0;;0;0;0;0;0;0;0;0;0;0;;0;0;0;0;0;0;0;0;0;0;0;0;0;1;0;1;0;0;0;2;4;0;0;0;1;1;02/07/2012 10:51:28 a.m.
30PBT0635R;CEM LATINOAMERICA;1;VERACRUZ DE IGNACIO DE LA LLAVE;039;COATZACOALCOS;0001;COATZACOALCOS;AVENIDA BENITO JAUREZ NUM. 310 DEPARTAMENTO 1 Y 2 NUM. 0;;CC;000;00;49;61;68;;;;;;2011;;;1;2;0;0;0;0;0;0;0;0;0;0;0;0;0;0;0;0;0;0;0;0;0;0;0;0;0;0;0;0;8;6;7;10;0;0;0;31;0;6;4;6;7;0;0;0;23;0;1;2;1;3;0;0;0;7;0;0;0;0;0;0;0;0;0;0;0;0;0;0;0;0;0;0;0;0;0;0;0;0;0;0;0;0;0;0;0;0;0;0;0;2;0;0;0;0;0;0;0;0;0;0;0;0;0;2;0;0;0;0;0;0;0;0;0;0;0;0;0;0;0;0;0;0;0;0;0;0;0;0;0;0;0;0;0;0;0;0;0;1;0;0;0;0;0;0;0;0;0;0;0;0;0;0;0;0;0;0;0;0;0;0;0;0;0;0;;0;0;0;0;0;0;0;0;0;0;;0;0;0;0;0;0;0;0;0;0;;0;0;0;0;0;0;0;0;0;0;0;0;0;1;0;2;0;0;0;2;5;0;0;0;2;2;02/07/2012 10:31:37 a.m.
30PBT0636Q;CENTRO PROFESIONAL DE BELLEZA;2;VERACRUZ DE IGNACIO DE LA LLAVE;108;MINATITLAN;0001;MINATITLAN;AVENIDA AGUSTIN DE ITURBIDE NUM. 58 ALTOS NUM. 0;;CC;000;00;49;61;68;;;;;;2011;;;1;1;0;0;0;0;0;0;0;0;0;0;0;0;0;0;0;0;0;0;0;0;0;0;0;0;0;0;0;0;8;3;5;12;0;0;0;28;0;5;2;4;9;0;0;0;20;0;2;1;1;3;0;0;0;7;0;0;0;0;0;0;0;0;0;0;0;0;0;0;0;0;0;0;0;0;0;0;0;0;0;0;0;0;0;1;0;0;0;0;0;2;0;0;0;0;0;0;0;0;0;0;0;0;0;1;0;0;0;0;0;0;0;0;0;0;0;0;0;0;0;0;0;0;0;0;0;0;0;0;0;0;0;0;0;0;0;0;0;1;0;0;0;0;0;0;0;0;0;0;0;0;0;0;0;0;0;0;0;0;0;0;0;0;0;0;;0;0;0;0;0;0;0;0;0;0;;0;0;0;0;0;0;0;0;0;0;;0;0;0;0;0;0;0;0;0;0;0;0;0;1;0;2;0;0;0;2;5;0;0;0;2;2;02/07/2012 09:48:50 a.m.
30PBT0636Q;CENTRO PROFESIONAL DE BELLEZA;1;VERACRUZ DE IGNACIO DE LA LLAVE;108;MINATITLAN;0001;MINATITLAN;AVENIDA AGUSTIN DE ITURBIDE NUM. 58 ALTOS NUM. 0;;CC;000;00;49;61;68;;;;;;2011;;;1;2;0;0;0;0;0;0;0;0;0;0;0;0;0;0;0;0;0;0;0;0;0;0;0;0;0;0;0;0;6;10;8;10;2;0;0;36;0;4;8;6;7;1;0;0;26;0;2;3;1;1;0;0;0;7;0;0;0;0;0;0;0;0;0;0;0;0;0;0;0;0;0;0;0;0;0;0;0;0;0;0;0;0;0;1;0;0;0;0;0;2;0;0;0;0;0;0;0;0;0;0;0;0;0;1;0;0;0;0;0;0;0;0;0;0;0;0;0;0;0;0;0;0;0;0;0;0;0;0;0;0;0;0;0;0;0;0;0;1;0;0;0;0;0;0;0;0;0;0;0;0;0;0;0;0;0;0;0;0;0;0;0;0;0;0;;0;0;0;0;0;0;0;0;0;0;;0;0;0;0;0;0;0;0;0;0;;0;0;0;0;0;0;0;0;0;0;0;0;0;1;0;2;0;0;0;2;5;0;0;0;2;2;02/07/2012 09:42:43 a.m.
30PBT0636Q;CENTRO PROFESIONAL DE BELLEZA;3;VERACRUZ DE IGNACIO DE LA LLAVE;108;MINATITLAN;0001;MINATITLAN;AVENIDA AGUSTIN DE ITURBIDE NUM. 58 ALTOS NUM. 0;;CC;000;00;49;61;68;;;;;;2011;;;1;1;0;0;0;0;0;0;0;0;0;0;0;0;0;0;0;0;0;0;0;0;0;0;0;0;0;0;0;0;0;10;6;7;0;0;0;23;0;0;7;4;5;0;0;0;16;0;0;2;1;1;0;0;0;4;0;0;0;0;0;0;0;0;0;0;0;0;0;0;0;0;0;0;0;0;0;0;0;0;0;0;0;0;0;1;0;0;0;0;0;1;0;0;0;0;0;0;0;0;0;0;0;0;0;1;0;0;0;0;0;0;0;0;0;0;0;0;0;0;0;0;0;0;0;0;0;0;0;0;0;0;0;0;0;0;0;0;0;1;0;0;0;0;0;0;0;0;0;0;0;0;0;0;0;0;0;0;0;0;0;0;0;0;0;0;;0;0;0;0;0;0;0;0;0;0;;0;0;0;0;0;0;0;0;0;0;;0;0;0;0;0;0;0;0;0;0;0;0;0;1;0;1;0;0;0;2;4;0;0;0;1;1;02/07/2012 09:52:44 a.m.
30PBT0638O;CENTRO DE ESTUDIOS COMPUTACIONALES AYCA;1;VERACRUZ DE IGNACIO DE LA LLAVE;160;ALAMO TEMAPACHE;0001;ALAMO;CRESCENCIANO RAMIREZ NUM. 27 NUM. 0;;CC;000;00;62;61;68;;;;;;2011;;;2;3;4;6;0;0;0;0;0;0;10;4;6;0;0;0;0;0;0;10;0;0;0;0;0;0;0;0;0;2;6;0;0;0;0;0;0;8;2;6;0;0;0;0;0;0;8;0;0;0;0;0;0;0;0;0;0;0;0;0;0;0;0;0;0;0;0;0;0;0;0;0;0;0;0;0;0;0;0;0;0;0;0;0;0;0;0;0;0;0;0;0;0;0;0;0;0;0;0;0;0;0;0;0;0;1;0;0;0;0;0;0;0;0;0;0;0;0;0;0;0;0;0;0;0;0;0;0;0;0;0;0;0;0;0;0;1;0;0;0;3;0;0;0;0;0;0;0;0;0;0;0;0;0;0;0;0;0;0;0;0;0;0;0;0;0;;0;0;0;0;0;0;0;0;0;0;;0;0;0;0;0;0;0;0;0;0;;0;0;0;0;0;0;0;0;0;0;1;0;0;0;3;0;0;0;0;1;5;3;0;1;0;4;29/06/2012 12:43:20 p.m.
30PBT0298G;CARNEGIE CENTER;3;VERACRUZ DE IGNACIO DE LA LLAVE;131;POZA RICA DE HIDALGO;0001;POZA RICA DE HIDALGO;BOULEVARD ADOLFO RUIZ CORTINES NUM. 1307 NUM. 0;;CC;000;00;63;61;68;;;;;;2011;;;1;4;1;3;10;1;0;0;0;0;15;1;3;6;1;0;0;0;0;11;1;3;6;1;0;0;0;0;11;0;4;2;1;1;0;0;0;8;0;4;2;1;1;0;0;0;8;0;4;2;1;1;0;0;0;8;0;0;0;0;0;0;0;0;0;0;0;0;0;0;0;0;0;0;0;0;0;0;0;0;0;0;0;0;0;1;0;0;0;0;1;0;0;0;0;0;0;0;0;0;2;0;0;0;0;0;0;0;0;0;0;0;0;0;0;0;0;0;1;0;0;0;0;0;0;0;0;0;0;0;0;0;0;0;0;0;0;0;0;0;0;0;0;0;0;0;0;0;0;0;0;0;0;0;0;0;0;0;0;0;0;0;0;0;0;0;;0;0;0;0;0;0;0;0;0;0;;0;0;0;0;0;0;0;0;0;0;;0;0;0;0;0;0;0;0;0;0;0;0;1;0;3;0;0;0;0;1;5;0;0;0;3;3;26/06/2012 04:04:28 p.m.
30PBT0298G;CARNEGIE CENTER;1;VERACRUZ DE IGNACIO DE LA LLAVE;131;POZA RICA DE HIDALGO;0001;POZA RICA DE HIDALGO;BOULEVARD ADOLFO RUIZ CORTINES NUM. 1307 NUM. 0;;CC;000;00;63;61;68;;;;;;2011;;;1;39;28;104;76;8;2;0;0;0;218;26;92;64;5;2;0;0;0;189;26;92;64;5;2;0;0;0;189;24;112;64;8;2;0;0;0;210;22;100;54;5;2;0;0;0;183;22;100;54;5;2;0;0;0;183;0;0;0;0;0;0;0;0;0;0;0;0;0;0;0;0;0;0;0;0;0;0;0;0;0;0;0;0;0;1;0;0;0;0;1;2;0;0;1;0;0;1;0;0;4;2;0;0;0;2;0;0;0;0;0;0;0;0;0;0;0;0;0;0;0;0;0;0;0;0;0;0;0;0;0;0;0;0;0;0;1;0;1;0;2;0;0;0;0;0;0;0;0;0;0;0;0;0;0;0;0;0;0;0;0;0;0;0;0;0;;0;0;0;0;0;0;0;0;0;0;;0;0;0;0;0;0;0;0;0;0;;0;0;0;0;0;0;0;0;0;0;1;1;1;0;7;4;0;0;1;3;18;2;0;7;4;13;26/06/2012 04:57:58 p.m.
30PBT0298G;CARNEGIE CENTER;2;VERACRUZ DE IGNACIO DE LA LLAVE;131;POZA RICA DE HIDALGO;0001;POZA RICA DE HIDALGO;BOULEVARD ADOLFO RUIZ CORTINES NUM. 1307 NUM. 0;;CC;000;00;63;61;68;;;;;;2011;;;2;39;36;86;44;9;2;0;0;0;177;34;71;40;6;1;0;0;0;152;34;71;40;6;1;0;0;0;152;41;79;53;9;0;0;0;0;182;40;68;45;7;0;0;0;0;160;40;68;45;7;0;0;0;0;160;0;0;0;0;0;0;0;0;0;0;0;0;0;0;0;0;0;0;0;0;0;0;0;0;0;0;0;0;0;1;0;0;0;0;1;2;0;0;0;1;0;1;0;0;5;1;0;0;0;0;0;0;0;0;0;0;0;0;0;0;0;0;0;1;0;0;0;0;0;0;0;0;0;0;0;0;0;0;0;0;1;0;1;0;2;0;0;0;0;1;0;0;0;0;0;0;0;0;0;0;0;0;0;0;0;0;0;0;0;0;;0;0;0;0;0;0;0;0;0;0;;0;0;0;0;0;0;0;0;0;0;;0;0;0;0;0;0;0;0;0;0;1;1;1;1;8;3;0;0;0;3;18;2;0;7;4;13;26/06/2012 04:39:19 p.m.
30PBT0300E;CENTRO DE ESTUDIOS EN COMPUTACION LAS AMERICAS;2;VERACRUZ DE IGNACIO DE LA LLAVE;097;LERDO DE TEJADA;0001;LERDO DE TEJADA;17 DE ABRIL NUM. 5 NUM. 0;;NE;000;00;61;61;68;;;;;;2011;3;;;;;;;;;;;;;;;;;;;;;;;;;;;;;;;;;;;;;;;;;;;;;;;;;;;;;;;;;;;;;;;;;;;;;;;;;;;;;;;;;;;;;;;;;;;;;;;;;;;;;;;;;;;;;;;;;;;;;;;;;;;;;;;;;;;;;;;;;;;;;;;;;;;;;;;;;;;;;;;;;;;;;;;;;;;;;;;;;;;;;;;;;;;;;;;;;;;;;;;;;;;;;;;;;;;;;;;;;29/06/2012 09:01:07 a.m.
30PBT0300E;CENTRO DE ESTUDIOS EN COMPUTACION LAS AMERICAS;3;VERACRUZ DE IGNACIO DE LA LLAVE;097;LERDO DE TEJADA;0001;LERDO DE TEJADA;17 DE ABRIL NUM. 5 NUM. 0;;NE;000;00;61;61;68;;;;;;2011;3;;;;;;;;;;;;;;;;;;;;;;;;;;;;;;;;;;;;;;;;;;;;;;;;;;;;;;;;;;;;;;;;;;;;;;;;;;;;;;;;;;;;;;;;;;;;;;;;;;;;;;;;;;;;;;;;;;;;;;;;;;;;;;;;;;;;;;;;;;;;;;;;;;;;;;;;;;;;;;;;;;;;;;;;;;;;;;;;;;;;;;;;;;;;;;;;;;;;;;;;;;;;;;;;;;;;;;;;;29/06/2012 09:08:54 a.m.
30PBT0356G;COLEGIO PACCIOLI COATZACOALCOS;2;VERACRUZ DE IGNACIO DE LA LLAVE;039;COATZACOALCOS;0001;COATZACOALCOS;PROLONGACION RODRIGUEZ MALPICA NUM. 2004 NUM. 0;;NE;000;00;49;61;68;;;;;;2011;;;2;2;0;2;6;1;0;0;0;0;9;0;2;6;1;0;0;0;0;9;0;2;6;1;0;0;0;0;9;0;5;3;1;0;0;0;0;9;0;5;3;1;0;0;0;0;9;0;5;3;1;0;0;0;0;9;0;0;0;0;0;0;0;0;0;0;0;0;0;0;0;0;0;0;0;0;0;0;0;0;0;0;0;0;0;3;0;0;0;0;1;0;0;0;0;0;0;0;0;0;0;0;0;0;0;0;0;0;0;0;0;0;0;0;0;0;0;0;0;0;0;0;0;0;0;0;0;0;0;0;0;0;0;0;0;0;0;0;2;0;1;1;0;0;0;0;0;0;0;0;0;0;0;0;0;0;0;0;0;0;0;0;0;0;0;0;;0;0;0;0;0;0;0;0;0;0;;0;0;0;0;0;0;0;0;0;0;;0;0;0;0;0;0;0;0;0;0;0;0;2;0;2;1;0;0;0;3;8;1;0;0;2;3;28/06/2012 03:08:43 p.m.
30PBT0356G;COLEGIO PACCIOLI COATZACOALCOS;1;VERACRUZ DE IGNACIO DE LA LLAVE;039;COATZACOALCOS;0001;COATZACOALCOS;PROLONGACION RODRIGUEZ MALPICA NUM. 2004 NUM. 0;;NE;000;00;49;61;68;;;;;;2011;;;2;2;0;9;11;0;0;0;0;0;20;0;9;11;0;0;0;0;0;20;0;9;11;0;0;0;0;0;20;0;28;6;5;0;0;0;0;39;0;28;6;5;0;0;0;0;39;0;28;6;5;0;0;0;0;39;0;0;0;0;0;0;0;0;0;0;0;0;0;0;0;0;0;0;0;0;0;0;0;0;0;0;0;0;0;3;0;0;0;0;1;0;0;0;0;0;0;0;0;0;0;0;0;0;0;0;0;0;0;0;0;0;0;0;0;0;0;0;0;0;0;0;0;0;0;0;0;0;0;0;0;0;0;0;0;0;0;0;2;0;1;1;0;0;0;0;0;0;0;0;0;0;0;0;0;0;0;0;0;0;0;0;0;0;0;0;;0;0;0;0;0;0;0;0;0;0;;0;0;0;0;0;0;0;0;0;0;;0;0;0;0;0;0;0;0;0;0;0;0;2;0;2;1;0;0;0;3;8;1;0;0;2;3;28/06/2012 02:39:56 p.m.
30PBT0356G;COLEGIO PACCIOLI COATZACOALCOS;3;VERACRUZ DE IGNACIO DE LA LLAVE;039;COATZACOALCOS;0001;COATZACOALCOS;PROLONGACION RODRIGUEZ MALPICA NUM. 2004 NUM. 0;;NE;000;00;49;61;68;;;;;;2011;;;1;1;0;0;1;0;0;0;0;0;1;0;0;1;0;0;0;0;0;1;0;0;1;0;0;0;0;0;1;0;0;2;1;0;0;0;0;3;0;0;2;1;0;0;0;0;3;0;0;2;1;0;0;0;0;3;0;0;0;0;0;0;0;0;0;0;0;0;0;0;0;0;0;0;0;0;0;0;0;0;0;0;0;0;0;3;0;0;0;0;1;0;0;0;0;0;0;0;0;0;0;0;0;0;0;0;0;0;0;0;0;0;0;0;0;0;0;0;0;0;0;0;0;0;0;0;0;0;0;0;0;0;0;0;0;0;0;0;2;0;1;1;0;0;0;0;0;0;0;0;0;0;0;0;0;0;0;0;0;0;0;0;0;0;0;0;;0;0;0;0;0;0;0;0;0;0;;0;0;0;0;0;0;0;0;0;0;;0;0;0;0;0;0;0;0;0;0;0;0;2;0;2;1;0;0;0;3;8;1;0;0;2;3;28/06/2012 03:18:08 p.m.
30EIC0010L;INSTITUTO DE CAPACITACION PARA EL TRABAJO UNIDAD JUAN RODRIGUEZ CLARA;2;VERACRUZ DE IGNACIO DE LA LLAVE;094;JUAN RODRIGUEZ CLARA;0001;JUAN RODRIGUEZ CLARA;GUILLERMO PRIETO S/N ESQUINA BENITO PEREZ GALDOS NUM. 0;;CC;000;00;52;26;68;;;;;;2011;;;8;112;0;414;24;8;10;10;3;1;470;0;367;20;5;7;8;2;1;410;0;367;20;5;7;8;2;1;410;0;745;221;428;345;163;62;6;1970;0;636;166;341;259;125;48;3;1578;0;636;166;341;259;125;48;3;1578;0;0;0;0;0;0;0;0;0;0;0;0;0;0;0;0;0;0;1;0;0;0;0;0;0;7;0;0;0;0;0;0;0;0;2;0;0;0;0;1;0;0;0;0;0;0;0;0;0;2;0;0;0;0;0;8;0;0;0;0;0;0;0;0;0;0;0;0;0;0;0;0;0;0;0;0;0;0;0;0;0;0;2;1;6;5;0;0;2;1;0;0;0;0;0;0;0;0;0;0;0;0;0;0;0;0;0;0;0;0;;0;0;0;0;0;0;0;0;0;0;;0;0;0;0;0;0;0;0;0;0;;0;0;0;0;0;0;0;0;0;0;0;0;2;1;8;20;0;0;3;4;38;0;0;0;28;28;02/07/2012 05:37:32 p.m.
30PBT0015J;INSTITUTO DE ACONDICIONAMIENTO AEROBICO ANSSARES;1;VERACRUZ DE IGNACIO DE LA LLAVE;087;XALAPA;0001;XALAPA-ENRIQUEZ;NUEVO LEON NUM. 408 NUM. 0;;NP;000;00;56;61;68;;;;;;2011;;;3;3;0;0;0;0;0;0;0;0;0;0;0;0;0;0;0;0;0;0;0;0;0;0;0;0;0;0;0;0;10;15;2;0;0;0;0;27;0;10;15;2;0;0;0;0;27;0;10;15;2;0;0;0;0;27;0;0;0;0;0;0;0;0;0;0;0;0;0;0;0;0;0;0;0;0;0;0;0;0;0;0;0;0;0;0;0;0;0;0;0;0;0;0;0;0;0;0;0;0;0;0;0;0;0;0;0;0;0;0;0;0;0;0;0;0;0;0;0;0;0;0;0;0;0;0;0;0;0;0;0;0;0;0;0;0;0;0;0;0;0;1;0;0;0;0;0;1;0;0;0;0;0;0;0;0;0;0;0;0;0;0;0;0;0;0;;0;0;0;0;0;0;0;0;0;0;;0;0;0;0;0;0;0;0;0;0;;0;0;0;0;0;0;0;0;0;0;0;1;0;0;0;1;0;0;0;0;2;2;0;0;0;2;02/07/2012 05:53:16 p.m.
30PBT0031A;THE INSTITUTE THE ULTIMATE ENGLISH LANGUAGE SCHOOL, PLANTEL MINATITLAN;1;VERACRUZ DE IGNACIO DE LA LLAVE;108;MINATITLAN;0001;MINATITLAN;CALLE 12, LOTE 6, MANZANA 28 NUM. 0;;CC;000;00;49;61;68;;;;;;2011;;;4;21;14;33;32;6;4;1;0;0;90;14;33;32;6;4;1;0;0;90;14;33;32;6;4;1;0;0;90;8;40;33;14;2;1;0;0;98;8;40;33;14;2;1;0;0;98;8;40;33;14;2;1;0;0;98;0;0;0;0;0;0;0;0;0;0;0;0;0;0;0;0;0;0;0;0;0;0;0;0;1;0;0;0;0;0;0;0;0;0;0;0;0;0;0;0;2;0;0;0;7;1;0;0;0;1;0;0;0;0;0;0;0;0;0;0;0;0;0;0;0;0;0;0;0;0;0;0;0;0;0;0;0;0;0;0;0;0;0;0;1;3;0;0;0;2;0;0;0;0;0;0;0;0;0;0;0;0;0;0;0;0;0;0;0;0;;0;0;0;0;0;0;0;0;0;0;;0;0;0;0;0;0;0;0;0;0;;0;0;0;0;0;0;0;0;0;0;2;0;0;0;9;4;0;0;0;3;18;2;0;0;13;15;26/06/2012 06:56:22 p.m.
30PBT0031A;THE INSTITUTE THE ULTIMATE ENGLISH LANGUAGE SCHOOL, PLANTEL MINATITLAN;2;VERACRUZ DE IGNACIO DE LA LLAVE;108;MINATITLAN;0001;MINATITLAN;CALLE 12, LOTE 6, MANZANA 28 NUM. 0;;CC;000;00;49;61;68;;;;;;2011;;;4;26;7;43;34;11;1;3;1;0;100;7;43;34;11;1;3;1;0;100;7;43;34;11;1;3;1;0;100;14;51;20;21;3;1;1;0;111;14;51;20;21;3;1;1;0;111;14;51;20;21;3;1;1;0;111;0;0;0;0;0;0;0;0;0;0;0;0;0;0;0;0;0;0;0;0;0;0;0;0;1;0;0;0;0;0;0;0;0;0;0;0;0;0;0;0;2;0;0;0;7;1;0;0;0;1;0;0;0;0;0;0;0;0;0;0;0;0;0;0;0;0;0;0;0;0;0;0;0;0;0;0;0;0;0;0;0;0;0;0;1;3;0;0;0;2;0;0;0;0;0;0;0;0;0;0;0;0;0;0;0;0;0;0;0;0;;0;0;0;0;0;0;0;0;0;0;;0;0;0;0;0;0;0;0;0;0;;0;0;0;0;0;0;0;0;0;0;2;0;0;0;9;4;0;0;0;3;18;2;0;0;13;15;26/06/2012 07:30:27 p.m.
30PBT0135W;ACADEMIA COMERCIAL TERE;1;VERACRUZ DE IGNACIO DE LA LLAVE;094;JUAN RODRIGUEZ CLARA;0001;JUAN RODRIGUEZ CLARA;EJIDO NUM. 14 NUM. 0;;NP;000;00;52;61;68;;;;;;2011;;;1;1;0;4;1;0;0;0;0;0;5;0;4;1;0;0;0;0;0;5;0;4;1;0;0;0;0;0;5;0;3;1;0;0;0;0;0;4;0;3;1;0;0;0;0;0;4;0;3;1;0;0;0;0;0;4;0;0;0;0;0;0;0;0;0;0;0;0;0;0;0;0;0;0;0;0;0;0;0;0;0;0;0;0;0;0;0;1;0;0;0;0;0;0;0;0;0;0;0;0;0;0;0;0;0;0;0;0;0;0;0;0;0;0;0;0;0;0;0;0;0;0;0;0;0;0;0;0;0;0;0;0;0;0;0;0;0;0;0;0;0;0;0;0;0;0;0;0;0;0;0;0;0;0;0;0;0;0;0;0;0;0;0;0;0;0;;0;0;0;0;0;0;0;0;0;0;;0;0;0;0;0;0;0;0;0;0;;0;0;0;0;0;0;0;0;0;0;0;1;0;0;0;0;0;0;0;0;1;1;0;0;0;1;28/06/2012 12:16:36 p.m.
30PBT0188A;CENTRO DE CAPACITACION DE CULTORAS DE BELLEZA;1;VERACRUZ DE IGNACIO DE LA LLAVE;102;MARTINEZ DE LA TORRE;0001;MARTINEZ DE LA TORRE;MARIANO MATAMOROS NUM. 28 NUM. 0;;CC;000;00;44;61;68;;;;;;2011;;;1;1;0;0;0;0;0;0;0;0;0;0;0;0;0;0;0;0;0;0;0;0;0;0;0;0;0;0;0;0;9;1;5;1;0;0;0;16;0;6;1;2;1;0;0;0;10;0;6;1;2;1;0;0;0;10;0;0;0;0;0;0;0;0;0;0;0;0;0;0;0;0;0;0;0;0;0;0;0;0;0;0;0;0;0;0;0;1;0;0;0;2;0;0;0;0;0;0;0;0;0;0;0;0;0;0;0;0;0;0;0;0;0;0;0;0;0;0;0;0;0;0;0;0;0;0;0;0;0;0;0;0;0;0;0;0;0;0;0;0;0;0;0;0;0;0;0;0;0;0;0;0;0;0;0;0;0;0;0;0;0;0;0;0;0;0;;0;0;0;0;0;0;0;0;0;0;;0;0;0;0;0;0;0;0;0;0;;0;0;0;0;0;0;0;0;0;0;0;1;0;0;0;2;0;0;0;0;3;3;0;0;0;3;29/06/2012 10:48:56 a.m.
30PBT0237T;ACADEMIA COMERCIAL SAN JUAN FARIAS;2;VERACRUZ DE IGNACIO DE LA LLAVE;118;ORIZABA;0001;ORIZABA;SUR 5 NUM. 627 NUM. 0;;CC;000;00;64;61;68;;;;;;2011;;;1;1;0;0;0;1;0;0;0;0;1;0;0;0;1;0;0;0;0;1;0;0;0;0;0;0;0;0;0;0;0;0;1;0;0;0;0;1;0;0;0;1;0;0;0;0;1;0;0;0;0;0;0;0;0;0;0;0;0;0;0;0;0;0;0;0;0;0;0;0;0;0;0;0;0;0;0;0;0;0;0;0;0;0;0;0;1;1;0;0;0;0;0;0;1;1;0;0;0;0;0;0;0;0;0;0;0;0;0;0;0;0;0;0;0;0;0;0;0;0;0;0;0;0;0;0;0;0;0;0;0;0;0;0;0;0;0;0;0;0;1;1;0;0;0;0;0;0;0;0;0;0;0;0;0;0;0;0;0;0;0;0;0;0;0;0;;0;0;0;0;0;0;0;0;0;0;;0;0;0;0;0;0;0;0;0;0;;0;0;0;0;0;0;0;0;0;0;1;1;0;0;1;1;0;0;1;1;6;2;0;0;2;4;29/06/2012 07:05:45 p.m.
30PBT0237T;ACADEMIA COMERCIAL SAN JUAN FARIAS;1;VERACRUZ DE IGNACIO DE LA LLAVE;118;ORIZABA;0001;ORIZABA;SUR 5 NUM. 627 NUM. 0;;CC;000;00;64;61;68;;;;;;2011;;;1;1;0;0;0;1;0;0;0;0;1;0;0;0;1;0;0;0;0;1;0;0;0;1;0;0;0;0;1;0;0;0;1;0;0;0;0;1;0;0;0;1;0;0;0;0;1;0;0;0;1;0;0;0;0;1;0;0;0;0;0;0;0;0;0;0;0;0;0;0;0;0;0;0;0;0;0;0;0;0;0;0;0;0;0;0;1;1;0;0;0;0;0;0;1;1;0;0;0;0;0;0;0;0;0;0;0;0;0;0;0;0;0;0;0;0;0;0;0;0;0;0;0;0;0;0;0;0;0;0;0;0;0;0;0;0;0;0;0;0;1;1;0;0;0;0;0;0;0;0;0;0;0;0;0;0;0;0;0;0;0;0;0;0;0;0;;0;0;0;0;0;0;0;0;0;0;;0;0;0;0;0;0;0;0;0;0;;0;0;0;0;0;0;0;0;0;0;1;1;0;0;1;1;0;0;1;1;6;2;0;0;2;4;29/06/2012 06:57:01 p.m.
30PBT0252L;INSTITUTO AMERICA;2;VERACRUZ DE IGNACIO DE LA LLAVE;141;SAN ANDRES TUXTLA;0001;SAN ANDRES TUXTLA;PASAJE MUNICIPAL Y ALLENDE NUM. 6 NUM. 0;;CC;000;00;61;61;68;;;;;;2011;;;1;13;10;26;4;1;0;0;0;0;41;9;19;3;1;0;0;0;0;32;9;19;3;1;0;0;0;0;32;21;24;8;9;1;0;0;0;63;20;21;7;7;1;0;0;0;56;20;21;7;7;1;0;0;0;56;0;0;0;0;0;0;0;0;0;0;0;0;0;0;0;0;0;0;0;0;0;0;0;0;0;0;0;0;0;1;0;0;0;0;0;0;0;0;0;0;0;0;0;0;0;0;0;0;0;1;0;0;0;0;0;0;0;0;0;0;0;0;0;0;0;0;0;0;0;0;0;0;0;0;0;0;0;0;0;0;1;0;0;0;1;1;0;0;0;0;0;0;0;0;0;0;0;0;0;0;0;0;0;0;0;0;0;0;0;0;;0;0;0;0;0;0;0;0;0;0;;0;0;0;0;0;0;0;0;0;0;;0;0;0;0;0;0;0;0;0;0;1;0;0;0;1;1;0;0;0;2;5;1;0;0;2;3;28/06/2012 03:53:22 p.m.
30PBT0252L;INSTITUTO AMERICA;1;VERACRUZ DE IGNACIO DE LA LLAVE;141;SAN ANDRES TUXTLA;0001;SAN ANDRES TUXTLA;PASAJE MUNICIPAL Y ALLENDE NUM. 6 NUM. 0;;CC;000;00;61;61;68;;;;;;2011;;;1;4;2;4;0;3;1;0;0;0;10;2;3;0;2;1;0;0;0;8;2;3;0;2;1;0;0;0;8;6;9;1;5;2;1;0;0;24;4;3;1;4;2;1;0;0;15;4;3;1;4;2;1;0;0;15;0;0;0;0;0;0;0;0;0;0;0;0;0;0;0;0;0;0;0;0;0;0;0;0;0;0;0;0;0;1;0;0;0;0;0;0;0;0;0;0;0;0;0;0;0;0;0;0;0;1;0;0;0;0;0;0;0;0;0;0;0;0;0;0;0;0;0;0;0;0;0;0;0;0;0;0;0;0;0;0;1;0;0;0;1;1;0;0;0;0;0;0;0;0;0;0;0;0;0;0;0;0;0;0;0;0;0;0;0;0;;0;0;0;0;0;0;0;0;0;0;;0;0;0;0;0;0;0;0;0;0;;0;0;0;0;0;0;0;0;0;0;1;0;0;0;1;1;0;0;0;2;5;1;0;0;2;3;28/06/2012 03:21:42 p.m.
